[
    {
        "term": "All these carts are real live sent carts so rather dont delete them. You can set ",
        "definition": "Alle diese Karren sind echte live gesendete Wagen, also l\u00f6schen sie nicht. Sie k\u00f6nnen festlegen",
        "context": "",
        "term_plural": "",
        "reference": "email-cart.php:182",
        "comment": ""
    },
    {
        "term": "GO TO COLLECTION",
        "definition": "GEHE ZUR KOLLEKTION",
        "context": "",
        "term_plural": "",
        "reference": "email-cart.php:476",
        "comment": ""
    },
    {
        "term": "Here's the link to your cart collection if the buttons don't work ",
        "definition": "Hier ist der Link zu Ihrer Cart Collection, wenn die Buttons nicht funktionieren",
        "context": "",
        "term_plural": "",
        "reference": "email-cart.php:659",
        "comment": ""
    },
    {
        "term": "We're sorry but it seems the cart you're looking for no longer exists. Please feel free to browse our store while you're here.",
        "definition": "Es tut uns leid, aber es scheint, dass der Warenkorb, nach dem Sie suchen, nicht mehr existiert. Bitte z\u00f6gern Sie nicht, unseren Shop zu durchsuchen, w\u00e4hrend Sie hier sind.",
        "context": "",
        "term_plural": "",
        "reference": "email-cart.php:756",
        "comment": ""
    },
    {
        "term": "Cart Retrieved",
        "definition": "Einkaufswagen abgerufen",
        "context": "",
        "term_plural": "",
        "reference": "email-cart.php:773 admin\/cart_index_interface.php:147",
        "comment": ""
    },
    {
        "term": "Edit Cart",
        "definition": "Einkaufswagen bearbeiten",
        "context": "",
        "term_plural": "",
        "reference": "email-cart.php:1029",
        "comment": ""
    },
    {
        "term": "Your cart is empty.",
        "definition": "Dein Wagen ist leer.",
        "context": "",
        "term_plural": "",
        "reference": "email-cart.php:1036 email-cart.php:1061",
        "comment": ""
    },
    {
        "term": "Are you sure you want to remove the selected items? If you have previously reduced this item's stock, or this order was submitted by a customer, you will need to manually restore the item's stock.",
        "definition": "M\u00f6chten Sie die ausgew\u00e4hlten Elemente wirklich entfernen? Wenn Sie den Bestand dieses Artikels zuvor reduziert haben oder dieser Auftrag von einem Kunden gesendet wurde, m\u00fcssen Sie den Bestand des Artikels manuell wiederherstellen.",
        "context": "",
        "term_plural": "",
        "reference": "email-cart.php:1173",
        "comment": ""
    },
    {
        "term": "This will overwrite this saved cart. Are you sure you want to proceed?",
        "definition": "Dies \u00fcberschreibt diesen gespeicherten Warenkorb. Sind Sie sicher, dass Sie fortfahren m\u00f6chten?",
        "context": "",
        "term_plural": "",
        "reference": "email-cart.php:1182",
        "comment": ""
    },
    {
        "term": "Doing this will mean the saved cart is no longer be retrievable by whoever saved it. Are you sure you want to proceed?",
        "definition": "Dies bedeutet, dass der gespeicherte Einkaufswagen nicht mehr von demjenigen abgerufen werden kann, der ihn gespeichert hat. Sind Sie sicher, dass Sie fortfahren m\u00f6chten?",
        "context": "",
        "term_plural": "",
        "reference": "email-cart.php:1183",
        "comment": ""
    },
    {
        "term": "(optional)",
        "definition": "(optional)",
        "context": "",
        "term_plural": "",
        "reference": "email-cart.php:1318",
        "comment": ""
    },
    {
        "term": "Cart Name",
        "definition": "Warenkorb Name",
        "context": "",
        "term_plural": "",
        "reference": "email-cart.php:1319",
        "comment": ""
    },
    {
        "term": "Naming your Cart is a way to permanently store the cart - because custom named carts don't get automatically deleted when they get old (if that setting is active). Naming your cart something like 'Summer Hotlist' will mean you can easily find it when browsing your stored carts, then quickly link to it from a Advert or send the link to a customer in an Email. *Only users logged in with Store Manager privileges (and above) will see this option to name their stored carts.",
        "definition": "Die Benennung Ihres Warenkorbs ist eine M\u00f6glichkeit, den Einkaufswagen dauerhaft zu speichern - da benutzerdefinierte benannte Warenk\u00f6rbe nicht automatisch gel\u00f6scht werden, wenn sie alt werden (wenn diese Einstellung aktiv ist). Benennen Sie Ihren Einkaufswagen so etwas wie \"Summer Hotlist\", so k\u00f6nnen Sie ihn leicht finden, wenn Sie Ihre gespeicherten Warenk\u00f6rbe durchsuchen, dann schnell von einer Anzeige darauf verlinken oder den Link an einen Kunden in einer E-Mail senden. * Nur Benutzer, die mit Store Manager-Rechten (und h\u00f6her) angemeldet sind, sehen diese Option, um ihre gespeicherten Einkaufswagen zu benennen.",
        "context": "",
        "term_plural": "",
        "reference": "email-cart.php:1320",
        "comment": ""
    },
    {
        "term": "Cart Page",
        "definition": "Einkaufswagenseite",
        "context": "",
        "term_plural": "",
        "reference": "email-cart.php:1327 email-cart.php:1502",
        "comment": ""
    },
    {
        "term": "Checkout Page",
        "definition": "Kasse-Seite",
        "context": "",
        "term_plural": "",
        "reference": "email-cart.php:1328 email-cart.php:1503",
        "comment": ""
    },
    {
        "term": "Home Page",
        "definition": "Startseite",
        "context": "",
        "term_plural": "",
        "reference": "email-cart.php:1329 email-cart.php:1504",
        "comment": ""
    },
    {
        "term": "Redirect To",
        "definition": "Weiterleiten an",
        "context": "",
        "term_plural": "",
        "reference": "email-cart.php:1331 email-cart.php:1506 admin\/cart_edit_interface.php:290",
        "comment": ""
    },
    {
        "term": "Save Cart & Generate Link",
        "definition": "Warenkorb speichern und Link generieren",
        "context": "",
        "term_plural": "",
        "reference": "email-cart.php:1338",
        "comment": ""
    },
    {
        "term": "http:\/\/&nbsp; (click below to save cart & generate your link)",
        "definition": "http: \/\/ & nbsp; (klicken Sie unten, um den Warenkorb zu speichern und Ihren Link zu generieren)",
        "context": "",
        "term_plural": "",
        "reference": "email-cart.php:1348",
        "comment": ""
    },
    {
        "term": "Copy this cart link and save it, or send it to a friend. Anyone who clicks on the link can retrieve it.",
        "definition": "Kopiere diesen Warenkorb-Link und speichere ihn oder sende ihn an einen Freund. Jeder, der auf den Link klickt, kann ihn abrufen.",
        "context": "",
        "term_plural": "",
        "reference": "email-cart.php:1349",
        "comment": ""
    },
    {
        "term": "Send Cart in an Email",
        "definition": "Einkaufswagen in einer E-Mail senden",
        "context": "",
        "term_plural": "",
        "reference": "email-cart.php:1355",
        "comment": ""
    },
    {
        "term": "Done! close",
        "definition": "Erledigt! schlie\u00dfen",
        "context": "",
        "term_plural": "",
        "reference": "email-cart.php:1358",
        "comment": ""
    },
    {
        "term": "Empty cart. Please add products before saving :)",
        "definition": "Leerer Warenkorb. Bitte f\u00fcgen Sie vor dem Speichern Produkte hinzu :)",
        "context": "",
        "term_plural": "",
        "reference": "email-cart.php:1366",
        "comment": ""
    },
    {
        "term": "Back",
        "definition": "Zur\u00fcck",
        "context": "",
        "term_plural": "",
        "reference": "email-cart.php:1387",
        "comment": ""
    },
    {
        "term": "To email address(es), comma separated",
        "definition": "An E-Mail-Adresse (n), kommagetrennt",
        "context": "",
        "term_plural": "",
        "reference": "email-cart.php:1415",
        "comment": ""
    },
    {
        "term": "To",
        "definition": "Nach",
        "context": "",
        "term_plural": "",
        "reference": "email-cart.php:1416",
        "comment": ""
    },
    {
        "term": "Your email address",
        "definition": "deine Emailadresse",
        "context": "",
        "term_plural": "",
        "reference": "email-cart.php:1450",
        "comment": ""
    },
    {
        "term": "From",
        "definition": "Von",
        "context": "",
        "term_plural": "",
        "reference": "email-cart.php:1451",
        "comment": ""
    },
    {
        "term": "Your Name",
        "definition": "Dein Name",
        "context": "",
        "term_plural": "",
        "reference": "email-cart.php:1458",
        "comment": ""
    },
    {
        "term": "From Name",
        "definition": "Von Namen",
        "context": "",
        "term_plural": "",
        "reference": "email-cart.php:1459",
        "comment": ""
    },
    {
        "term": "Your subject",
        "definition": "Dein Fach",
        "context": "",
        "term_plural": "",
        "reference": "email-cart.php:1476",
        "comment": ""
    },
    {
        "term": "Subject",
        "definition": "Fach",
        "context": "",
        "term_plural": "",
        "reference": "email-cart.php:1477 includes\/class-ec-settings.php:208\nincludes\/class-ec-settings.php:242",
        "comment": ""
    },
    {
        "term": "Send Cart Email",
        "definition": "Warenkorb senden",
        "context": "",
        "term_plural": "",
        "reference": "email-cart.php:1513",
        "comment": ""
    },
    {
        "term": "Your cart email sent successfully :)",
        "definition": "Ihre Einkaufswagen-E-Mail wurde erfolgreich gesendet :)",
        "context": "",
        "term_plural": "",
        "reference": "email-cart.php:1525",
        "comment": ""
    },
    {
        "term": "%sSave & Share Cart for WooCommerce needs WooCommerce%s %sWooCommerce%s must be active for Save & Share Cart to work. Please install & activate WooCommerce.",
        "definition": "% sSave & Share Cart f\u00fcr WooCommerce ben\u00f6tigt WooCommerce% s% sWooCommerce% s muss aktiv sein, damit Save & Share Cart funktionieren kann. Bitte installieren und aktivieren Sie WooCommerce.",
        "context": "",
        "term_plural": "",
        "reference": "email-cart.php:1700",
        "comment": ""
    },
    {
        "term": "%sSave & Share Cart for WooCommerce is inactive%s This version of Save & Share Cart requires WooCommerce %s or newer. For more information about our WooCommerce version support %sclick here%s.",
        "definition": "% sSave & Share Cart f\u00fcr WooCommerce ist inaktiv% s Diese Version von Save & Share Cart ben\u00f6tigt WooCommerce% s oder neuer. F\u00fcr weitere Informationen \u00fcber unsere WooCommerce Version unterst\u00fctzen Sie% sclick hier% s.",
        "context": "",
        "term_plural": "",
        "reference": "email-cart.php:1717",
        "comment": ""
    },
    {
        "term": "Clear Carts",
        "definition": "Klare Wagen",
        "context": "",
        "term_plural": "",
        "reference": "includes\/class-ec-install.php:19",
        "comment": ""
    },
    {
        "term": "Cart Data Cleared",
        "definition": "Warenkorbdaten gel\u00f6scht",
        "context": "",
        "term_plural": "",
        "reference": "includes\/class-ec-install.php:56",
        "comment": ""
    },
    {
        "term": "Timeout occurred, please try again.",
        "definition": "Timeout ist aufgetreten, bitte versuchen Sie es erneut.",
        "context": "",
        "term_plural": "",
        "reference": "includes\/class-ec-install.php:64",
        "comment": ""
    },
    {
        "term": "Save & Share Cart Settings",
        "definition": "Speichern und freigeben",
        "context": "",
        "term_plural": "",
        "reference": "includes\/class-ec-settings.php:30",
        "comment": ""
    },
    {
        "term": "Save & Share Cart",
        "definition": "Speichern & Teilen Einkaufswagen",
        "context": "",
        "term_plural": "",
        "reference": "includes\/class-ec-settings.php:46 includes\/class-ec-settings.php:47\nincludes\/class-ec-settings.php:75 includes\/class-ec-settings.php:156\nincludes\/class-ec-settings.php:157 includes\/class-ec-settings.php:166\nincludes\/class-ec-settings.php:167 admin\/cart_index_interface.php:457",
        "comment": ""
    },
    {
        "term": "Settings",
        "definition": "Einstellungen",
        "context": "",
        "term_plural": "",
        "reference": "includes\/class-ec-settings.php:75 admin\/cart_index_interface.php:461",
        "comment": ""
    },
    {
        "term": "Save changes",
        "definition": "\u00c4nderungen speichern",
        "context": "",
        "term_plural": "",
        "reference": "includes\/class-ec-settings.php:83",
        "comment": ""
    },
    {
        "term": "General Settings",
        "definition": "Allgemeine Einstellungen",
        "context": "",
        "term_plural": "",
        "reference": "includes\/class-ec-settings.php:109",
        "comment": ""
    },
    {
        "term": "Automatically Delete Old Carts",
        "definition": "Alte Karren automatisch l\u00f6schen",
        "context": "",
        "term_plural": "",
        "reference": "includes\/class-ec-settings.php:115",
        "comment": ""
    },
    {
        "term": "Saving a large number of carts can lead to a large database. Automatically clearing the cart list will keep this under control. Check this on to set number of days.",
        "definition": "Das Speichern einer gro\u00dfen Anzahl von Wagen kann zu einer gro\u00dfen Datenbank f\u00fchren. Durch das automatische L\u00f6schen der Warenkorbliste wird dies unter Kontrolle gehalten. Aktivieren Sie dies, um die Anzahl der Tage festzulegen.",
        "context": "",
        "term_plural": "",
        "reference": "includes\/class-ec-settings.php:118",
        "comment": ""
    },
    {
        "term": "Automatically delete carts older than (days)",
        "definition": "Wagen, die \u00e4lter als (Tage) sind, automatisch l\u00f6schen",
        "context": "",
        "term_plural": "",
        "reference": "includes\/class-ec-settings.php:124",
        "comment": ""
    },
    {
        "term": "Any cart that becomes older than the number of days specified will be automatically deleted. In the off chance that a customer attempts to retrieved an old cart a friendly notice will be displayed.",
        "definition": "Jeder Einkaufswagen, der \u00e4lter als die angegebene Anzahl von Tagen wird, wird automatisch gel\u00f6scht. In der unwahrscheinlichen Situation, dass ein Kunde versucht, einen alten Einkaufswagen abzurufen, wird ein freundlicher Hinweis angezeigt.",
        "context": "",
        "term_plural": "",
        "reference": "includes\/class-ec-settings.php:125",
        "comment": ""
    },
    {
        "term": "Main Interface (Popup Modal & Button)",
        "definition": "Hauptschnittstelle (Popup Modal & Button)",
        "context": "",
        "term_plural": "",
        "reference": "includes\/class-ec-settings.php:138",
        "comment": ""
    },
    {
        "term": "Show Button on Cart Page",
        "definition": "Zeige Button auf der Einkaufswagenseite",
        "context": "",
        "term_plural": "",
        "reference": "includes\/class-ec-settings.php:145",
        "comment": ""
    },
    {
        "term": "If you don't like the look of our button you can choose not to show it, then create your own button linking to your share cart page like this http:\/\/......\/cart\/#email-cart (#email-cart is essential).",
        "definition": "Wenn Ihnen das Aussehen unseres Buttons nicht gef\u00e4llt, k\u00f6nnen Sie sich entscheiden, es nicht zu zeigen. Erstellen Sie dann einen eigenen Button, der auf Ihre Share-Cart-Seite verweist: http: \/\/......\/cart\/#email-cart ( # E-Mail-Warenkorb ist unerl\u00e4sslich).",
        "context": "",
        "term_plural": "",
        "reference": "includes\/class-ec-settings.php:147",
        "comment": ""
    },
    {
        "term": "Button Text",
        "definition": "Schaltfl\u00e4chentext",
        "context": "",
        "term_plural": "",
        "reference": "includes\/class-ec-settings.php:153",
        "comment": ""
    },
    {
        "term": "Popup Modal Title",
        "definition": "Popup-Modaltitel",
        "context": "",
        "term_plural": "",
        "reference": "includes\/class-ec-settings.php:163",
        "comment": ""
    },
    {
        "term": "Popup Modal Intro",
        "definition": "Popup Modal Intro",
        "context": "",
        "term_plural": "",
        "reference": "includes\/class-ec-settings.php:173",
        "comment": ""
    },
    {
        "term": "Your Shopping Cart will be saved and you'll be given a link. You, or anyone with the link, can use it to retrieve your Cart at any time.",
        "definition": "Ihr Einkaufswagen wird gespeichert und Sie erhalten einen Link. Sie oder jeder, der \u00fcber den Link verf\u00fcgt, kann damit jederzeit Ihren Einkaufswagen abrufen.",
        "context": "",
        "term_plural": "",
        "reference": "includes\/class-ec-settings.php:176 includes\/class-ec-settings.php:177",
        "comment": ""
    },
    {
        "term": "Popup Modal 'Send Cart' Intro",
        "definition": "Popup Modal 'Warenkorb senden' Intro",
        "context": "",
        "term_plural": "",
        "reference": "includes\/class-ec-settings.php:183",
        "comment": ""
    },
    {
        "term": "Your Shopping Cart will be saved with Product pictures and information, and Cart Totals. Then send it to yourself, or a friend, with a link to retrieve it at any time.",
        "definition": "Ihr Einkaufswagen wird mit Produktbildern und -informationen und Cart Totals gespeichert. Dann schicke es dir oder einem Freund mit einem Link, um es jederzeit abzurufen.",
        "context": "",
        "term_plural": "",
        "reference": "includes\/class-ec-settings.php:186 includes\/class-ec-settings.php:187",
        "comment": ""
    },
    {
        "term": "Email Settings (for Customers and Guests)",
        "definition": "E-Mail-Einstellungen (f\u00fcr Kunden und G\u00e4ste)",
        "context": "",
        "term_plural": "",
        "reference": "includes\/class-ec-settings.php:201",
        "comment": ""
    },
    {
        "term": "Customers will be presented with a form where they can personalize the 'To Address', 'From Address', 'From Name', 'Subject' and 'Message' for the email.",
        "definition": "Den Kunden wird ein Formular angezeigt, in dem sie die Adresse, Adresse, Name, Betreff und Nachricht der E-Mail personalisieren k\u00f6nnen.",
        "context": "",
        "term_plural": "",
        "reference": "includes\/class-ec-settings.php:202",
        "comment": ""
    },
    {
        "term": "This is the pre-populated text in the 'Subject' field for Customers emailing their cart. They can then personlize it before sending.",
        "definition": "Dies ist der vorab ausgef\u00fcllte Text im Feld \"Betreff\" f\u00fcr Kunden, die ihren Einkaufswagen per E-Mail senden. Sie k\u00f6nnen es dann personifizieren, bevor sie senden.",
        "context": "",
        "term_plural": "",
        "reference": "includes\/class-ec-settings.php:209",
        "comment": ""
    },
    {
        "term": "Shopping Cart sent to you via %s",
        "definition": "Einkaufswagen \u00fcber% s an Sie gesendet",
        "context": "",
        "term_plural": "",
        "reference": "includes\/class-ec-settings.php:211 includes\/class-ec-settings.php:212",
        "comment": ""
    },
    {
        "term": "Message",
        "definition": "Nachricht",
        "context": "",
        "term_plural": "",
        "reference": "includes\/class-ec-settings.php:218 includes\/class-ec-settings.php:252",
        "comment": ""
    },
    {
        "term": "This is the pre-populated text in the 'Message' field for Customers emailing their cart. They can then personlize it before sending. The Email message will be styled using the WooCommerce Email Template and the cart added - with it's product pictures and totals.",
        "definition": "Dies ist der vorab ausgef\u00fcllte Text im Feld \"Nachricht\" f\u00fcr Kunden, die ihren Einkaufswagen per E-Mail senden. Sie k\u00f6nnen es dann personifizieren, bevor sie senden. Die E-Mail-Nachricht wird mit der E-Mail-Vorlage von WooCommerce gestylt und der Warenkorb hinzugef\u00fcgt - mit den Produktbildern und Gesamtsummen.",
        "context": "",
        "term_plural": "",
        "reference": "includes\/class-ec-settings.php:219",
        "comment": ""
    },
    {
        "term": "Have a look at this Shopping Cart sent by a friend via %s",
        "definition": "Werfen Sie einen Blick auf diesen Warenkorb, der von einem Freund \u00fcber% s verschickt wurde",
        "context": "",
        "term_plural": "",
        "reference": "includes\/class-ec-settings.php:221 includes\/class-ec-settings.php:222",
        "comment": ""
    },
    {
        "term": "Email Settings (for Administrators and Shop Managers)",
        "definition": "E-Mail-Einstellungen (f\u00fcr Administratoren und Shop-Manager)",
        "context": "",
        "term_plural": "",
        "reference": "includes\/class-ec-settings.php:236",
        "comment": ""
    },
    {
        "term": "Shop Managers will be presented with the same form as above - the difference is the 'From Address' and 'From Name' are pre-populated with the Shop's Email and Name, which can aslo be personalized before sending.",
        "definition": "Shop Manager erhalten das gleiche Formular wie oben - der Unterschied besteht darin, dass \"Von Adresse\" und \"Von Name\" mit der E-Mail-Adresse und dem Namen des Shops vorbelegt sind, die auch vor dem Senden personalisiert werden k\u00f6nnen.",
        "context": "",
        "term_plural": "",
        "reference": "includes\/class-ec-settings.php:237",
        "comment": ""
    },
    {
        "term": "This is the pre-populated text in the 'Subject' field for Shop Managers emailing their cart. They can then personlize it before sending.",
        "definition": "Dies ist der vorab ausgef\u00fcllte Text im Feld \"Betreff\" f\u00fcr Shop-Manager, die ihren Einkaufswagen per E-Mail senden. Sie k\u00f6nnen es dann personifizieren, bevor sie senden.",
        "context": "",
        "term_plural": "",
        "reference": "includes\/class-ec-settings.php:243",
        "comment": ""
    },
    {
        "term": "Shopping Cart sent to you by %s",
        "definition": "Einkaufswagen, der Ihnen von% s gesendet wurde",
        "context": "",
        "term_plural": "",
        "reference": "includes\/class-ec-settings.php:244 includes\/class-ec-settings.php:245",
        "comment": ""
    },
    {
        "term": "This is the pre-populated text in the 'Message' field for Shop Managers emailing their cart. They can then personlize it before sending. The Email message will be styled using the WooCommerce Email Template and the cart added - with it's product pictures and totals.",
        "definition": "Dies ist der vorab ausgef\u00fcllte Text im Feld \"Nachricht\" f\u00fcr Shop-Manager, die ihren Einkaufswagen per E-Mail senden. Sie k\u00f6nnen es dann personifizieren, bevor sie senden. Die E-Mail-Nachricht wird mit der E-Mail-Vorlage von WooCommerce gestylt und der Warenkorb hinzugef\u00fcgt - mit den Produktbildern und Gesamtsummen.",
        "context": "",
        "term_plural": "",
        "reference": "includes\/class-ec-settings.php:253",
        "comment": ""
    },
    {
        "term": "Have a look at this Shopping Cart from %s",
        "definition": "Werfen Sie einen Blick auf diesen Warenkorb von% s",
        "context": "",
        "term_plural": "",
        "reference": "includes\/class-ec-settings.php:254 includes\/class-ec-settings.php:255",
        "comment": ""
    },
    {
        "term": "Action failed. Please refresh the page and retry.",
        "definition": "Aktion: fehlgeschlagen. Bitte aktualisieren Sie die Seite und versuchen Sie es erneut.",
        "context": "",
        "term_plural": "",
        "reference": "includes\/class-ec-settings.php:280",
        "comment": ""
    },
    {
        "term": "Cart",
        "definition": "Karte",
        "context": "",
        "term_plural": "",
        "reference": "admin\/cart_edit_interface.php:84 admin\/cart_edit_interface.php:245",
        "comment": ""
    },
    {
        "term": "Activity",
        "definition": "Aktivit\u00e4t",
        "context": "",
        "term_plural": "",
        "reference": "admin\/cart_edit_interface.php:93",
        "comment": ""
    },
    {
        "term": "@",
        "definition": "@",
        "context": "",
        "term_plural": "",
        "reference": "admin\/cart_edit_interface.php:115 admin\/cart_edit_interface.php:126\nadmin\/cart_index_interface.php:235 admin\/cart_index_interface.php:259",
        "comment": ""
    },
    {
        "term": "Created by:",
        "definition": "Erstellt von:",
        "context": "",
        "term_plural": "",
        "reference": "admin\/cart_edit_interface.php:135",
        "comment": ""
    },
    {
        "term": "Created:",
        "definition": "Erstellt:",
        "context": "",
        "term_plural": "",
        "reference": "admin\/cart_edit_interface.php:141",
        "comment": ""
    },
    {
        "term": "Retrieve Count:",
        "definition": "Anzahl abrufen:",
        "context": "",
        "term_plural": "",
        "reference": "admin\/cart_edit_interface.php:147",
        "comment": ""
    },
    {
        "term": "Not Yet Retrieved...",
        "definition": "Noch nicht abgerufen ...",
        "context": "",
        "term_plural": "",
        "reference": "admin\/cart_edit_interface.php:150",
        "comment": ""
    },
    {
        "term": "Last Retrieved:",
        "definition": "Zuletzt abgerufen:",
        "context": "",
        "term_plural": "",
        "reference": "admin\/cart_edit_interface.php:162",
        "comment": ""
    },
    {
        "term": "Retrieve Cart URL",
        "definition": "Einkaufswagen-URL abrufen",
        "context": "",
        "term_plural": "",
        "reference": "admin\/cart_edit_interface.php:219",
        "comment": ""
    },
    {
        "term": "Redirect to Cart",
        "definition": "Weiterleiten an den Warenkorb",
        "context": "",
        "term_plural": "",
        "reference": "admin\/cart_edit_interface.php:227",
        "comment": ""
    },
    {
        "term": "Redirect to Checkout",
        "definition": "Weiterleitung zur Kasse",
        "context": "",
        "term_plural": "",
        "reference": "admin\/cart_edit_interface.php:230",
        "comment": ""
    },
    {
        "term": "Redirect to Home",
        "definition": "Nach Hause weiterleiten",
        "context": "",
        "term_plural": "",
        "reference": "admin\/cart_edit_interface.php:233",
        "comment": ""
    },
    {
        "term": "You can copy this cart and send it to anyone. Anyone who clicks on it can retrieve it.",
        "definition": "Sie k\u00f6nnen diesen Warenkorb kopieren und an jemanden senden. Jeder, der darauf klickt, kann es abrufen.",
        "context": "",
        "term_plural": "",
        "reference": "admin\/cart_edit_interface.php:237",
        "comment": ""
    },
    {
        "term": "The way you change the above saved cart is by overwriting it with your existing WooCommerce cart seen below. Modify your existing cart and when you're ready return here and click to overwrite the Saved Cart above.",
        "definition": "Die Art, wie Sie den oben gespeicherten Einkaufswagen \u00e4ndern, besteht darin, ihn mit Ihrem vorhandenen WooCommerce-Warenkorb zu \u00fcberschreiben. \u00c4ndern Sie Ihren vorhandenen Warenkorb und wenn Sie bereit sind, kehren Sie hier zur\u00fcck und klicken Sie, um den oben gespeicherten Warenkorb zu \u00fcberschreiben.",
        "context": "",
        "term_plural": "",
        "reference": "admin\/cart_edit_interface.php:262",
        "comment": ""
    },
    {
        "term": "Overwrite Cart above with your existing Cart Below",
        "definition": "\u00dcberschreiben Sie oben mit Ihrem vorhandenen Cart Cart oben",
        "context": "",
        "term_plural": "",
        "reference": "admin\/cart_edit_interface.php:267",
        "comment": ""
    },
    {
        "term": "Cancel",
        "definition": "Stornieren",
        "context": "",
        "term_plural": "",
        "reference": "admin\/cart_edit_interface.php:271",
        "comment": ""
    },
    {
        "term": "Cart Created",
        "definition": "Einkaufswagen erstellt",
        "context": "",
        "term_plural": "",
        "reference": "admin\/cart_index_interface.php:146",
        "comment": ""
    },
    {
        "term": "Author",
        "definition": "Autor",
        "context": "",
        "term_plural": "",
        "reference": "admin\/cart_index_interface.php:148",
        "comment": ""
    },
    {
        "term": "Name <em>(optional)<\/em>",
        "definition": "Name <em> (optional) <\/ em>",
        "context": "",
        "term_plural": "",
        "reference": "admin\/cart_index_interface.php:149",
        "comment": ""
    },
    {
        "term": "&nbsp;",
        "definition": "& nbsp;",
        "context": "",
        "term_plural": "",
        "reference": "admin\/cart_index_interface.php:150",
        "comment": ""
    },
    {
        "term": "retrievals, last time",
        "definition": "Abfragen, letztes Mal",
        "context": "",
        "term_plural": "",
        "reference": "admin\/cart_index_interface.php:266",
        "comment": ""
    },
    {
        "term": "No Products",
        "definition": "Keine Produkte",
        "context": "",
        "term_plural": "",
        "reference": "admin\/cart_index_interface.php:318",
        "comment": ""
    },
    {
        "term": "View",
        "definition": "Aussicht",
        "context": "",
        "term_plural": "",
        "reference": "admin\/cart_index_interface.php:328",
        "comment": ""
    },
    {
        "term": "From:",
        "definition": "Von:",
        "context": "",
        "term_plural": "",
        "reference": "admin\/cart_index_interface.php:350",
        "comment": ""
    },
    {
        "term": "To:",
        "definition": "Nach:",
        "context": "",
        "term_plural": "",
        "reference": "admin\/cart_index_interface.php:352",
        "comment": ""
    },
    {
        "term": "<strong>Save & Share Cart<\/strong> allows you and your customers to send a link to a pre-stocked cart to any email address. Admins can send the email from here, and your customers send using the Save & Share Cart button on your shop's cart page. The list below shows Sent Cart activity.",
        "definition": "<strong> Save & Share Cart <\/ strong> erm\u00f6glicht es Ihnen und Ihren Kunden, einen Link zu einem vorbest\u00fcckten Einkaufswagen an eine beliebige E-Mail-Adresse zu senden. Administratoren k\u00f6nnen die E-Mail von hier aus senden und Ihre Kunden senden sie \u00fcber die Schaltfl\u00e4che \"Warenkorb speichern\" auf der Einkaufswagenseite Ihres Shops. Die folgende Liste zeigt die Aktivit\u00e4t \"Gesendete Wagen\".",
        "context": "",
        "term_plural": "",
        "reference": "admin\/cart_index_interface.php:454",
        "comment": ""
    },
    {
        "term": "Guest",
        "definition": "Gast",
        "context": "",
        "term_plural": "",
        "reference": "models\/Saved_Cart.php:177",
        "comment": ""
    },
    {
        "term": "Please register on the Plugins page to get this update",
        "definition": "Bitte registrieren Sie sich auf der Plugins-Seite, um dieses Update zu erhalten",
        "context": "",
        "term_plural": "",
        "reference": "includes\/updates\/cxthemes-plugin-update-checker.php:95",
        "comment": ""
    },
    {
        "term": "To get automatic updates you need to input your valid purchase code, for our product, from Envato. The purchase code looks like: <code>f128a5a1-5a1c-4e4e-82ec-a12b3c4d5e6f<\/code> and should have been emailed to you when you bought our plugin, or you can retrieve it by logging into <a href=\"http:\/\/codecanyon.net\/\" target=\"_blank\">CodeCanyon.net<\/a> go to Downloads > <em>Plugin Name<\/em> > Download > License certificate & purchase code.",
        "definition": "Um automatische Updates zu erhalten, m\u00fcssen Sie Ihren g\u00fcltigen Kaufcode f\u00fcr unser Produkt von Envato eingeben. Der Kaufcode sieht aus wie: <code> f128a5a1-5a1c-4e4e-82ec-a12b3c4d5e6f <\/ code> und sollte Ihnen per E-Mail zugeschickt worden sein, wenn Sie unser Plugin gekauft haben, oder Sie k\u00f6nnen es abrufen, indem Sie sich bei <a href = \"http: \/\/codecanyon.net\/ \"target =\" _ blank \"> CodeCanyon.net <\/a> gehen Sie zu Downloads> <em> Plugin Name <\/ em>> Download> Lizenzzertifikat und Kaufcode.",
        "context": "",
        "term_plural": "",
        "reference": "includes\/updates\/cxthemes-plugin-update-checker.php:197",
        "comment": ""
    },
    {
        "term": "That is not a valid purchase code format. It should look like: <code>f128a5a1-5a1c-4e4e-82ec-a12b3c4d5e6f<\/code>.",
        "definition": "Das ist kein g\u00fcltiges Kaufcodeformat. Es sollte wie folgt aussehen: <code> f128a5a1-5a1c-4e4e-82ec-a12b3c4d5e6f <\/ code>.",
        "context": "",
        "term_plural": "",
        "reference": "includes\/updates\/cxthemes-plugin-update-checker.php:206",
        "comment": ""
    },
    {
        "term": "You are unable to connect to our update server at this time. Please check your connection, or try again later.",
        "definition": "Sie k\u00f6nnen zu diesem Zeitpunkt keine Verbindung zu unserem Update-Server herstellen. Bitte \u00fcberpr\u00fcfen Sie Ihre Verbindung oder versuchen Sie es sp\u00e4ter noch einmal.",
        "context": "",
        "term_plural": "",
        "reference": "includes\/updates\/cxthemes-plugin-update-checker.php:212",
        "comment": ""
    },
    {
        "term": "It doesn't seem like you have purchased our plugin yet. Please <a href='#'>purchase it from CodeCanyon<\/a> to get access to support and updates.",
        "definition": "Es scheint nicht, als ob Sie unser Plugin bereits gekauft haben. Bitte <a href='#'> kaufen Sie es von CodeCanyon <\/a>, um Zugriff auf Support und Updates zu erhalten.",
        "context": "",
        "term_plural": "",
        "reference": "includes\/updates\/cxthemes-plugin-update-checker.php:218",
        "comment": ""
    },
    {
        "term": "Thanks. You're registered and can now receive updates.",
        "definition": "Vielen Dank. Sie sind registriert und k\u00f6nnen jetzt Updates erhalten.",
        "context": "",
        "term_plural": "",
        "reference": "includes\/updates\/cxthemes-plugin-update-checker.php:224",
        "comment": ""
    },
    {
        "term": "Purchase Code",
        "definition": "Bestellcode",
        "context": "",
        "term_plural": "",
        "reference": "includes\/updates\/cxthemes-plugin-update-checker.php:234",
        "comment": ""
    },
    {
        "term": "Save",
        "definition": "sparen",
        "context": "",
        "term_plural": "",
        "reference": "includes\/updates\/cxthemes-plugin-update-checker.php:236",
        "comment": ""
    },
    {
        "term": "Register for Updates",
        "definition": "Registrieren Sie sich f\u00fcr Updates",
        "context": "",
        "term_plural": "",
        "reference": "includes\/updates\/cxthemes-plugin-update-checker.php:265",
        "comment": ""
    },
    {
        "term": "<em><a href=\"%s\">Register here<\/a> to get this update<\/em>",
        "definition": "<em> <a href=\"%s\"> Registrieren Sie sich hier <\/a>, um dieses Update zu erhalten <\/ em>",
        "context": "",
        "term_plural": "",
        "reference": "includes\/updates\/cxthemes-plugin-update-checker.php:265",
        "comment": ""
    },
    {
        "term": "Edit registration",
        "definition": "Registrierung bearbeiten",
        "context": "",
        "term_plural": "",
        "reference": "includes\/updates\/cxthemes-plugin-update-checker.php:272",
        "comment": ""
    },
    {
        "term": "WooCommerce Save & Share Cart",
        "definition": "WooCommerce Speichern & Teilen Einkaufswagen",
        "context": "",
        "term_plural": "",
        "reference": "",
        "comment": "Name of the plugin"
    },
    {
        "term": "Allow anyone using your store to save & share their WooCommerce shopping cart. (Previously known as WooCommerce Email Cart)",
        "definition": "Erlauben Sie allen, die Ihren Shop nutzen, um ihren WooCommerce Warenkorb zu speichern und zu teilen. (Fr\u00fcher bekannt als WooCommerce Email Cart)",
        "context": "",
        "term_plural": "",
        "reference": "",
        "comment": "Description of the plugin"
    },
    {
        "term": "https:\/\/codecanyon.net\/item\/save-share-cart-for-woocommerce\/5568059?ref=cxThemes&utm_source=save%20%26%20share%20cart&utm_campaign=commercial%20plugin%20upsell&utm_medium=plugins%20page%20view%20details",
        "definition": "https:\/\/codecanyon.net\/item\/save-share-cart-for-woocommerce\/5568059?ref=cxThemes&utm_source=save%20%26%20share%20cart&utm_campaign=commercial%20plugin%20upsell&utm_medium=plugins%20page%20view%20Details",
        "context": "",
        "term_plural": "",
        "reference": "",
        "comment": "URI of the plugin\nAuthor URI of the plugin"
    },
    {
        "term": "cxThemes",
        "definition": "cxThemen",
        "context": "",
        "term_plural": "",
        "reference": "",
        "comment": "Author of the plugin"
    }
]