"All these carts are real live sent carts so rather dont delete them. You can set ","Alle diese Karren sind echte live gesendete Wagen, also löschen sie nicht. Sie können festlegen",,email-cart.php:182,
"GO TO COLLECTION","GEHE ZUR KOLLEKTION",,email-cart.php:476,
"Here's the link to your cart collection if the buttons don't work ","Hier ist der Link zu Ihrer Cart Collection, wenn die Buttons nicht funktionieren",,email-cart.php:659,
"We're sorry but it seems the cart you're looking for no longer exists. Please feel free to browse our store while you're here.","Es tut uns leid, aber es scheint, dass der Warenkorb, nach dem Sie suchen, nicht mehr existiert. Bitte zögern Sie nicht, unseren Shop zu durchsuchen, während Sie hier sind.",,email-cart.php:756,
"Cart Retrieved","Einkaufswagen abgerufen",,"email-cart.php:773 admin/cart_index_interface.php:147",
"Edit Cart","Einkaufswagen bearbeiten",,email-cart.php:1029,
"Your cart is empty.","Dein Wagen ist leer.",,"email-cart.php:1036 email-cart.php:1061",
"Are you sure you want to remove the selected items? If you have previously reduced this item's stock, or this order was submitted by a customer, you will need to manually restore the item's stock.","Möchten Sie die ausgewählten Elemente wirklich entfernen? Wenn Sie den Bestand dieses Artikels zuvor reduziert haben oder dieser Auftrag von einem Kunden gesendet wurde, müssen Sie den Bestand des Artikels manuell wiederherstellen.",,email-cart.php:1173,
"This will overwrite this saved cart. Are you sure you want to proceed?","Dies überschreibt diesen gespeicherten Warenkorb. Sind Sie sicher, dass Sie fortfahren möchten?",,email-cart.php:1182,
"Doing this will mean the saved cart is no longer be retrievable by whoever saved it. Are you sure you want to proceed?","Dies bedeutet, dass der gespeicherte Einkaufswagen nicht mehr von demjenigen abgerufen werden kann, der ihn gespeichert hat. Sind Sie sicher, dass Sie fortfahren möchten?",,email-cart.php:1183,
(optional),(optional),,email-cart.php:1318,
"Cart Name","Warenkorb Name",,email-cart.php:1319,
"Naming your Cart is a way to permanently store the cart - because custom named carts don't get automatically deleted when they get old (if that setting is active). Naming your cart something like 'Summer Hotlist' will mean you can easily find it when browsing your stored carts, then quickly link to it from a Advert or send the link to a customer in an Email. *Only users logged in with Store Manager privileges (and above) will see this option to name their stored carts.","Die Benennung Ihres Warenkorbs ist eine Möglichkeit, den Einkaufswagen dauerhaft zu speichern - da benutzerdefinierte benannte Warenkörbe nicht automatisch gelöscht werden, wenn sie alt werden (wenn diese Einstellung aktiv ist). Benennen Sie Ihren Einkaufswagen so etwas wie ""Summer Hotlist"", so können Sie ihn leicht finden, wenn Sie Ihre gespeicherten Warenkörbe durchsuchen, dann schnell von einer Anzeige darauf verlinken oder den Link an einen Kunden in einer E-Mail senden. * Nur Benutzer, die mit Store Manager-Rechten (und höher) angemeldet sind, sehen diese Option, um ihre gespeicherten Einkaufswagen zu benennen.",,email-cart.php:1320,
"Cart Page",Einkaufswagenseite,,"email-cart.php:1327 email-cart.php:1502",
"Checkout Page",Kasse-Seite,,"email-cart.php:1328 email-cart.php:1503",
"Home Page",Startseite,,"email-cart.php:1329 email-cart.php:1504",
"Redirect To","Weiterleiten an",,"email-cart.php:1331 email-cart.php:1506 admin/cart_edit_interface.php:290",
"Save Cart & Generate Link","Warenkorb speichern und Link generieren",,email-cart.php:1338,
"http://&nbsp; (click below to save cart & generate your link)","http: // & nbsp; (klicken Sie unten, um den Warenkorb zu speichern und Ihren Link zu generieren)",,email-cart.php:1348,
"Copy this cart link and save it, or send it to a friend. Anyone who clicks on the link can retrieve it.","Kopiere diesen Warenkorb-Link und speichere ihn oder sende ihn an einen Freund. Jeder, der auf den Link klickt, kann ihn abrufen.",,email-cart.php:1349,
"Send Cart in an Email","Einkaufswagen in einer E-Mail senden",,email-cart.php:1355,
"Done! close","Erledigt! schließen",,email-cart.php:1358,
"Empty cart. Please add products before saving :)","Leerer Warenkorb. Bitte fügen Sie vor dem Speichern Produkte hinzu :)",,email-cart.php:1366,
Back,Zurück,,email-cart.php:1387,
"To email address(es), comma separated","An E-Mail-Adresse (n), kommagetrennt",,email-cart.php:1415,
To,Nach,,email-cart.php:1416,
"Your email address","deine Emailadresse",,email-cart.php:1450,
From,Von,,email-cart.php:1451,
"Your Name","Dein Name",,email-cart.php:1458,
"From Name","Von Namen",,email-cart.php:1459,
"Your subject","Dein Fach",,email-cart.php:1476,
Subject,Fach,,"email-cart.php:1477 includes/class-ec-settings.php:208
includes/class-ec-settings.php:242",
"Send Cart Email","Warenkorb senden",,email-cart.php:1513,
"Your cart email sent successfully :)","Ihre Einkaufswagen-E-Mail wurde erfolgreich gesendet :)",,email-cart.php:1525,
"%sSave & Share Cart for WooCommerce needs WooCommerce%s %sWooCommerce%s must be active for Save & Share Cart to work. Please install & activate WooCommerce.","% sSave & Share Cart für WooCommerce benötigt WooCommerce% s% sWooCommerce% s muss aktiv sein, damit Save & Share Cart funktionieren kann. Bitte installieren und aktivieren Sie WooCommerce.",,email-cart.php:1700,
"%sSave & Share Cart for WooCommerce is inactive%s This version of Save & Share Cart requires WooCommerce %s or newer. For more information about our WooCommerce version support %sclick here%s.","% sSave & Share Cart für WooCommerce ist inaktiv% s Diese Version von Save & Share Cart benötigt WooCommerce% s oder neuer. Für weitere Informationen über unsere WooCommerce Version unterstützen Sie% sclick hier% s.",,email-cart.php:1717,
"Clear Carts","Klare Wagen",,includes/class-ec-install.php:19,
"Cart Data Cleared","Warenkorbdaten gelöscht",,includes/class-ec-install.php:56,
"Timeout occurred, please try again.","Timeout ist aufgetreten, bitte versuchen Sie es erneut.",,includes/class-ec-install.php:64,
"Save & Share Cart Settings","Speichern und freigeben",,includes/class-ec-settings.php:30,
"Save & Share Cart","Speichern & Teilen Einkaufswagen",,"includes/class-ec-settings.php:46 includes/class-ec-settings.php:47
includes/class-ec-settings.php:75 includes/class-ec-settings.php:156
includes/class-ec-settings.php:157 includes/class-ec-settings.php:166
includes/class-ec-settings.php:167 admin/cart_index_interface.php:457",
Settings,Einstellungen,,"includes/class-ec-settings.php:75 admin/cart_index_interface.php:461",
"Save changes","Änderungen speichern",,includes/class-ec-settings.php:83,
"General Settings","Allgemeine Einstellungen",,includes/class-ec-settings.php:109,
"Automatically Delete Old Carts","Alte Karren automatisch löschen",,includes/class-ec-settings.php:115,
"Saving a large number of carts can lead to a large database. Automatically clearing the cart list will keep this under control. Check this on to set number of days.","Das Speichern einer großen Anzahl von Wagen kann zu einer großen Datenbank führen. Durch das automatische Löschen der Warenkorbliste wird dies unter Kontrolle gehalten. Aktivieren Sie dies, um die Anzahl der Tage festzulegen.",,includes/class-ec-settings.php:118,
"Automatically delete carts older than (days)","Wagen, die älter als (Tage) sind, automatisch löschen",,includes/class-ec-settings.php:124,
"Any cart that becomes older than the number of days specified will be automatically deleted. In the off chance that a customer attempts to retrieved an old cart a friendly notice will be displayed.","Jeder Einkaufswagen, der älter als die angegebene Anzahl von Tagen wird, wird automatisch gelöscht. In der unwahrscheinlichen Situation, dass ein Kunde versucht, einen alten Einkaufswagen abzurufen, wird ein freundlicher Hinweis angezeigt.",,includes/class-ec-settings.php:125,
"Main Interface (Popup Modal & Button)","Hauptschnittstelle (Popup Modal & Button)",,includes/class-ec-settings.php:138,
"Show Button on Cart Page","Zeige Button auf der Einkaufswagenseite",,includes/class-ec-settings.php:145,
"If you don't like the look of our button you can choose not to show it, then create your own button linking to your share cart page like this http://....../cart/#email-cart (#email-cart is essential).","Wenn Ihnen das Aussehen unseres Buttons nicht gefällt, können Sie sich entscheiden, es nicht zu zeigen. Erstellen Sie dann einen eigenen Button, der auf Ihre Share-Cart-Seite verweist: http: //....../cart/#email-cart ( # E-Mail-Warenkorb ist unerlässlich).",,includes/class-ec-settings.php:147,
"Button Text",Schaltflächentext,,includes/class-ec-settings.php:153,
"Popup Modal Title",Popup-Modaltitel,,includes/class-ec-settings.php:163,
"Popup Modal Intro","Popup Modal Intro",,includes/class-ec-settings.php:173,
"Your Shopping Cart will be saved and you'll be given a link. You, or anyone with the link, can use it to retrieve your Cart at any time.","Ihr Einkaufswagen wird gespeichert und Sie erhalten einen Link. Sie oder jeder, der über den Link verfügt, kann damit jederzeit Ihren Einkaufswagen abrufen.",,"includes/class-ec-settings.php:176 includes/class-ec-settings.php:177",
"Popup Modal 'Send Cart' Intro","Popup Modal 'Warenkorb senden' Intro",,includes/class-ec-settings.php:183,
"Your Shopping Cart will be saved with Product pictures and information, and Cart Totals. Then send it to yourself, or a friend, with a link to retrieve it at any time.","Ihr Einkaufswagen wird mit Produktbildern und -informationen und Cart Totals gespeichert. Dann schicke es dir oder einem Freund mit einem Link, um es jederzeit abzurufen.",,"includes/class-ec-settings.php:186 includes/class-ec-settings.php:187",
"Email Settings (for Customers and Guests)","E-Mail-Einstellungen (für Kunden und Gäste)",,includes/class-ec-settings.php:201,
"Customers will be presented with a form where they can personalize the 'To Address', 'From Address', 'From Name', 'Subject' and 'Message' for the email.","Den Kunden wird ein Formular angezeigt, in dem sie die Adresse, Adresse, Name, Betreff und Nachricht der E-Mail personalisieren können.",,includes/class-ec-settings.php:202,
"This is the pre-populated text in the 'Subject' field for Customers emailing their cart. They can then personlize it before sending.","Dies ist der vorab ausgefüllte Text im Feld ""Betreff"" für Kunden, die ihren Einkaufswagen per E-Mail senden. Sie können es dann personifizieren, bevor sie senden.",,includes/class-ec-settings.php:209,
"Shopping Cart sent to you via %s","Einkaufswagen über% s an Sie gesendet",,"includes/class-ec-settings.php:211 includes/class-ec-settings.php:212",
Message,Nachricht,,"includes/class-ec-settings.php:218 includes/class-ec-settings.php:252",
"This is the pre-populated text in the 'Message' field for Customers emailing their cart. They can then personlize it before sending. The Email message will be styled using the WooCommerce Email Template and the cart added - with it's product pictures and totals.","Dies ist der vorab ausgefüllte Text im Feld ""Nachricht"" für Kunden, die ihren Einkaufswagen per E-Mail senden. Sie können es dann personifizieren, bevor sie senden. Die E-Mail-Nachricht wird mit der E-Mail-Vorlage von WooCommerce gestylt und der Warenkorb hinzugefügt - mit den Produktbildern und Gesamtsummen.",,includes/class-ec-settings.php:219,
"Have a look at this Shopping Cart sent by a friend via %s","Werfen Sie einen Blick auf diesen Warenkorb, der von einem Freund über% s verschickt wurde",,"includes/class-ec-settings.php:221 includes/class-ec-settings.php:222",
"Email Settings (for Administrators and Shop Managers)","E-Mail-Einstellungen (für Administratoren und Shop-Manager)",,includes/class-ec-settings.php:236,
"Shop Managers will be presented with the same form as above - the difference is the 'From Address' and 'From Name' are pre-populated with the Shop's Email and Name, which can aslo be personalized before sending.","Shop Manager erhalten das gleiche Formular wie oben - der Unterschied besteht darin, dass ""Von Adresse"" und ""Von Name"" mit der E-Mail-Adresse und dem Namen des Shops vorbelegt sind, die auch vor dem Senden personalisiert werden können.",,includes/class-ec-settings.php:237,
"This is the pre-populated text in the 'Subject' field for Shop Managers emailing their cart. They can then personlize it before sending.","Dies ist der vorab ausgefüllte Text im Feld ""Betreff"" für Shop-Manager, die ihren Einkaufswagen per E-Mail senden. Sie können es dann personifizieren, bevor sie senden.",,includes/class-ec-settings.php:243,
"Shopping Cart sent to you by %s","Einkaufswagen, der Ihnen von% s gesendet wurde",,"includes/class-ec-settings.php:244 includes/class-ec-settings.php:245",
"This is the pre-populated text in the 'Message' field for Shop Managers emailing their cart. They can then personlize it before sending. The Email message will be styled using the WooCommerce Email Template and the cart added - with it's product pictures and totals.","Dies ist der vorab ausgefüllte Text im Feld ""Nachricht"" für Shop-Manager, die ihren Einkaufswagen per E-Mail senden. Sie können es dann personifizieren, bevor sie senden. Die E-Mail-Nachricht wird mit der E-Mail-Vorlage von WooCommerce gestylt und der Warenkorb hinzugefügt - mit den Produktbildern und Gesamtsummen.",,includes/class-ec-settings.php:253,
"Have a look at this Shopping Cart from %s","Werfen Sie einen Blick auf diesen Warenkorb von% s",,"includes/class-ec-settings.php:254 includes/class-ec-settings.php:255",
"Action failed. Please refresh the page and retry.","Aktion: fehlgeschlagen. Bitte aktualisieren Sie die Seite und versuchen Sie es erneut.",,includes/class-ec-settings.php:280,
Cart,Karte,,"admin/cart_edit_interface.php:84 admin/cart_edit_interface.php:245",
Activity,Aktivität,,admin/cart_edit_interface.php:93,
@,@,,"admin/cart_edit_interface.php:115 admin/cart_edit_interface.php:126
admin/cart_index_interface.php:235 admin/cart_index_interface.php:259",
"Created by:","Erstellt von:",,admin/cart_edit_interface.php:135,
Created:,Erstellt:,,admin/cart_edit_interface.php:141,
"Retrieve Count:","Anzahl abrufen:",,admin/cart_edit_interface.php:147,
"Not Yet Retrieved...","Noch nicht abgerufen ...",,admin/cart_edit_interface.php:150,
"Last Retrieved:","Zuletzt abgerufen:",,admin/cart_edit_interface.php:162,
"Retrieve Cart URL","Einkaufswagen-URL abrufen",,admin/cart_edit_interface.php:219,
"Redirect to Cart","Weiterleiten an den Warenkorb",,admin/cart_edit_interface.php:227,
"Redirect to Checkout","Weiterleitung zur Kasse",,admin/cart_edit_interface.php:230,
"Redirect to Home","Nach Hause weiterleiten",,admin/cart_edit_interface.php:233,
"You can copy this cart and send it to anyone. Anyone who clicks on it can retrieve it.","Sie können diesen Warenkorb kopieren und an jemanden senden. Jeder, der darauf klickt, kann es abrufen.",,admin/cart_edit_interface.php:237,
"The way you change the above saved cart is by overwriting it with your existing WooCommerce cart seen below. Modify your existing cart and when you're ready return here and click to overwrite the Saved Cart above.","Die Art, wie Sie den oben gespeicherten Einkaufswagen ändern, besteht darin, ihn mit Ihrem vorhandenen WooCommerce-Warenkorb zu überschreiben. Ändern Sie Ihren vorhandenen Warenkorb und wenn Sie bereit sind, kehren Sie hier zurück und klicken Sie, um den oben gespeicherten Warenkorb zu überschreiben.",,admin/cart_edit_interface.php:262,
"Overwrite Cart above with your existing Cart Below","Überschreiben Sie oben mit Ihrem vorhandenen Cart Cart oben",,admin/cart_edit_interface.php:267,
Cancel,Stornieren,,admin/cart_edit_interface.php:271,
"Cart Created","Einkaufswagen erstellt",,admin/cart_index_interface.php:146,
Author,Autor,,admin/cart_index_interface.php:148,
"Name <em>(optional)</em>","Name <em> (optional) </ em>",,admin/cart_index_interface.php:149,
&nbsp;,"& nbsp;",,admin/cart_index_interface.php:150,
"retrievals, last time","Abfragen, letztes Mal",,admin/cart_index_interface.php:266,
"No Products","Keine Produkte",,admin/cart_index_interface.php:318,
View,Aussicht,,admin/cart_index_interface.php:328,
From:,Von:,,admin/cart_index_interface.php:350,
To:,Nach:,,admin/cart_index_interface.php:352,
"<strong>Save & Share Cart</strong> allows you and your customers to send a link to a pre-stocked cart to any email address. Admins can send the email from here, and your customers send using the Save & Share Cart button on your shop's cart page. The list below shows Sent Cart activity.","<strong> Save & Share Cart </ strong> ermöglicht es Ihnen und Ihren Kunden, einen Link zu einem vorbestückten Einkaufswagen an eine beliebige E-Mail-Adresse zu senden. Administratoren können die E-Mail von hier aus senden und Ihre Kunden senden sie über die Schaltfläche ""Warenkorb speichern"" auf der Einkaufswagenseite Ihres Shops. Die folgende Liste zeigt die Aktivität ""Gesendete Wagen"".",,admin/cart_index_interface.php:454,
Guest,Gast,,models/Saved_Cart.php:177,
"Please register on the Plugins page to get this update","Bitte registrieren Sie sich auf der Plugins-Seite, um dieses Update zu erhalten",,includes/updates/cxthemes-plugin-update-checker.php:95,
"To get automatic updates you need to input your valid purchase code, for our product, from Envato. The purchase code looks like: <code>f128a5a1-5a1c-4e4e-82ec-a12b3c4d5e6f</code> and should have been emailed to you when you bought our plugin, or you can retrieve it by logging into <a href=""http://codecanyon.net/"" target=""_blank"">CodeCanyon.net</a> go to Downloads > <em>Plugin Name</em> > Download > License certificate & purchase code.","Um automatische Updates zu erhalten, müssen Sie Ihren gültigen Kaufcode für unser Produkt von Envato eingeben. Der Kaufcode sieht aus wie: <code> f128a5a1-5a1c-4e4e-82ec-a12b3c4d5e6f </ code> und sollte Ihnen per E-Mail zugeschickt worden sein, wenn Sie unser Plugin gekauft haben, oder Sie können es abrufen, indem Sie sich bei <a href = ""http: //codecanyon.net/ ""target ="" _ blank ""> CodeCanyon.net </a> gehen Sie zu Downloads> <em> Plugin Name </ em>> Download> Lizenzzertifikat und Kaufcode.",,includes/updates/cxthemes-plugin-update-checker.php:197,
"That is not a valid purchase code format. It should look like: <code>f128a5a1-5a1c-4e4e-82ec-a12b3c4d5e6f</code>.","Das ist kein gültiges Kaufcodeformat. Es sollte wie folgt aussehen: <code> f128a5a1-5a1c-4e4e-82ec-a12b3c4d5e6f </ code>.",,includes/updates/cxthemes-plugin-update-checker.php:206,
"You are unable to connect to our update server at this time. Please check your connection, or try again later.","Sie können zu diesem Zeitpunkt keine Verbindung zu unserem Update-Server herstellen. Bitte überprüfen Sie Ihre Verbindung oder versuchen Sie es später noch einmal.",,includes/updates/cxthemes-plugin-update-checker.php:212,
"It doesn't seem like you have purchased our plugin yet. Please <a href='#'>purchase it from CodeCanyon</a> to get access to support and updates.","Es scheint nicht, als ob Sie unser Plugin bereits gekauft haben. Bitte <a href='#'> kaufen Sie es von CodeCanyon </a>, um Zugriff auf Support und Updates zu erhalten.",,includes/updates/cxthemes-plugin-update-checker.php:218,
"Thanks. You're registered and can now receive updates.","Vielen Dank. Sie sind registriert und können jetzt Updates erhalten.",,includes/updates/cxthemes-plugin-update-checker.php:224,
"Purchase Code",Bestellcode,,includes/updates/cxthemes-plugin-update-checker.php:234,
Save,sparen,,includes/updates/cxthemes-plugin-update-checker.php:236,
"Register for Updates","Registrieren Sie sich für Updates",,includes/updates/cxthemes-plugin-update-checker.php:265,
"<em><a href=""%s"">Register here</a> to get this update</em>","<em> <a href=""%s""> Registrieren Sie sich hier </a>, um dieses Update zu erhalten </ em>",,includes/updates/cxthemes-plugin-update-checker.php:265,
"Edit registration","Registrierung bearbeiten",,includes/updates/cxthemes-plugin-update-checker.php:272,
"WooCommerce Save & Share Cart","WooCommerce Speichern & Teilen Einkaufswagen",,,"Name of the plugin"
"Allow anyone using your store to save & share their WooCommerce shopping cart. (Previously known as WooCommerce Email Cart)","Erlauben Sie allen, die Ihren Shop nutzen, um ihren WooCommerce Warenkorb zu speichern und zu teilen. (Früher bekannt als WooCommerce Email Cart)",,,"Description of the plugin"
https://codecanyon.net/item/save-share-cart-for-woocommerce/5568059?ref=cxThemes&utm_source=save%20%26%20share%20cart&utm_campaign=commercial%20plugin%20upsell&utm_medium=plugins%20page%20view%20details,https://codecanyon.net/item/save-share-cart-for-woocommerce/5568059?ref=cxThemes&utm_source=save%20%26%20share%20cart&utm_campaign=commercial%20plugin%20upsell&utm_medium=plugins%20page%20view%20Details,,,"URI of the plugin
Author URI of the plugin"
cxThemes,cxThemen,,,"Author of the plugin"
