"Payment for order [ec_order] from [ec_firstname] [ec_lastname] has failed.","A [ec_order] [ec_firstname] [ec_lastname] rendelésének fizetése sikertelen.",,"ec-theme-vanilla.php:258 ec-theme-deluxe.php:215 ec-theme-supreme.php:215
ec-theme-woocommerce.php:170",
"Thank you for your order","köszönöm a rendelését",,"ec-theme-vanilla.php:273 ec-theme-deluxe.php:230 ec-theme-supreme.php:230
ec-theme-woocommerce.php:185 ec-theme-woocommerce.php:210",
"Your order is on-hold until we confirm payment has been received. Your order details are shown below for your reference:","Megrendelését készen tartja, amíg megerősítjük a befizetés beérkezését. A rendelés részletei az alábbiakban olvashatók:",,"ec-theme-vanilla.php:283 ec-theme-deluxe.php:240 ec-theme-supreme.php:240
ec-theme-woocommerce.php:195",
"Your order is being processed","Megrendelése feldolgozása folyamatban van",,"ec-theme-vanilla.php:298 ec-theme-deluxe.php:255 ec-theme-supreme.php:255",
"Your order [ec_order] has been received and is now being processed.","Megrendelésed [ec_order] beérkezett és feldolgozás alatt áll.",,"ec-theme-vanilla.php:309 ec-theme-deluxe.php:266 ec-theme-supreme.php:266",
"Your order is complete","Megrendelésed befejeződött",,"ec-theme-vanilla.php:324 ec-theme-deluxe.php:281 ec-theme-supreme.php:281
ec-theme-woocommerce.php:235",
"Your order [ec_order] at [ec_site_name] has been completed.

We're just letting you know. No further action is required.","Megrendelésed [ec_order] a [ec_site_name] címen befejeződött.

Csak tudjuk. Nincs további intézkedés.",,"ec-theme-vanilla.php:335 ec-theme-deluxe.php:292 ec-theme-supreme.php:292",
"Heading (full)","Cím (teljes)",,"ec-theme-vanilla.php:347 ec-theme-deluxe.php:304 ec-theme-supreme.php:304
ec-theme-woocommerce.php:257",
"Your order has been refunded","Megrendelése visszatérítésre került",,"ec-theme-vanilla.php:350 ec-theme-deluxe.php:307 ec-theme-supreme.php:307",
"Your order [ec_order] has been refunded. Thanks","Megrendelésed [ec_order] visszatérítésre került. Kösz",,"ec-theme-vanilla.php:361 ec-theme-deluxe.php:318 ec-theme-supreme.php:318",
"Heading (partial)","Cím (részleges)",,"ec-theme-vanilla.php:370 ec-theme-deluxe.php:327 ec-theme-supreme.php:327
ec-theme-woocommerce.php:279",
"You have been partially refunded","Ön részlegesen megtérült",,"ec-theme-vanilla.php:373 ec-theme-deluxe.php:330 ec-theme-supreme.php:330
ec-theme-woocommerce.php:282",
"Your order [ec_order] has been partially refunded. Thanks","A rendelését [ec_order] részben visszafizetik. Kösz",,"ec-theme-vanilla.php:384 ec-theme-deluxe.php:341 ec-theme-supreme.php:341",
"Heading (payment pending)","Címsor (kifizetés függőben)",,"ec-theme-vanilla.php:396 ec-theme-deluxe.php:353 ec-theme-supreme.php:353
ec-theme-woocommerce.php:304",
"Invoice for order #[ec_order show=""number""]","Rendelés számlája # [ec_order show = ""number""]",,"ec-theme-vanilla.php:399 ec-theme-vanilla.php:422",
"Thanks for your order on [ec_site_link].

To pay for this order please use the following link: [ec_pay_link]","Köszönjük a rendelését a [ec_site_link] oldalon.

A megrendelés kifizetéséhez használja a következő linket: [ec_pay_link]",,"ec-theme-vanilla.php:410 ec-theme-deluxe.php:367 ec-theme-supreme.php:367",
"Heading (payment complete)","Cím (teljes fizetés)",,"ec-theme-vanilla.php:419 ec-theme-deluxe.php:376 ec-theme-supreme.php:376
ec-theme-woocommerce.php:326",
[ec_customer_note],[Ec_customer_note],,"ec-theme-vanilla.php:459 ec-theme-deluxe.php:416 ec-theme-supreme.php:416",
"Password Reset","Jelszó visszaállítása",,"ec-theme-vanilla.php:474 ec-theme-deluxe.php:431 ec-theme-supreme.php:431",
"Someone requested that the password be reset for the following account:
[ec_user_login]

If this was a mistake, just ignore this email and nothing will happen.

To reset your password, visit the following address:
[ec_reset_password_link]","Valaki megkérte a jelszó visszaállítását a következő fiókhoz:
[Ec_user_login]

Ha ez hiba volt, hagyja figyelmen kívül ezt az e-mailt, és semmi sem fog történni.

A jelszó visszaállításához látogasson el a következő címre:
[Ec_reset_password_link]",,"ec-theme-vanilla.php:485 ec-theme-deluxe.php:442 ec-theme-supreme.php:442",
"Your account has been created","A felhasználói fiókod elkészült",,"ec-theme-vanilla.php:500 ec-theme-deluxe.php:457 ec-theme-supreme.php:457",
"Thanks for creating an account on [ec_site_name].
Your username is: [ec_user_login].

You can access your account area to view your orders and change your password here: [ec_account_link]","Köszönjük, hogy létrehozott egy fiókot az [ec_site_name] -on.
A felhasználóneved: [ec_user_login].

A fiók területén megtekintheti a rendeléseit, és megváltoztathatja jelszavát itt: [ec_account_link]",,"ec-theme-vanilla.php:511 ec-theme-deluxe.php:468 ec-theme-supreme.php:468",
"Password Regenerated Text","Jelszó regenerált szöveg",,"ec-theme-vanilla.php:518 ec-theme-deluxe.php:475 ec-theme-supreme.php:475
ec-theme-woocommerce.php:421",
"Your password has been automatically generated: [ec_user_password]","A jelszavad automatikusan létrejött: [ec_user_password]",,"ec-theme-vanilla.php:521 ec-theme-deluxe.php:478 ec-theme-supreme.php:478
ec-theme-woocommerce.php:424",
"Email Width","E-mail szélesség",,"ec-theme-vanilla.php:534 ec-theme-deluxe.php:491 ec-theme-supreme.php:491",
"Background Color",Háttérszín,,"ec-theme-vanilla.php:546 ec-theme-deluxe.php:551 ec-theme-deluxe.php:999
ec-theme-supreme.php:551 ec-theme-supreme.php:999",
"Text Color","Szöveg szín",,"ec-theme-vanilla.php:558 ec-theme-deluxe.php:563 ec-theme-supreme.php:563",
"Heading Color","Cím szín",,ec-theme-vanilla.php:573,
"Text Accent Color","Szöveges kiejtés színe",,"ec-theme-vanilla.php:585 ec-theme-deluxe.php:575 ec-theme-supreme.php:575",
"Main Heading size","A fő fejléc mérete",,"ec-theme-vanilla.php:597 ec-theme-deluxe.php:587 ec-theme-supreme.php:587",
"Product Images","Termék képek",,"ec-theme-vanilla.php:609 ec-theme-deluxe.php:1011 ec-theme-supreme.php:1011
ec-theme-woocommerce.php:485",
Logo,logo,,"ec-theme-vanilla.php:624 ec-theme-deluxe.php:630 ec-theme-supreme.php:630
ec-theme-woocommerce.php:502",
"Enter a URL or upload an image","Adjon meg egy URL-t, vagy töltsön fel egy képet",,"ec-theme-vanilla.php:628 ec-theme-vanilla.php:667 ec-theme-vanilla.php:705
ec-theme-vanilla.php:743 ec-theme-vanilla.php:781 ec-theme-vanilla.php:819
ec-theme-vanilla.php:857 ec-theme-vanilla.php:872 ec-theme-deluxe.php:634
ec-theme-deluxe.php:671 ec-theme-deluxe.php:707 ec-theme-deluxe.php:743
ec-theme-deluxe.php:779 ec-theme-deluxe.php:815 ec-theme-deluxe.php:851
ec-theme-deluxe.php:1035 ec-theme-supreme.php:634 ec-theme-supreme.php:671
ec-theme-supreme.php:707 ec-theme-supreme.php:743 ec-theme-supreme.php:779
ec-theme-supreme.php:815 ec-theme-supreme.php:851 ec-theme-supreme.php:1035
ec-theme-woocommerce.php:506",
"Link 1 Text","Link 1 szöveg",,"ec-theme-vanilla.php:639 ec-theme-deluxe.php:645 ec-theme-supreme.php:645",
"Link 1 URL","Link 1 URL",,"ec-theme-vanilla.php:651 ec-theme-deluxe.php:656 ec-theme-supreme.php:656",
"Link 1 Image","Link 1 kép",,"ec-theme-vanilla.php:663 ec-theme-deluxe.php:667 ec-theme-supreme.php:667",
"Link 2 Text","Link 2 szöveg",,"ec-theme-vanilla.php:677 ec-theme-deluxe.php:681 ec-theme-supreme.php:681",
"Link 2 URL","Link 2 URL",,"ec-theme-vanilla.php:689 ec-theme-deluxe.php:692 ec-theme-supreme.php:692",
"Link 2 Image","Link 2 kép",,"ec-theme-vanilla.php:701 ec-theme-deluxe.php:703 ec-theme-supreme.php:703",
"Link 3 Text","Link 3 szöveg",,"ec-theme-vanilla.php:715 ec-theme-deluxe.php:717 ec-theme-supreme.php:717",
"Link 3 URL","Link 3 URL",,"ec-theme-vanilla.php:727 ec-theme-deluxe.php:728 ec-theme-supreme.php:728",
"Link 3 Image","Link 3 kép",,"ec-theme-vanilla.php:739 ec-theme-deluxe.php:739 ec-theme-supreme.php:739",
"Link 4 Text","Link 4 szöveg",,"ec-theme-vanilla.php:753 ec-theme-deluxe.php:753 ec-theme-supreme.php:753",
"Link 4 URL","Link 4 URL",,"ec-theme-vanilla.php:765 ec-theme-deluxe.php:764 ec-theme-supreme.php:764",
"Link 4 Image","Link 4 kép",,"ec-theme-vanilla.php:777 ec-theme-deluxe.php:775 ec-theme-supreme.php:775",
"Link 5 Text","Link 5 szöveg",,"ec-theme-vanilla.php:791 ec-theme-deluxe.php:789 ec-theme-supreme.php:789",
"Link 5 URL","Link 5 URL",,"ec-theme-vanilla.php:803 ec-theme-deluxe.php:800 ec-theme-supreme.php:800",
"Link 5 Image","Link 5 kép",,"ec-theme-vanilla.php:815 ec-theme-deluxe.php:811 ec-theme-supreme.php:811",
"Link 6 Text","Link 6 Szöveg",,"ec-theme-vanilla.php:829 ec-theme-deluxe.php:825 ec-theme-supreme.php:825",
"Link 6 URL","Link 6 URL",,"ec-theme-vanilla.php:841 ec-theme-deluxe.php:836 ec-theme-supreme.php:836",
"Link 6 Image","Link 6 kép",,"ec-theme-vanilla.php:853 ec-theme-deluxe.php:847 ec-theme-supreme.php:847",
"Footer Image","Footer Image",,ec-theme-vanilla.php:868,
"Footer Text","Lábfej szöveg",,"ec-theme-vanilla.php:879 ec-theme-deluxe.php:1042 ec-theme-supreme.php:1042
ec-theme-woocommerce.php:513",
"You must be logged in","be kell jelentkezned",,"ec-email-control.php:387 ec-email-control.php:424 ec-email-control.php:480
ec-email-control.php:545",
"Email Customizer",Email-testreszabás,,"ec-email-control.php:581 ec-email-control.php:582 pages/ec-admin-page.php:73",
"Preview and test emails as they will appear in mail clients when received.","Megtekintheti és tesztelheti az e-maileket, ahogyan azok a levélfiókokban fognak megjelenni.",,"ec-email-control.php:635 ec-email-control.php:644",
"%sEmail Customizer for WooCommerce is inactive due to conflicts%sOur plugin will conflict with the following plugins and cannot be used while they are active: %s","A% sEmail Personalizer a WooCommerce számára inaktív a konfliktusok miatt% sA plugin összeütközésbe kerül az alábbi bővítményekkel, és nem használható aktív állapotban:% s",,ec-email-control.php:1274,
"%sEmail Customizer for WooCommerce needs WooCommerce%s %sWooCommerce%s must be active for Email Customizer to work. Please install & activate WooCommerce.","A% sEmail testreszabása a WooCommerce számára A WooCommerce% s% sWooCommerce% s-nak aktívnak kell lennie ahhoz, hogy az Email Customizer működhessen. Telepítse és aktiválja a WooCommerce-t.",,ec-email-control.php:1312,
"%sEmail Customizer for WooCommerce is inactive%s This version of Email Customizer requires WooCommerce %s or newer. For more information about our WooCommerce version support %sclick here%s.","A% sEmail testreszabása a WooCommerce számára inaktív% s Az Email Customizer ezen verziójához WooCommerce% s vagy újabb szükséges. További információ a WooCommerce verziójáról% kattints ide% s.",,ec-email-control.php:1329,
"Invoice for order [ec_order]","Rendelés számlája [ec_order]",,"ec-theme-deluxe.php:356 ec-theme-deluxe.php:379 ec-theme-supreme.php:356
ec-theme-supreme.php:379",
"Border Radius","Border Radius",,"ec-theme-deluxe.php:503 ec-theme-deluxe.php:987 ec-theme-supreme.php:503
ec-theme-supreme.php:987",
"Header Color","Fejszín színe",,"ec-theme-deluxe.php:515 ec-theme-supreme.php:515",
"Page Color",Oldalszín,,"ec-theme-deluxe.php:539 ec-theme-supreme.php:539",
"Text Line Height","Szövegvonal magasság",,"ec-theme-deluxe.php:599 ec-theme-supreme.php:599",
"Logo Position","Logo pozíció",,"ec-theme-deluxe.php:614 ec-theme-supreme.php:614",
"Font Size",Betűméret,,"ec-theme-deluxe.php:863 ec-theme-supreme.php:863",
"Line Width",Vonalvastagság,,"ec-theme-deluxe.php:875 ec-theme-supreme.php:875",
"Line Color",Vonalszín,,"ec-theme-deluxe.php:887 ec-theme-supreme.php:887",
"Divider Style","Divider Stílus",,"ec-theme-deluxe.php:903 ec-theme-supreme.php:903",
"Divider Color","Elosztó szín",,"ec-theme-deluxe.php:921 ec-theme-supreme.php:921",
"Divider Width","Részleges szélesség",,"ec-theme-deluxe.php:933 ec-theme-supreme.php:933",
"Table Border Style","A táblázat határoló stílusa",,"ec-theme-deluxe.php:945 ec-theme-supreme.php:945",
"Border Color","Border Colour",,"ec-theme-deluxe.php:963 ec-theme-supreme.php:963",
"Border Width",Határszélesség,,"ec-theme-deluxe.php:975 ec-theme-supreme.php:975",
"Footer Left Image","Lábra balra kép",,"ec-theme-deluxe.php:1031 ec-theme-supreme.php:1031",
"New customer order","Új megrendelés",,ec-theme-woocommerce.php:110,
"You have received an order from [ec_firstname] [ec_lastname]. The order is as follows:","Megrendelést kapott az [ec_firstname] [ec_lastname] címről. A megrendelés a következő:",,ec-theme-woocommerce.php:120,
"Your order has been received and is now being processed. Your order details are shown below for your reference:","Megrendelése beérkezett és feldolgozás alatt áll. A rendelés részletei az alábbiakban olvashatók:",,ec-theme-woocommerce.php:220,
"Hi there. Your recent order on [ec_site_name] has been completed. Your order details are shown below for your reference:","Szia. A (z) [ec_site_name] webhelyen elért legutóbbi rendelése befejeződött. A rendelés részletei az alábbiakban olvashatók:",,ec-theme-woocommerce.php:245,
"Your order has been fully refunded","Megrendelését teljes mértékben visszatérítették",,ec-theme-woocommerce.php:260,
"Hi there. Your order on [ec_site_name] has been refunded.","Szia. Megrendelésed a (z) [ec_site_name] domainben visszafizetésre került.",,ec-theme-woocommerce.php:270,
"Hi there. Your order on [ec_site_name] has been partially refunded.","Szia. A (z) [ec_site_name] -ra vonatkozó rendelését részlegesen megtérítették.",,ec-theme-woocommerce.php:292,
"Order [ec_order show='#,number' hide='container'] details","Rendelés [ec_order show = '#, number' hide = 'container'] részletek",,"ec-theme-woocommerce.php:307 ec-theme-woocommerce.php:329",
"An order has been created for you on [ec_site_link]. To pay for this order please use the following link: [ec_pay_link]","Megrendelés jött létre az Ön számára [ec_site_link]. A megrendelés kifizetéséhez használja a következő linket: [ec_pay_link]",,ec-theme-woocommerce.php:317,
"Hello, a note has just been added to your order:

[ec_customer_note]

For your reference, your order details are shown below.

","Hello, egy jegyzet hozzá lett rendelve a rendeléséhez:

[Ec_customer_note]

Referenciáért a megrendelés adatai az alábbiak.

",,ec-theme-woocommerce.php:364,
"Password Reset Instructions","Jelszó visszaállítása utasítások",,ec-theme-woocommerce.php:379,
"Someone requested that the password be reset for the following account:

Username: [ec_user_login]

If this was a mistake, just ignore this email and nothing will happen.

To reset your password, visit the following address:
[ec_reset_password_link]","Valaki megkérte a jelszó visszaállítását a következő fiókhoz:

Felhasználónév: [ec_user_login]

Ha ez hiba volt, hagyja figyelmen kívül ezt az e-mailt, és semmi sem fog történni.

A jelszó visszaállításához látogasson el a következő címre:
[Ec_reset_password_link]",,ec-theme-woocommerce.php:389,
"Welcome to [ec_site_name hide='container']","Üdvözöljük a [ec_site_name hide = 'container']",,ec-theme-woocommerce.php:404,
"Thanks for creating an account on [ec_site_name]. Your username is [ec_user_login].

You can access your account area to view your orders and change your password here: [ec_account_link].","Köszönjük, hogy létrehozott egy fiókot az [ec_site_name] -on. A felhasználóneved [ec_user_login].

A fiók területén megtekintheti a rendeléseit, és megváltoztathatja jelszavát itt: [ec_account_link].",,ec-theme-woocommerce.php:414,
"Base Color",Alapszín,,ec-theme-woocommerce.php:437,
"Background Colour",Háttérszín,,ec-theme-woocommerce.php:449,
"Body Background Colour","Test háttérszín",,ec-theme-woocommerce.php:461,
"Body Text Colour","Testszöveg színe",,ec-theme-woocommerce.php:473,
"[ec_site_name] – Powered by WooCommerce","[ec_site_name] - Powered by WooCommerce",,ec-theme-woocommerce.php:516,
"This shortcode cannot be used in this email","Ez a rövid kód nem használható ebben az e-mailben",,"includes/ec-shortcodes.php:167 includes/ec-shortcodes.php:265
includes/ec-shortcodes.php:269 includes/ec-shortcodes.php:527
includes/ec-shortcodes.php:574",
"Order shortcodes cannot be used in this email","A rövid kódok megrendelése nem használható ebben az e-mailben",,includes/ec-shortcodes.php:173,
"Click here to reset your password","Kattintson ide a jelszó visszaállításához",,includes/ec-shortcodes.php:490,
"Pay now","Fizess most",,includes/ec-shortcodes.php:583,
"Reset to:",Visszaállít:,,"includes/ec-settings.php:113 includes/ec-settings.php:168
includes/ec-settings.php:223 includes/ec-settings.php:291
includes/ec-settings.php:378",
"Reset to default","Visszaállítás alapértelmezettre",,"includes/ec-settings.php:114 includes/ec-settings.php:169
includes/ec-settings.php:224 includes/ec-settings.php:292
includes/ec-settings.php:379",
"Hard Crop?","Kemény termés?",,includes/ec-settings.php:419,
"Select a page&hellip;","Válasszon egy oldalt és hellip;",,includes/ec-settings.php:444,
"Choose a country&hellip;","Válasszon országot és hellip;",,includes/ec-settings.php:472,
"Choose countries&hellip;","Válassz országokat és hellip;",,includes/ec-settings.php:501,
"Select all","Mindet kiválaszt",,includes/ec-settings.php:507,
"Select none","Válasszon semmit",,includes/ec-settings.php:507,
"Theme IDs cannot exceed 20 characters in length","A témaazonosító nem haladhatja meg a 20 karakter hosszúságú karaktereket",,"includes/ec-functions.php:44 includes/ec-functions.php:45",
Back,Hát,,pages/ec-admin-page.php:64,
"Choose which email theme to preview. Then click 'Use' to use it for all your future WooCommerce emails.","Válassza ki az e-mail téma megtekintéséhez. Ezután kattintson a ""Használat"" gombra annak használatához a jövőbeli WooCommerce e-mailjeihez.",,pages/ec-admin-page.php:83,
"Email Theme to show","E-mail téma megmutatni",,pages/ec-admin-page.php:84,
"WooCommerce (original, not editable)","WooCommerce (eredeti, nem szerkeszthető)",,pages/ec-admin-page.php:91,
"(WooCommerce update required)","(WooCommerce frissítés szükséges)",,pages/ec-admin-page.php:102,
"Don't Use","Ne használja",,pages/ec-admin-page.php:112,
Use,Használat,,pages/ec-admin-page.php:113,
"Choose which email type to preview.","Válassza ki, hogy melyik e-mail típusú legyen előnézet.",,pages/ec-admin-page.php:122,
"Email Type to show","Megjelenítendő e-mail típusa",,pages/ec-admin-page.php:123,
"Select one...","Válassz egyet...",,"pages/ec-admin-page.php:130 pages/ec-admin-page.php:183",
"Customize the email you're showing in the preview. Then click 'Save & Publish' to save your customizations.","Az előnézetben megjelenített e-mail testreszabása. Ezután kattintson a ""Mentés és közzététel"" lehetőségre a testreszabások mentéséhez.",,pages/ec-admin-page.php:150,
Customize,Testreszab,,"pages/ec-admin-page.php:151 pages/ec-admin-page.php:157",
"Get Customized Themes","Hozzon egyedi témákat",,pages/ec-admin-page.php:162,
"Choose which order to use to populate the email preview.","Válassza ki, hogy melyik rendelést használja az e-mail előnézet feltöltéséhez.",,pages/ec-admin-page.php:170,
"Order to show","Rendelés megmutatni",,pages/ec-admin-page.php:171,
"There are no orders to preview...","Nincsenek előnézeti megrendelések ...",,pages/ec-admin-page.php:190,
"...Showing the most recent %u orders","... A legutóbbi% u megrendelések megjelenítése",,pages/ec-admin-page.php:210,
"More advanced debugging options.","Fejlettebb hibakeresési lehetőségek.",,pages/ec-admin-page.php:220,
Debugging,hibakeresés,,pages/ec-admin-page.php:221,
"Show Header & Template Info","Fejléc és sablon információk megjelenítése",,pages/ec-admin-page.php:238,
"Show Error Notices","Hibaüzenetek megjelenítése",,pages/ec-admin-page.php:252,
"Send a test email to any address. Use a comma separated list to send to multiple addresses","Küldjön egy tesztüzenetet bármely címre. Használjon vesszővel elválasztott listát, hogy több címre küldjön",,pages/ec-admin-page.php:264,
"Send a Test","Teszt küldése",,pages/ec-admin-page.php:265,
"Copy & paste any of these [shortcodes] to use dynamic text in your text.","Másolja és illessze be ezeket a [rövid kódok] szöveget a szöveg dinamikus szövegének használatához.",,pages/ec-admin-page.php:375,
"Allowed Shortcodes:","Engedélyezett rövid kódok:",,pages/ec-admin-page.php:376,
New,Új,,pages/ec-admin-page.php:398,
"For more shortcode documentation <a href=""%s"" target=""_blank"">click here</a>","További rövid kódú dokumentáció <a href=""%s"" target=""_blank""> kattintson ide </a>",,pages/ec-admin-page.php:400,
"Cheatin&#8217; uh?","Cheatin & # 8217; uh?",,pages/ec-preview-page.php:3,
"You'll need at least one order to use Email Customizer properly","Legalább egy megrendelésre lesz szüksége ahhoz, hogy az E-mail testreszabályt megfelelően használhassa",,pages/ec-preview-page.php:73,
"You'll need at least one order to preview all the email types correctly","Legalább egy megrendelésre van szüksége ahhoz, hogy az összes e-mail típust megfelelően előnézze",,pages/ec-preview-page.php:74,
"Simply follow your store's checkout process to create at least one order, then return here to preview all the possible email types.","Egyszerűen kövesse az áruház pénztárfolyamát, hogy legalább egy rendelést hozzon létre, majd térjen vissza ide, hogy megtekintse az összes lehetséges e-mail típust.",,pages/ec-preview-page.php:76,
"You need to update WooCommerce in order to use this theme","A téma használatához frissítenie kell a WooCommerce-et",,pages/ec-preview-page.php:144,
"The theme you selected requires the latest version of WooCommerce - please first update, then return here and select it.","A kiválasztott téma a WooCommerce legújabb verzióját igényli - kérjük, először frissítse, majd térjen vissza és válassza ki.",,pages/ec-preview-page.php:146,
"We've not seen this email type from this third party plugin before","Még nem láttuk ezt az e-mail típust a harmadik féltől származó plugintől",,pages/ec-preview-page.php:160,
"Don't worry, the email will send fine, you just can't preview it. Customizing it - here are your options. Option 1: choose to show one of the other known emails and customize it (colors, sizes, etc) - the styling will be inherited if they have included the header and footer in the normal way. Option 2: choose to dismiss this message and see if it just works. If you see a blank screen then use option 1.","Ne aggódjon, az e-mail jól fog küldeni, csak nem tudja megnézni. Testreszabása - itt van a lehetőségek. 1. lehetőség: úgy dönt, hogy megmutatja az egyik ismert e-mailt, és testre szabja (színek, méretek stb.) - a stílus öröklődik, ha a fejlécet és a láblécet a szokásos módon tartalmazza. 2. opció: válaszd ezt az üzenetet, és nézd meg, hogy működik-e. Ha üres képernyőt lát, akkor az 1. opciót használja.",,pages/ec-preview-page.php:162,
Dismiss,elvetése,,pages/ec-preview-page.php:163,
"Header Info","Fejléc információ",,pages/ec-preview-page.php:180,
"The header infomration that will be sent with the current email. This can be changed in WooCommerce Settings > Emails, or simply click Edit next to the relevant field to be taken there.","A fejléc információ, amelyet az aktuális e-mailben fognak elküldeni. Ezt megváltoztathatja a WooCommerce Beállítások> E-mailek menüpontban, vagy egyszerűen kattintson a Szerkesztés gombra a megfelelő mező mellé.",,pages/ec-preview-page.php:181,
Subject,Tantárgy,,pages/ec-preview-page.php:187,
Edit,szerkesztése,,"pages/ec-preview-page.php:192 pages/ec-preview-page.php:203
pages/ec-preview-page.php:214",
"From Email",Emailből,,pages/ec-preview-page.php:198,
"From Name",Névből,,pages/ec-preview-page.php:209,
"To Email",Ímélezni,,pages/ec-preview-page.php:220,
"Templates In This Email","Sablonok ebben az e-mailben",,pages/ec-preview-page.php:229,
"Email Customizer Default Templates","E-mailes testreszabási alapértelmezett sablonok",,pages/ec-preview-page.php:258,
"Non Email Customizer Templates","Nem e-mailes testreszabási sablonok",,pages/ec-preview-page.php:262,
"Overridden Templates","Túllépett sablonok",,pages/ec-preview-page.php:266,
"<strong>Email Customizer Default Templates</strong> are those found inside our plugin folder. We update these templates when to incorporate any changes that WooCommerce, or the other plugins we support e.g Subscription and Bookings, make to theirs. If you want to customize these templates then please don't edit them here (in our plugin folder) as your changes will be lost next time you update. Rather use the suggested Template Overriding method explained below which will maintain your changes after updating.<br />
<strong>Non Email Customizer Templates</strong> are templates being pulled in from 3rd party plugins that we have chosen not to, or don't yet, support. Our emails simply include the code from these templates at the time the email is sent. Usually our header and footer are used and their template is used for the main content or body. These templates can be customized in the same way using the template override method explained below.<br/>
<strong>Overridden Templates</strong> are templates that you have customized and overridden using the method described in our <a href=""https://www.cxthemes.com/documentation/email-customizer/customize-emails-by-overriding-templates-via-your-theme/"" target=""_blank"">Customize Emails by Overriding Templates via your Theme documentation</a>. You will be responsible for copying any future code changes we make to our templates over to these custom overridden templates.","<strong> Az e-mailek testreszabásának alapértelmezett sablonjai </ strong> azok, amelyek a beépülő modulban találhatók. Frissítjük ezeket a sablonokat, amikor beépítjük azokat a változtatásokat, amelyeket a WooCommerce vagy az általunk támogatott egyéb bővítmények, pl. Előfizetés és Foglalások teszik. Ha meg szeretné testreszabni ezeket a sablont, kérjük, ne módosítsa őket itt (a plugin mappában), mivel a módosítások a következő frissítéskor elveszhetnek. Inkább használja a javasolt sablon felülbíráló módszert, amely az alábbiakban megtartja a módosításokat a frissítés után. <br />
A <strong> nem e-mailes testreszabási sablonok </ strong> olyan sablonok, amelyeket harmadik féltől származó bővítményekből húztak be, amelyeket nem vagy nem támogatunk. E-mailjeink egyszerűen tartalmazzák az e sablonok kódját az e-mail küldésekor. Általában a fejlécünket és a láblécünket használjuk, és a sablont a fő tartalomhoz vagy testhez használják. Ezek a sablonok ugyanúgy testre szabhatók az alábbiakban ismertetett sablon felülírási módszer használatával. <br/>
A <strong> Hátralévő sablonok </ strong> olyan sablonok, amelyeket személyre szabott és felülírtál a <a href = ""https://www.cxthemes.com/documentation/email-customizer/customize-emails-by- A sablonok felülbírálása a sablonok felülbírálásával a Téma dokumentációján keresztül </a>. Ön felelős lesz a későbbi kódmódosítások másolásáért, amelyeket a sablonjainkra átmásolunk ezekre az egyéni felülírt sablonokra.",,pages/ec-preview-page.php:271,
"Please register on the Plugins page to get this update","Kérjük, regisztráljon a Plugins oldalon a frissítés megszerzéséhez",,includes/updates/cxthemes-plugin-update-checker.php:95,
"To get automatic updates you need to input your valid purchase code, for our product, from Envato. The purchase code looks like: <code>f128a5a1-5a1c-4e4e-82ec-a12b3c4d5e6f</code> and should have been emailed to you when you bought our plugin, or you can retrieve it by logging into <a href=""http://codecanyon.net/"" target=""_blank"">CodeCanyon.net</a> go to Downloads > <em>Plugin Name</em> > Download > License certificate & purchase code.","Az automatikus frissítések beszerzéséhez meg kell adnia az érvényes vásárlási kódot az Envato termékhez. A vásárlási kód úgy néz ki, mint: <code> f128a5a1-5a1c-4e4e-82ec-a12b3c4d5e6f </ code>, és nekünk e-mailben kellett nekünk, amikor megvásárolta a bővítményünket, vagy a <a href = ""http: //codecanyon.net/ ""target ="" _ blank ""> CodeCanyon.net </a> menjen a Letöltések> <em> Plugin Name </ em>> Letöltés> Licenc tanúsítvány és vásárlási kód.",,includes/updates/cxthemes-plugin-update-checker.php:197,
"That is not a valid purchase code format. It should look like: <code>f128a5a1-5a1c-4e4e-82ec-a12b3c4d5e6f</code>.","Ez nem érvényes vételi kód formátum. Úgy néz ki, mint: <code> f128a5a1-5a1c-4e4e-82ec-a12b3c4d5e6f </ code>.",,includes/updates/cxthemes-plugin-update-checker.php:206,
"You are unable to connect to our update server at this time. Please check your connection, or try again later.","Jelenleg nem tud csatlakozni a frissítési szerverhez. Kérjük, ellenőrizze a kapcsolatot, vagy próbálja újra később.",,includes/updates/cxthemes-plugin-update-checker.php:212,
"It doesn't seem like you have purchased our plugin yet. Please <a href='#'>purchase it from CodeCanyon</a> to get access to support and updates.","Úgy tűnik, hogy még nem vásárolta meg a plugint. Kérjük, <a href='#'> vásárolja meg a CodeCanyonból </a>, hogy hozzáférést kapjon a támogatáshoz és a frissítésekhez.",,includes/updates/cxthemes-plugin-update-checker.php:218,
"Thanks. You're registered and can now receive updates.","Kösz. Regisztrálva van, és mostantól kaphat frissítéseket.",,includes/updates/cxthemes-plugin-update-checker.php:224,
"Purchase Code","Vásárlási kód",,includes/updates/cxthemes-plugin-update-checker.php:234,
Save,Mentés,,includes/updates/cxthemes-plugin-update-checker.php:236,
"Register for Updates","Regisztráció frissítésekhez",,includes/updates/cxthemes-plugin-update-checker.php:265,
"<em><a href=""%s"">Register here</a> to get this update</em>","<em> <a href=""%s""> Regisztráljon itt </a> a frissítés eléréséhez </ em>",,includes/updates/cxthemes-plugin-update-checker.php:265,
"Edit registration","Regisztráció módosítása",,includes/updates/cxthemes-plugin-update-checker.php:272,
"Product Image",Termékkép,,"templates-wc2.5-wc2.9/emails/deluxe/email-order-items.php:28
templates-wc2.5-wc2.9/emails/supreme/email-order-items.php:28
templates-wc2.5-wc2.9/emails/vanilla/email-order-items.php:28",
"If admin sets auto generated passwords","Ha az admin rendszer automatikusan létrehozza a jelszavakat",,"templates-wc2.5-wc2.9/emails/deluxe/customer-new-account.php:25
templates-wc2.5-wc2.9/emails/supreme/customer-new-account.php:25
templates-wc2.5-wc2.9/emails/vanilla/customer-new-account.php:26
templates/emails/deluxe/customer-new-account.php:25
templates/emails/supreme/customer-new-account.php:25
templates/emails/vanilla/customer-new-account.php:25",
"Billing address","Számlázási cím",,"templates-wc2.5-wc2.9/emails/deluxe/email-addresses.php:13
templates-wc2.5-wc2.9/emails/supreme/email-addresses.php:13
templates/emails/deluxe/email-addresses.php:13
templates/emails/supreme/email-addresses.php:13",
"Shipping address","Szállítási cím",,"templates-wc2.5-wc2.9/emails/deluxe/email-addresses.php:18
templates-wc2.5-wc2.9/emails/supreme/email-addresses.php:18
templates/emails/deluxe/email-addresses.php:18
templates/emails/supreme/email-addresses.php:18",
"Payment Pending","Kifizetés függőben",,"templates-wc2.5-wc2.9/emails/deluxe/customer-invoice.php:25
templates-wc2.5-wc2.9/emails/supreme/customer-invoice.php:25
templates-wc2.5-wc2.9/emails/vanilla/customer-invoice.php:25
templates/emails/deluxe/customer-invoice.php:25
templates/emails/supreme/customer-invoice.php:25
templates/emails/vanilla/customer-invoice.php:25",
"Payment Complete","Fizetés befejeződött",,"templates-wc2.5-wc2.9/emails/deluxe/customer-invoice.php:41
templates-wc2.5-wc2.9/emails/supreme/customer-invoice.php:41
templates-wc2.5-wc2.9/emails/vanilla/customer-invoice.php:41
templates/emails/deluxe/customer-invoice.php:41
templates/emails/supreme/customer-invoice.php:41
templates/emails/vanilla/customer-invoice.php:41",
"Customer details","Vásárló adatai",,"templates-wc2.5-wc2.9/emails/deluxe/email-customer-details.php:11
templates-wc2.5-wc2.9/emails/supreme/email-customer-details.php:11
templates/emails/deluxe/email-customer-details.php:11
templates/emails/supreme/email-customer-details.php:11",
"Order Details","Rendelési adatok",,"templates-wc2.5-wc2.9/emails/deluxe/email-order-details.php:17
templates-wc2.5-wc2.9/emails/supreme/email-order-details.php:17
templates/emails/deluxe/email-order-details.php:17
templates/emails/supreme/email-order-details.php:17",
"Order Number:",Rendelésszám:,,"templates-wc2.5-wc2.9/emails/deluxe/email-order-details.php:23
templates-wc2.5-wc2.9/emails/supreme/email-order-details.php:23
templates-wc2.5-wc2.9/emails/vanilla/email-order-details.php:24
templates/emails/deluxe/email-order-details.php:23
templates/emails/supreme/email-order-details.php:23
templates/emails/vanilla/email-order-details.php:24",
"Order Date:","Rendelés dátuma:",,"templates-wc2.5-wc2.9/emails/deluxe/email-order-details.php:33
templates-wc2.5-wc2.9/emails/supreme/email-order-details.php:33
templates-wc2.5-wc2.9/emails/vanilla/email-order-details.php:33
templates/emails/deluxe/email-order-details.php:33
templates/emails/supreme/email-order-details.php:33
templates/emails/vanilla/email-order-details.php:33",
Product,Termék,,"templates-wc2.5-wc2.9/emails/deluxe/email-order-details.php:43
templates-wc2.5-wc2.9/emails/supreme/email-order-details.php:43
templates-wc2.5-wc2.9/emails/vanilla/email-order-details.php:45
templates/emails/deluxe/email-order-details.php:43
templates/emails/supreme/email-order-details.php:43
templates/emails/vanilla/email-order-details.php:45",
Quantity,Mennyiség,,"templates-wc2.5-wc2.9/emails/deluxe/email-order-details.php:44
templates-wc2.5-wc2.9/emails/supreme/email-order-details.php:44
templates-wc2.5-wc2.9/emails/vanilla/email-order-details.php:46
templates/emails/deluxe/email-order-details.php:44
templates/emails/supreme/email-order-details.php:44
templates/emails/vanilla/email-order-details.php:46",
Price,Ár,,"templates-wc2.5-wc2.9/emails/deluxe/email-order-details.php:45
templates-wc2.5-wc2.9/emails/supreme/email-order-details.php:45
templates-wc2.5-wc2.9/emails/vanilla/email-order-details.php:47
templates/emails/deluxe/email-order-details.php:45
templates/emails/supreme/email-order-details.php:45
templates/emails/vanilla/email-order-details.php:47",
"Partial Refund","Részleges visszatérítés",,"templates-wc2.5-wc2.9/emails/deluxe/customer-refunded-order.php:25
templates-wc2.5-wc2.9/emails/supreme/customer-refunded-order.php:25
templates-wc2.5-wc2.9/emails/vanilla/customer-refunded-order.php:26
templates/emails/deluxe/customer-refunded-order.php:25
templates/emails/supreme/customer-refunded-order.php:25
templates/emails/vanilla/customer-refunded-order.php:25",
Refund,Visszatérítés,,"templates-wc2.5-wc2.9/emails/deluxe/customer-refunded-order.php:41
templates-wc2.5-wc2.9/emails/supreme/customer-refunded-order.php:41
templates-wc2.5-wc2.9/emails/vanilla/customer-refunded-order.php:42
templates/emails/deluxe/customer-refunded-order.php:41
templates/emails/supreme/customer-refunded-order.php:41
templates/emails/vanilla/customer-refunded-order.php:41",
"Billing Address","számlázási cím",,"templates-wc2.5-wc2.9/emails/vanilla/email-addresses.php:13
templates/emails/vanilla/email-addresses.php:13",
"Shipping Address","szállítási cím",,"templates-wc2.5-wc2.9/emails/vanilla/email-addresses.php:18
templates/emails/vanilla/email-addresses.php:18",
"Customer Details","Vásárló adatai",,"templates-wc2.5-wc2.9/emails/vanilla/email-customer-details.php:11
templates/emails/vanilla/email-customer-details.php:11",
"Product image","Termék kép",,"templates/emails/deluxe/email-order-items.php:27
templates/emails/supreme/email-order-items.php:27
templates/emails/vanilla/email-order-items.php:27",
"WooCommerce Email Customizer","WooCommerce Email-testreszabás",,,"Name of the plugin"
"WooCommerce Email Customizer plugin allows you to fully customize the styling, colors, logo and text in the emails sent from your WooCommerce store.","A WooCommerce Email Customizer plugin lehetővé teszi a stílus, a színek, a logó és a szöveg teljes testreszabását a WooCommerce áruház által küldött e-mailekben.",,,"Description of the plugin"
cxThemes,cxThemes,,,"URI of the plugin
Author URI of the plugin
Author of the plugin"
Text,Szöveg,,"ec-theme-vanilla.php:121 ec-theme-deluxe.php:78 ec-theme-supreme.php:78
ec-theme-woocommerce.php:60",
Appearance,Kinézet,,"ec-theme-vanilla.php:127 ec-theme-deluxe.php:84 ec-theme-supreme.php:84
ec-theme-woocommerce.php:66",
Header,Fejléc,,"ec-theme-vanilla.php:133 ec-theme-deluxe.php:90 ec-theme-supreme.php:90
ec-theme-woocommerce.php:72",
Links,linkek,,"ec-theme-vanilla.php:139 ec-theme-deluxe.php:96 ec-theme-supreme.php:96",
"Section Headings",Szekciófejek,,"ec-theme-vanilla.php:145 ec-theme-deluxe.php:102 ec-theme-supreme.php:102",
"Order Items Table","Rendelési tételek táblázata",,"ec-theme-vanilla.php:151 ec-theme-deluxe.php:108 ec-theme-supreme.php:108",
Footer,Lábjegyzet,,"ec-theme-vanilla.php:157 ec-theme-deluxe.php:114 ec-theme-supreme.php:114
ec-theme-woocommerce.php:78",
"Custom CSS","Egyéni CSS",,"ec-theme-vanilla.php:163 ec-theme-deluxe.php:120 ec-theme-supreme.php:120",
Heading,Cím,,"ec-theme-vanilla.php:192 ec-theme-vanilla.php:218 ec-theme-vanilla.php:244
ec-theme-vanilla.php:270 ec-theme-vanilla.php:295 ec-theme-vanilla.php:321
ec-theme-vanilla.php:445 ec-theme-vanilla.php:471 ec-theme-vanilla.php:497
ec-theme-deluxe.php:149 ec-theme-deluxe.php:175 ec-theme-deluxe.php:201
ec-theme-deluxe.php:227 ec-theme-deluxe.php:252 ec-theme-deluxe.php:278
ec-theme-deluxe.php:402 ec-theme-deluxe.php:428 ec-theme-deluxe.php:454
ec-theme-supreme.php:149 ec-theme-supreme.php:175 ec-theme-supreme.php:201
ec-theme-supreme.php:227 ec-theme-supreme.php:252 ec-theme-supreme.php:278
ec-theme-supreme.php:402 ec-theme-supreme.php:428 ec-theme-supreme.php:454
ec-theme-woocommerce.php:107 ec-theme-woocommerce.php:132
ec-theme-woocommerce.php:157 ec-theme-woocommerce.php:182
ec-theme-woocommerce.php:207 ec-theme-woocommerce.php:232
ec-theme-woocommerce.php:351 ec-theme-woocommerce.php:376
ec-theme-woocommerce.php:401",
"New order received!","Új rendelés érkezett!",,"ec-theme-vanilla.php:195 ec-theme-deluxe.php:152 ec-theme-supreme.php:152",
"Main Text","Fő szöveg",,"ec-theme-vanilla.php:203 ec-theme-vanilla.php:229 ec-theme-vanilla.php:255
ec-theme-vanilla.php:280 ec-theme-vanilla.php:306 ec-theme-vanilla.php:332
ec-theme-vanilla.php:358 ec-theme-vanilla.php:381 ec-theme-vanilla.php:407
ec-theme-vanilla.php:430 ec-theme-vanilla.php:456 ec-theme-vanilla.php:482
ec-theme-vanilla.php:508 ec-theme-deluxe.php:160 ec-theme-deluxe.php:186
ec-theme-deluxe.php:212 ec-theme-deluxe.php:237 ec-theme-deluxe.php:263
ec-theme-deluxe.php:289 ec-theme-deluxe.php:315 ec-theme-deluxe.php:338
ec-theme-deluxe.php:364 ec-theme-deluxe.php:387 ec-theme-deluxe.php:413
ec-theme-deluxe.php:439 ec-theme-deluxe.php:465 ec-theme-supreme.php:160
ec-theme-supreme.php:186 ec-theme-supreme.php:212 ec-theme-supreme.php:237
ec-theme-supreme.php:263 ec-theme-supreme.php:289 ec-theme-supreme.php:315
ec-theme-supreme.php:338 ec-theme-supreme.php:364 ec-theme-supreme.php:387
ec-theme-supreme.php:413 ec-theme-supreme.php:439 ec-theme-supreme.php:465
ec-theme-woocommerce.php:117 ec-theme-woocommerce.php:142
ec-theme-woocommerce.php:167 ec-theme-woocommerce.php:192
ec-theme-woocommerce.php:217 ec-theme-woocommerce.php:242
ec-theme-woocommerce.php:267 ec-theme-woocommerce.php:289
ec-theme-woocommerce.php:314 ec-theme-woocommerce.php:336
ec-theme-woocommerce.php:361 ec-theme-woocommerce.php:386
ec-theme-woocommerce.php:411",
"You have received an order from [ec_firstname] [ec_lastname].

Their order is as follows: [ec_order]","Megrendelést kapott az [ec_firstname] [ec_lastname] címről.

Rendelésük a következő: [ec_order]",,"ec-theme-vanilla.php:206 ec-theme-deluxe.php:163 ec-theme-supreme.php:163",
"Cancelled order","Törölt rendelés",,"ec-theme-vanilla.php:221 ec-theme-deluxe.php:178 ec-theme-supreme.php:178
ec-theme-woocommerce.php:135",
"The order [ec_order] for [ec_firstname] [ec_lastname] has been cancelled.","Az [ec_order] [ec_firstname] [ec_lastname] rendje törölve lett.",,"ec-theme-vanilla.php:232 ec-theme-deluxe.php:189 ec-theme-supreme.php:189
ec-theme-woocommerce.php:145",
"Failed order","Sikertelen sorrend",,"ec-theme-vanilla.php:247 ec-theme-deluxe.php:204 ec-theme-supreme.php:204
ec-theme-woocommerce.php:160",
