"Payment for order [ec_order] from [ec_firstname] [ec_lastname] has failed.","O pagamento do pedido [ec_order] de [ec_firstname] [ec_lastname] falhou.",,"ec-theme-vanilla.php:258 ec-theme-deluxe.php:215 ec-theme-supreme.php:215
ec-theme-woocommerce.php:170",
"Thank you for your order","Obrigado pela sua compra",,"ec-theme-vanilla.php:273 ec-theme-deluxe.php:230 ec-theme-supreme.php:230
ec-theme-woocommerce.php:185 ec-theme-woocommerce.php:210",
"Your order is on-hold until we confirm payment has been received. Your order details are shown below for your reference:","Seu pedido está aguardando pagamento. Abaixo seguem os detalhes da sua compra para sua referência:",,"ec-theme-vanilla.php:283 ec-theme-deluxe.php:240 ec-theme-supreme.php:240
ec-theme-woocommerce.php:195",
"Your order is being processed","Seu pedido está sendo processado",,"ec-theme-vanilla.php:298 ec-theme-deluxe.php:255 ec-theme-supreme.php:255",
"Your order [ec_order] has been received and is now being processed.","Seu pedido [ec_order] foi recebido e agora está sendo processado.",,"ec-theme-vanilla.php:309 ec-theme-deluxe.php:266 ec-theme-supreme.php:266",
"Your order is complete","Seu pedido foi finalizado",,"ec-theme-vanilla.php:324 ec-theme-deluxe.php:281 ec-theme-supreme.php:281
ec-theme-woocommerce.php:235",
"Your order [ec_order] at [ec_site_name] has been completed.

We're just letting you know. No further action is required.","Seu pedido [ec_order] em [ec_site_name] foi concluído. \\ N \\ nVamos apenas informá-lo. Não é necessária nenhuma ação adicional.",,"ec-theme-vanilla.php:335 ec-theme-deluxe.php:292 ec-theme-supreme.php:292",
"Heading (full)","Heading (full)",,"ec-theme-vanilla.php:347 ec-theme-deluxe.php:304 ec-theme-supreme.php:304
ec-theme-woocommerce.php:257",
"Your order has been refunded","Seu pedido foi reembolsado",,"ec-theme-vanilla.php:350 ec-theme-deluxe.php:307 ec-theme-supreme.php:307",
"Your order [ec_order] has been refunded. Thanks","O seu pedido [ec_order] foi reembolsado. Obrigado",,"ec-theme-vanilla.php:361 ec-theme-deluxe.php:318 ec-theme-supreme.php:318",
"Heading (partial)","Título (parcial)",,"ec-theme-vanilla.php:370 ec-theme-deluxe.php:327 ec-theme-supreme.php:327
ec-theme-woocommerce.php:279",
"You have been partially refunded","Você foi parcialmente reembolsado",,"ec-theme-vanilla.php:373 ec-theme-deluxe.php:330 ec-theme-supreme.php:330
ec-theme-woocommerce.php:282",
"Your order [ec_order] has been partially refunded. Thanks","Seu pedido [ec_order] foi parcialmente reembolsado. obrigado",,"ec-theme-vanilla.php:384 ec-theme-deluxe.php:341 ec-theme-supreme.php:341",
"Heading (payment pending)","Título (pagamento pendente)",,"ec-theme-vanilla.php:396 ec-theme-deluxe.php:353 ec-theme-supreme.php:353
ec-theme-woocommerce.php:304",
"Invoice for order #[ec_order show=""number""]","Fatura para ordem # [ec_order show = \\ ""número ""]",,"ec-theme-vanilla.php:399 ec-theme-vanilla.php:422",
"Thanks for your order on [ec_site_link].

To pay for this order please use the following link: [ec_pay_link]","Obrigado pelo seu pedido em [ec_site_link]. \\ N \\ nPara pagar por este pedido, use o seguinte link: [ec_pay_link]",,"ec-theme-vanilla.php:410 ec-theme-deluxe.php:367 ec-theme-supreme.php:367",
"Heading (payment complete)","Título (pagamento completo)",,"ec-theme-vanilla.php:419 ec-theme-deluxe.php:376 ec-theme-supreme.php:376
ec-theme-woocommerce.php:326",
[ec_customer_note],[ec_customer_note],,"ec-theme-vanilla.php:459 ec-theme-deluxe.php:416 ec-theme-supreme.php:416",
"Password Reset","Redefinir senha",,"ec-theme-vanilla.php:474 ec-theme-deluxe.php:431 ec-theme-supreme.php:431",
"Someone requested that the password be reset for the following account:
[ec_user_login]

If this was a mistake, just ignore this email and nothing will happen.

To reset your password, visit the following address:
[ec_reset_password_link]","Alguém pediu que a senha fosse redefinida para a seguinte conta:
[ec_user_login] 

Se isso for um erro, ignore este e-mail e nada acontecerá. 

Para redefinir sua senha, visite o seguinte endereço:
[ec_reset_password_link]",,"ec-theme-vanilla.php:485 ec-theme-deluxe.php:442 ec-theme-supreme.php:442",
"Your account has been created","Sua conta foi criada",,"ec-theme-vanilla.php:500 ec-theme-deluxe.php:457 ec-theme-supreme.php:457",
"Thanks for creating an account on [ec_site_name].
Your username is: [ec_user_login].

You can access your account area to view your orders and change your password here: [ec_account_link]","Obrigado por criar uma conta em [ec_site_name].
Seu nome de usuário é: [ec_user_login]. 

Você pode acessar sua área de conta para ver seus pedidos e alterar sua senha aqui: [ec_account_link]",,"ec-theme-vanilla.php:511 ec-theme-deluxe.php:468 ec-theme-supreme.php:468",
"Password Regenerated Text","Texto da redefinição de senha",,"ec-theme-vanilla.php:518 ec-theme-deluxe.php:475 ec-theme-supreme.php:475
ec-theme-woocommerce.php:421",
"Your password has been automatically generated: [ec_user_password]","Sua senha foi gerada automaticamente: [ec_user_password]",,"ec-theme-vanilla.php:521 ec-theme-deluxe.php:478 ec-theme-supreme.php:478
ec-theme-woocommerce.php:424",
"Email Width","Largura do email",,"ec-theme-vanilla.php:534 ec-theme-deluxe.php:491 ec-theme-supreme.php:491",
"Background Color","Cor de fundo",,"ec-theme-vanilla.php:546 ec-theme-deluxe.php:551 ec-theme-deluxe.php:999
ec-theme-supreme.php:551 ec-theme-supreme.php:999",
"Text Color","Cor do texto",,"ec-theme-vanilla.php:558 ec-theme-deluxe.php:563 ec-theme-supreme.php:563",
"Heading Color","Cor do cabeçalho",,ec-theme-vanilla.php:573,
"Text Accent Color","Cor de destaque do texto",,"ec-theme-vanilla.php:585 ec-theme-deluxe.php:575 ec-theme-supreme.php:575",
"Main Heading size","Tamanho do título principal",,"ec-theme-vanilla.php:597 ec-theme-deluxe.php:587 ec-theme-supreme.php:587",
"Product Images","Imagens do produto",,"ec-theme-vanilla.php:609 ec-theme-deluxe.php:1011 ec-theme-supreme.php:1011
ec-theme-woocommerce.php:485",
Logo,Logotipo,,"ec-theme-vanilla.php:624 ec-theme-deluxe.php:630 ec-theme-supreme.php:630
ec-theme-woocommerce.php:502",
"Enter a URL or upload an image","Insira uma URL ou faça upload de uma imagem",,"ec-theme-vanilla.php:628 ec-theme-vanilla.php:667 ec-theme-vanilla.php:705
ec-theme-vanilla.php:743 ec-theme-vanilla.php:781 ec-theme-vanilla.php:819
ec-theme-vanilla.php:857 ec-theme-vanilla.php:872 ec-theme-deluxe.php:634
ec-theme-deluxe.php:671 ec-theme-deluxe.php:707 ec-theme-deluxe.php:743
ec-theme-deluxe.php:779 ec-theme-deluxe.php:815 ec-theme-deluxe.php:851
ec-theme-deluxe.php:1035 ec-theme-supreme.php:634 ec-theme-supreme.php:671
ec-theme-supreme.php:707 ec-theme-supreme.php:743 ec-theme-supreme.php:779
ec-theme-supreme.php:815 ec-theme-supreme.php:851 ec-theme-supreme.php:1035
ec-theme-woocommerce.php:506",
"Link 1 Text","Texto link 1",,"ec-theme-vanilla.php:639 ec-theme-deluxe.php:645 ec-theme-supreme.php:645",
"Link 1 URL","Link 1 URL",,"ec-theme-vanilla.php:651 ec-theme-deluxe.php:656 ec-theme-supreme.php:656",
"Link 1 Image","Link 1 Image",,"ec-theme-vanilla.php:663 ec-theme-deluxe.php:667 ec-theme-supreme.php:667",
"Link 2 Text","Link 2 Text",,"ec-theme-vanilla.php:677 ec-theme-deluxe.php:681 ec-theme-supreme.php:681",
"Link 2 URL","Link 2 URL",,"ec-theme-vanilla.php:689 ec-theme-deluxe.php:692 ec-theme-supreme.php:692",
"Link 2 Image","Link 2 Image",,"ec-theme-vanilla.php:701 ec-theme-deluxe.php:703 ec-theme-supreme.php:703",
"Link 3 Text","Link 3 Text",,"ec-theme-vanilla.php:715 ec-theme-deluxe.php:717 ec-theme-supreme.php:717",
"Link 3 URL","Link 3 URL",,"ec-theme-vanilla.php:727 ec-theme-deluxe.php:728 ec-theme-supreme.php:728",
"Link 3 Image","Link 3 Image",,"ec-theme-vanilla.php:739 ec-theme-deluxe.php:739 ec-theme-supreme.php:739",
"Link 4 Text","Link 4 Text",,"ec-theme-vanilla.php:753 ec-theme-deluxe.php:753 ec-theme-supreme.php:753",
"Link 4 URL","Link 4 URL",,"ec-theme-vanilla.php:765 ec-theme-deluxe.php:764 ec-theme-supreme.php:764",
"Link 4 Image","Link 4 Image",,"ec-theme-vanilla.php:777 ec-theme-deluxe.php:775 ec-theme-supreme.php:775",
"Link 5 Text","Link 5 Text",,"ec-theme-vanilla.php:791 ec-theme-deluxe.php:789 ec-theme-supreme.php:789",
"Link 5 URL","Link 5 URL",,"ec-theme-vanilla.php:803 ec-theme-deluxe.php:800 ec-theme-supreme.php:800",
"Link 5 Image","Link 5 Image",,"ec-theme-vanilla.php:815 ec-theme-deluxe.php:811 ec-theme-supreme.php:811",
"Link 6 Text","Link 6 Text",,"ec-theme-vanilla.php:829 ec-theme-deluxe.php:825 ec-theme-supreme.php:825",
"Link 6 URL","Link 6 URL",,"ec-theme-vanilla.php:841 ec-theme-deluxe.php:836 ec-theme-supreme.php:836",
"Link 6 Image","Link 6 Image",,"ec-theme-vanilla.php:853 ec-theme-deluxe.php:847 ec-theme-supreme.php:847",
"Footer Image","Imagem do rodapé",,ec-theme-vanilla.php:868,
"Footer Text","Texto do rodapé",,"ec-theme-vanilla.php:879 ec-theme-deluxe.php:1042 ec-theme-supreme.php:1042
ec-theme-woocommerce.php:513",
"You must be logged in","Você deve estar logado",,"ec-email-control.php:387 ec-email-control.php:424 ec-email-control.php:480
ec-email-control.php:545",
"Email Customizer","Personalizador de email",,"ec-email-control.php:581 ec-email-control.php:582 pages/ec-admin-page.php:73",
"Preview and test emails as they will appear in mail clients when received.","Visualize e teste como os e-mails aparecerão para os clientes quando forem recebidos.",,"ec-email-control.php:635 ec-email-control.php:644",
"%sEmail Customizer for WooCommerce is inactive due to conflicts%sOur plugin will conflict with the following plugins and cannot be used while they are active: %s","%s Email Customizer para WooCommerce está inativo devido a conflitos %s Nosso plugin entrará em conflito com os seguintes plugins e não pode ser usado enquanto eles estiverem ativos: %s",,ec-email-control.php:1274,
"%sEmail Customizer for WooCommerce needs WooCommerce%s %sWooCommerce%s must be active for Email Customizer to work. Please install & activate WooCommerce.","%s Personalizador de email para WooCommerce precisa do WooCommerce %s %s WooCommerce %s deve estar ativo para que o Customizer de email funcione. Instale e ative o WooCommerce.",,ec-email-control.php:1312,
"%sEmail Customizer for WooCommerce is inactive%s This version of Email Customizer requires WooCommerce %s or newer. For more information about our WooCommerce version support %sclick here%s.","%s Email Customizer para WooCommerce está inativo %s Esta versão do Customizador de e-mail requer WooCommerce %s ou mais recente. Para obter mais informações sobre nosso suporte de versão do WooCommerce %s clique aqui %s .",,ec-email-control.php:1329,
"Invoice for order [ec_order]","Fatura para o pedido [ec_order]",,"ec-theme-deluxe.php:356 ec-theme-deluxe.php:379 ec-theme-supreme.php:356
ec-theme-supreme.php:379",
"Border Radius","Espessura da borda",,"ec-theme-deluxe.php:503 ec-theme-deluxe.php:987 ec-theme-supreme.php:503
ec-theme-supreme.php:987",
"Header Color","Cor do cabeçalho",,"ec-theme-deluxe.php:515 ec-theme-supreme.php:515",
"Page Color","Cor da Página",,"ec-theme-deluxe.php:539 ec-theme-supreme.php:539",
"Text Line Height","Altura da linha de texto",,"ec-theme-deluxe.php:599 ec-theme-supreme.php:599",
"Logo Position","Posição do logotipo",,"ec-theme-deluxe.php:614 ec-theme-supreme.php:614",
"Font Size","Tamanho da fonte",,"ec-theme-deluxe.php:863 ec-theme-supreme.php:863",
"Line Width","Espessura da linha",,"ec-theme-deluxe.php:875 ec-theme-supreme.php:875",
"Line Color","Cor da linha",,"ec-theme-deluxe.php:887 ec-theme-supreme.php:887",
"Divider Style","Estilo do divisor",,"ec-theme-deluxe.php:903 ec-theme-supreme.php:903",
"Divider Color","Cor do divisor",,"ec-theme-deluxe.php:921 ec-theme-supreme.php:921",
"Divider Width","Largura do divisor",,"ec-theme-deluxe.php:933 ec-theme-supreme.php:933",
"Table Border Style","Estilo da borda da tabela",,"ec-theme-deluxe.php:945 ec-theme-supreme.php:945",
"Border Color","Cor da borda",,"ec-theme-deluxe.php:963 ec-theme-supreme.php:963",
"Border Width","Largura da borda",,"ec-theme-deluxe.php:975 ec-theme-supreme.php:975",
"Footer Left Image","Imagem de rodapé à esquerda",,"ec-theme-deluxe.php:1031 ec-theme-supreme.php:1031",
"New customer order","Novo pedido de cliente",,ec-theme-woocommerce.php:110,
"You have received an order from [ec_firstname] [ec_lastname]. The order is as follows:","Você recebeu um pedido de [ec_firstname] [ec_lastname]. Segue o pedido:",,ec-theme-woocommerce.php:120,
"Your order has been received and is now being processed. Your order details are shown below for your reference:","Seu pedido foi recebido e agora está sendo processado. Os detalhes da sua compra seguem abaixo para sua referência:",,ec-theme-woocommerce.php:220,
"Hi there. Your recent order on [ec_site_name] has been completed. Your order details are shown below for your reference:","Olá. Seu pedido recente na [ec_site_name] foi concluído. Os detalhes da sua compra seguem abaixo para sua referência:",,ec-theme-woocommerce.php:245,
"Your order has been fully refunded","Seu pedido foi totalmente reembolsado",,ec-theme-woocommerce.php:260,
"Hi there. Your order on [ec_site_name] has been refunded.","Olá. Seu pedido em [ec_site_name] foi reembolsado.",,ec-theme-woocommerce.php:270,
"Hi there. Your order on [ec_site_name] has been partially refunded.","Olá. Seu pedido em [ec_site_name] foi parcialmente reembolsado.",,ec-theme-woocommerce.php:292,
"Order [ec_order show='#,number' hide='container'] details","Detalhes do pedido [ec_order show = '#, number' hide = 'container'] ",,"ec-theme-woocommerce.php:307 ec-theme-woocommerce.php:329",
"An order has been created for you on [ec_site_link]. To pay for this order please use the following link: [ec_pay_link]","Um pedido foi criado para você no [ec_site_link]. Para efetuar o pagamento, use o seguinte link: [ec_pay_link]",,ec-theme-woocommerce.php:317,
"Hello, a note has just been added to your order:

[ec_customer_note]

For your reference, your order details are shown below.

","Olá [ec_firstname], uma nota acabou de ser adicionada ao seu pedido:

[ec_customer_note]

Para sua referência, os detalhes da sua ordem são mostrados abaixo.

",,ec-theme-woocommerce.php:364,
"Password Reset Instructions","Instruções para redefinição de senha",,ec-theme-woocommerce.php:379,
"Someone requested that the password be reset for the following account:

Username: [ec_user_login]

If this was a mistake, just ignore this email and nothing will happen.

To reset your password, visit the following address:
[ec_reset_password_link]","Alguém pediu que a senha fosse redefinida para a seguinte conta:

Usuário: [ec_user_login] 

Se isso for um erro, ignore este e-mail e nada acontecerá.

Para redefinir sua senha, visite o seguinte endereço :

[ec_reset_password_link]",,ec-theme-woocommerce.php:389,
"Welcome to [ec_site_name hide='container']","Bem-vindo a [ec_site_name hide = 'container']",,ec-theme-woocommerce.php:404,
"Thanks for creating an account on [ec_site_name]. Your username is [ec_user_login].

You can access your account area to view your orders and change your password here: [ec_account_link].","Obrigado por criar uma conta em [ec_site_name]. Seu nome de usuário é [ec_user_login]. 

Você pode acessar sua conta para ver seus pedidos e alterar sua senha aqui: [ec_account_link].",,ec-theme-woocommerce.php:414,
"Base Color","Cor da base",,ec-theme-woocommerce.php:437,
"Background Colour","Cor de fundo",,ec-theme-woocommerce.php:449,
"Body Background Colour","Cor de fundo do corpo",,ec-theme-woocommerce.php:461,
"Body Text Colour","Cor do texto do corpo",,ec-theme-woocommerce.php:473,
"[ec_site_name] – Powered by WooCommerce","[ec_site_name] - Powered by WooCommerce",,ec-theme-woocommerce.php:516,
"This shortcode cannot be used in this email","Este shortcode não pode ser usado neste e-mail",,"includes/ec-shortcodes.php:167 includes/ec-shortcodes.php:265
includes/ec-shortcodes.php:269 includes/ec-shortcodes.php:527
includes/ec-shortcodes.php:574",
"Order shortcodes cannot be used in this email","Order shortcodes não pode ser usado neste e-mail",,includes/ec-shortcodes.php:173,
"Click here to reset your password","Clique aqui para redefinir sua senha",,includes/ec-shortcodes.php:490,
"Pay now","Pague agora",,includes/ec-shortcodes.php:583,
"Reset to:","Redefinir para:",,"includes/ec-settings.php:113 includes/ec-settings.php:168
includes/ec-settings.php:223 includes/ec-settings.php:291
includes/ec-settings.php:378",
"Reset to default","Restaurar ao padrão",,"includes/ec-settings.php:114 includes/ec-settings.php:169
includes/ec-settings.php:224 includes/ec-settings.php:292
includes/ec-settings.php:379",
"Hard Crop?","Cultivo difícil?",,includes/ec-settings.php:419,
"Select a page&hellip;","Selecione uma página & hellip;",,includes/ec-settings.php:444,
"Choose a country&hellip;","Escolha um country&hellip;",,includes/ec-settings.php:472,
"Choose countries&hellip;","Escolha countries&hellip;",,includes/ec-settings.php:501,
"Select all","Selecionar tudo",,includes/ec-settings.php:507,
"Select none","Selecione nenhum",,includes/ec-settings.php:507,
"Theme IDs cannot exceed 20 characters in length","IDs de tema não podem exceder 20 caracteres de comprimento",,"includes/ec-functions.php:44 includes/ec-functions.php:45",
Back,Voltar,,pages/ec-admin-page.php:64,
"Choose which email theme to preview. Then click 'Use' to use it for all your future WooCommerce emails.","Escolha qual o tema de e-mail para visualizar. Em seguida, clique em 'Usar' para usá-lo para todos os seus futuros e-mails do WooCommerce.",,pages/ec-admin-page.php:83,
"Email Theme to show","Tema de e-mail para mostrar",,pages/ec-admin-page.php:84,
"WooCommerce (original, not editable)","WooCommerce (original, não editável)",,pages/ec-admin-page.php:91,
"(WooCommerce update required)","(É necessária uma atualização do WooCommerce)",,pages/ec-admin-page.php:102,
"Don't Use","Não usar",,pages/ec-admin-page.php:112,
Use,Usar,,pages/ec-admin-page.php:113,
"Choose which email type to preview.","Escolha um tipo de e-mail para visualizar.",,pages/ec-admin-page.php:122,
"Email Type to show","Tipo de email para mostrar",,pages/ec-admin-page.php:123,
"Select one...","Selecione um...",,"pages/ec-admin-page.php:130 pages/ec-admin-page.php:183",
"Customize the email you're showing in the preview. Then click 'Save & Publish' to save your customizations.","Personalize o e-mail que você está mostrando na visualização. Em seguida, clique em 'Salvar e Publicar' para salvar suas personalizações.",,pages/ec-admin-page.php:150,
Customize,Customizar,,"pages/ec-admin-page.php:151 pages/ec-admin-page.php:157",
"Get Customized Themes","Obtenha Temas Personalizados",,pages/ec-admin-page.php:162,
"Choose which order to use to populate the email preview.","Escolha qual perdido usar para preencher a visualização do email.",,pages/ec-admin-page.php:170,
"Order to show","Mostrar pedido",,pages/ec-admin-page.php:171,
"There are no orders to preview...","Não há pedidos para visualizar ...",,pages/ec-admin-page.php:190,
"...Showing the most recent %u orders","... Mostrando os pedidos %u mais recentes",,pages/ec-admin-page.php:210,
"More advanced debugging options.","Opções de depuração mais avançadas.",,pages/ec-admin-page.php:220,
Debugging,Depuração,,pages/ec-admin-page.php:221,
"Show Header & Template Info","Mostrar cabeçalho e informações de modelo",,pages/ec-admin-page.php:238,
"Show Error Notices","Mostrar avisos de erro",,pages/ec-admin-page.php:252,
"Send a test email to any address. Use a comma separated list to send to multiple addresses","Envie um e-mail de teste para qualquer endereço. Use uma lista separada por vírgulas para enviar para vários endereços",,pages/ec-admin-page.php:264,
"Send a Test","Enviar um teste",,pages/ec-admin-page.php:265,
"Copy & paste any of these [shortcodes] to use dynamic text in your text.","Copie e cole qualquer um destes [shortcodes] para usar texto dinâmico em seu texto.",,pages/ec-admin-page.php:375,
"Allowed Shortcodes:","Shortcodes permitidos:",,pages/ec-admin-page.php:376,
New,Novo,,pages/ec-admin-page.php:398,
"For more shortcode documentation <a href=""%s"" target=""_blank"">click here</a>","Para mais documentação sobre shortcode %s <a href="" %s "" target=""_blank""> clique aqui </a>",,pages/ec-admin-page.php:400,
"Cheatin&#8217; uh?","Cheatin&#8217; uh?",,pages/ec-preview-page.php:3,
"You'll need at least one order to use Email Customizer properly","Você precisará de pelo menos um pedido para usar o Customizador de email corretamente",,pages/ec-preview-page.php:73,
"You'll need at least one order to preview all the email types correctly","Você precisará de pelo menos um pedido para visualizar todos os tipos de e-mail corretamente",,pages/ec-preview-page.php:74,
"Simply follow your store's checkout process to create at least one order, then return here to preview all the possible email types.","Basta seguir o processo de checkout da sua loja para criar pelo menos um pedido e, em seguida, volte aqui para visualizar todos os possíveis tipos de e-mail.",,pages/ec-preview-page.php:76,
"You need to update WooCommerce in order to use this theme","Você precisa atualizar o WooCommerce para usar este tema",,pages/ec-preview-page.php:144,
"The theme you selected requires the latest version of WooCommerce - please first update, then return here and select it.","O tema que você selecionou requer a versão mais recente do WooCommerce - por favor, primeiro atualização, depois volte e selecione.",,pages/ec-preview-page.php:146,
"We've not seen this email type from this third party plugin before","Este tipo de e-mail deste plugin de terceiros não foi testado com o email customizer",,pages/ec-preview-page.php:160,
"Don't worry, the email will send fine, you just can't preview it. Customizing it - here are your options. Option 1: choose to show one of the other known emails and customize it (colors, sizes, etc) - the styling will be inherited if they have included the header and footer in the normal way. Option 2: choose to dismiss this message and see if it just works. If you see a blank screen then use option 1.","Não se preocupe, o e-mail será enviado normalmente, você simplesmente não pode visualizá-lo ou personalizá-lo - aqui estão suas opções. Opção 1: escolha mostrar um dos outros e-mails conhecidos e personalize-o (cores, tamanhos, etc.) - o estilo será herdado se eles incluírem o cabeçalho e o rodapé da maneira normal. Opção 2: escolha ignorar esta mensagem e ver se ela apenas funciona. Se você visualizar uma tela em branco, use a opção 1.",,pages/ec-preview-page.php:162,
Dismiss,Dispensar,,pages/ec-preview-page.php:163,
"Header Info","Informações de cabeçalho",,pages/ec-preview-page.php:180,
"The header infomration that will be sent with the current email. This can be changed in WooCommerce Settings > Emails, or simply click Edit next to the relevant field to be taken there.","A informação de cabeçalho que será enviada com o e-mail atual. Isso pode ser alterado nas Configurações do WooCommerce> E-mails, ou simplesmente clique em Editar ao lado do campo relacionado e você será redirecionado.",,pages/ec-preview-page.php:181,
Subject,Assunto,,pages/ec-preview-page.php:187,
Edit,Editar,,"pages/ec-preview-page.php:192 pages/ec-preview-page.php:203
pages/ec-preview-page.php:214",
"From Email","Do email",,pages/ec-preview-page.php:198,
"From Name","De nome",,pages/ec-preview-page.php:209,
"To Email","Para email",,pages/ec-preview-page.php:220,
"Templates In This Email","Modelos neste e-mail",,pages/ec-preview-page.php:229,
"Email Customizer Default Templates","Modelos padrão do Customizer de email",,pages/ec-preview-page.php:258,
"Non Email Customizer Templates","Modelos de customizadores de email não",,pages/ec-preview-page.php:262,
"Overridden Templates","Modelos substituídos",,pages/ec-preview-page.php:266,
"<strong>Email Customizer Default Templates</strong> are those found inside our plugin folder. We update these templates when to incorporate any changes that WooCommerce, or the other plugins we support e.g Subscription and Bookings, make to theirs. If you want to customize these templates then please don't edit them here (in our plugin folder) as your changes will be lost next time you update. Rather use the suggested Template Overriding method explained below which will maintain your changes after updating.<br />
<strong>Non Email Customizer Templates</strong> are templates being pulled in from 3rd party plugins that we have chosen not to, or don't yet, support. Our emails simply include the code from these templates at the time the email is sent. Usually our header and footer are used and their template is used for the main content or body. These templates can be customized in the same way using the template override method explained below.<br/>
<strong>Overridden Templates</strong> are templates that you have customized and overridden using the method described in our <a href=""https://www.cxthemes.com/documentation/email-customizer/customize-emails-by-overriding-templates-via-your-theme/"" target=""_blank"">Customize Emails by Overriding Templates via your Theme documentation</a>. You will be responsible for copying any future code changes we make to our templates over to these custom overridden templates.","<strong> Modelos padrão do Customizer de email </ strong> são aqueles encontrados dentro da nossa pasta de plugins. Atualizamos esses modelos quando incorporar quaisquer alterações que o WooCommerce, ou os outros plugins que oferecemos, por exemplo, Assinatura e Reservas, façam o deles. Se você quiser personalizar esses modelos, então não os edite aqui (em nossa pasta de plugins), pois suas alterações serão perdidas na próxima vez que você atualizar. Em vez disso, use o método de substituição de modelo sugerido abaixo, que irá manter suas alterações após a atualização. <br /> \\ n <strong> Modelos de customizadores não-e-mail </ strong> são modelos sendo removidos dos plugins de terceiros que escolhemos não, ou ainda não, suporte. Nossos e-mails simplesmente incluem o código desses modelos no momento em que o e-mail é enviado. Normalmente, nosso cabeçalho e rodapé são usados ​​e seu modelo é usado para o conteúdo principal ou corpo. Esses modelos podem ser personalizados da mesma maneira usando o método de substituição do modelo explicado abaixo. <br/> \\ n <strong> Modelos substituídos </ strong> são modelos que você personalizou e substituiu usando o método descrito em <a href = \\ ""https: //www.cxthemes.com/documentation/email-customizer/customize-emails-by-overriding-templates-via-your-theme/ "" target = \\ ""_ blank ""> Personalizar e-mails por substituir modelos via sua documentação do tema </a>. Você será responsável por copiar as futuras alterações de código que fazemos aos nossos modelos para esses modelos substituídos personalizados.",,pages/ec-preview-page.php:271,
"Please register on the Plugins page to get this update","Registre-se na página Plugins para obter esta atualização",,includes/updates/cxthemes-plugin-update-checker.php:95,
"To get automatic updates you need to input your valid purchase code, for our product, from Envato. The purchase code looks like: <code>f128a5a1-5a1c-4e4e-82ec-a12b3c4d5e6f</code> and should have been emailed to you when you bought our plugin, or you can retrieve it by logging into <a href=""http://codecanyon.net/"" target=""_blank"">CodeCanyon.net</a> go to Downloads > <em>Plugin Name</em> > Download > License certificate & purchase code.","Para obter atualizações automáticas, você precisa inserir seu código de compra válido, para o nosso produto, da Envato. O código da compra parece: <code> f128a5a1-5a1c-4e4e-82ec-a12b3c4d5e6f </ code> e deve ter sido enviado por e-mail quando você comprou nosso plugin ou pode recuperá-lo entrando em <a href = \\ ""http : //codecanyon.net/ \\ ""target = "" _ blank \\ ""> CodeCanyon.net </a> vá para Downloads> <em> Nome do Plugin </ em>> Download> Certificado de licença e código de compra.",,includes/updates/cxthemes-plugin-update-checker.php:197,
"That is not a valid purchase code format. It should look like: <code>f128a5a1-5a1c-4e4e-82ec-a12b3c4d5e6f</code>.","Esse não é um formato de código de compra válido. Deve se parecer com isso: <code>f128a5a1-5a1c-4e4e-82ec-a12b3c4d5e6f</code>.",,includes/updates/cxthemes-plugin-update-checker.php:206,
"You are unable to connect to our update server at this time. Please check your connection, or try again later.","Não é possível se conectar ao nosso servidor de atualização no momento. Verifique sua conexão ou tente novamente mais tarde.",,includes/updates/cxthemes-plugin-update-checker.php:212,
"It doesn't seem like you have purchased our plugin yet. Please <a href='#'>purchase it from CodeCanyon</a> to get access to support and updates.","Não parece que você já tenha comprado nosso plugin ainda. <a href='#'> compre-o no CodeCanyon </a> para obter acesso a suporte e atualizações.",,includes/updates/cxthemes-plugin-update-checker.php:218,
"Thanks. You're registered and can now receive updates.","Obrigado. Você está registrado e agora pode receber atualizações.",,includes/updates/cxthemes-plugin-update-checker.php:224,
"Purchase Code","Código de compra",,includes/updates/cxthemes-plugin-update-checker.php:234,
Save,Salvar,,includes/updates/cxthemes-plugin-update-checker.php:236,
"Register for Updates","Registre-se para atualizações",,includes/updates/cxthemes-plugin-update-checker.php:265,
"<em><a href=""%s"">Register here</a> to get this update</em>","<em> <a href="" %s ""> Registre-se aqui </a> para obter esta atualização </ em>",,includes/updates/cxthemes-plugin-update-checker.php:265,
"Edit registration","Editar registro",,includes/updates/cxthemes-plugin-update-checker.php:272,
"Product Image","Imagem do produto",,"templates-wc2.5-wc2.9/emails/deluxe/email-order-items.php:28
templates-wc2.5-wc2.9/emails/supreme/email-order-items.php:28
templates-wc2.5-wc2.9/emails/vanilla/email-order-items.php:28",
"If admin sets auto generated passwords","Se admin define senhas geradas automaticamente",,"templates-wc2.5-wc2.9/emails/deluxe/customer-new-account.php:25
templates-wc2.5-wc2.9/emails/supreme/customer-new-account.php:25
templates-wc2.5-wc2.9/emails/vanilla/customer-new-account.php:26
templates/emails/deluxe/customer-new-account.php:25
templates/emails/supreme/customer-new-account.php:25
templates/emails/vanilla/customer-new-account.php:25",
"Billing address","Endereço de cobrança",,"templates-wc2.5-wc2.9/emails/deluxe/email-addresses.php:13
templates-wc2.5-wc2.9/emails/supreme/email-addresses.php:13
templates/emails/deluxe/email-addresses.php:13
templates/emails/supreme/email-addresses.php:13",
"Shipping address","Endereço de entrega",,"templates-wc2.5-wc2.9/emails/deluxe/email-addresses.php:18
templates-wc2.5-wc2.9/emails/supreme/email-addresses.php:18
templates/emails/deluxe/email-addresses.php:18
templates/emails/supreme/email-addresses.php:18",
"Payment Pending","Pagamento pendente",,"templates-wc2.5-wc2.9/emails/deluxe/customer-invoice.php:25
templates-wc2.5-wc2.9/emails/supreme/customer-invoice.php:25
templates-wc2.5-wc2.9/emails/vanilla/customer-invoice.php:25
templates/emails/deluxe/customer-invoice.php:25
templates/emails/supreme/customer-invoice.php:25
templates/emails/vanilla/customer-invoice.php:25",
"Payment Complete","Pagamento concluído",,"templates-wc2.5-wc2.9/emails/deluxe/customer-invoice.php:41
templates-wc2.5-wc2.9/emails/supreme/customer-invoice.php:41
templates-wc2.5-wc2.9/emails/vanilla/customer-invoice.php:41
templates/emails/deluxe/customer-invoice.php:41
templates/emails/supreme/customer-invoice.php:41
templates/emails/vanilla/customer-invoice.php:41",
"Customer details","Detalhes do cliente",,"templates-wc2.5-wc2.9/emails/deluxe/email-customer-details.php:11
templates-wc2.5-wc2.9/emails/supreme/email-customer-details.php:11
templates/emails/deluxe/email-customer-details.php:11
templates/emails/supreme/email-customer-details.php:11",
"Order Details","Detalhes do pedido",,"templates-wc2.5-wc2.9/emails/deluxe/email-order-details.php:17
templates-wc2.5-wc2.9/emails/supreme/email-order-details.php:17
templates/emails/deluxe/email-order-details.php:17
templates/emails/supreme/email-order-details.php:17",
"Order Number:","Número do pedido:",,"templates-wc2.5-wc2.9/emails/deluxe/email-order-details.php:23
templates-wc2.5-wc2.9/emails/supreme/email-order-details.php:23
templates-wc2.5-wc2.9/emails/vanilla/email-order-details.php:24
templates/emails/deluxe/email-order-details.php:23
templates/emails/supreme/email-order-details.php:23
templates/emails/vanilla/email-order-details.php:24",
"Order Date:","Data do pedido:",,"templates-wc2.5-wc2.9/emails/deluxe/email-order-details.php:33
templates-wc2.5-wc2.9/emails/supreme/email-order-details.php:33
templates-wc2.5-wc2.9/emails/vanilla/email-order-details.php:33
templates/emails/deluxe/email-order-details.php:33
templates/emails/supreme/email-order-details.php:33
templates/emails/vanilla/email-order-details.php:33",
Product,Produto,,"templates-wc2.5-wc2.9/emails/deluxe/email-order-details.php:43
templates-wc2.5-wc2.9/emails/supreme/email-order-details.php:43
templates-wc2.5-wc2.9/emails/vanilla/email-order-details.php:45
templates/emails/deluxe/email-order-details.php:43
templates/emails/supreme/email-order-details.php:43
templates/emails/vanilla/email-order-details.php:45",
Quantity,Quantidade,,"templates-wc2.5-wc2.9/emails/deluxe/email-order-details.php:44
templates-wc2.5-wc2.9/emails/supreme/email-order-details.php:44
templates-wc2.5-wc2.9/emails/vanilla/email-order-details.php:46
templates/emails/deluxe/email-order-details.php:44
templates/emails/supreme/email-order-details.php:44
templates/emails/vanilla/email-order-details.php:46",
Price,Valor,,"templates-wc2.5-wc2.9/emails/deluxe/email-order-details.php:45
templates-wc2.5-wc2.9/emails/supreme/email-order-details.php:45
templates-wc2.5-wc2.9/emails/vanilla/email-order-details.php:47
templates/emails/deluxe/email-order-details.php:45
templates/emails/supreme/email-order-details.php:45
templates/emails/vanilla/email-order-details.php:47",
"Partial Refund","Reembolso parcial",,"templates-wc2.5-wc2.9/emails/deluxe/customer-refunded-order.php:25
templates-wc2.5-wc2.9/emails/supreme/customer-refunded-order.php:25
templates-wc2.5-wc2.9/emails/vanilla/customer-refunded-order.php:26
templates/emails/deluxe/customer-refunded-order.php:25
templates/emails/supreme/customer-refunded-order.php:25
templates/emails/vanilla/customer-refunded-order.php:25",
Refund,Reembolso,,"templates-wc2.5-wc2.9/emails/deluxe/customer-refunded-order.php:41
templates-wc2.5-wc2.9/emails/supreme/customer-refunded-order.php:41
templates-wc2.5-wc2.9/emails/vanilla/customer-refunded-order.php:42
templates/emails/deluxe/customer-refunded-order.php:41
templates/emails/supreme/customer-refunded-order.php:41
templates/emails/vanilla/customer-refunded-order.php:41",
"Billing Address","Endereço de cobrança",,"templates-wc2.5-wc2.9/emails/vanilla/email-addresses.php:13
templates/emails/vanilla/email-addresses.php:13",
"Shipping Address","Endereço de entrega",,"templates-wc2.5-wc2.9/emails/vanilla/email-addresses.php:18
templates/emails/vanilla/email-addresses.php:18",
"Customer Details","Detalhes do cliente",,"templates-wc2.5-wc2.9/emails/vanilla/email-customer-details.php:11
templates/emails/vanilla/email-customer-details.php:11",
"Product image","Imagem do produto",,"templates/emails/deluxe/email-order-items.php:27
templates/emails/supreme/email-order-items.php:27
templates/emails/vanilla/email-order-items.php:27",
"WooCommerce Email Customizer","Personalizador de email do WooCommerce",,,"Name of the plugin"
"WooCommerce Email Customizer plugin allows you to fully customize the styling, colors, logo and text in the emails sent from your WooCommerce store.","O plug-in WooCommerce Email Customizer permite que você personalize completamente o estilo, as cores, o logotipo e o texto nos emails enviados pela sua loja do WooCommerce.",,,"Description of the plugin"
cxThemes,cxThemes,,,"URI of the plugin
Author URI of the plugin
Author of the plugin"
Text,Texto,,"ec-theme-vanilla.php:121 ec-theme-deluxe.php:78 ec-theme-supreme.php:78
ec-theme-woocommerce.php:60",
Appearance,Aparência,,"ec-theme-vanilla.php:127 ec-theme-deluxe.php:84 ec-theme-supreme.php:84
ec-theme-woocommerce.php:66",
Header,Cabeçalho,,"ec-theme-vanilla.php:133 ec-theme-deluxe.php:90 ec-theme-supreme.php:90
ec-theme-woocommerce.php:72",
Links,Links,,"ec-theme-vanilla.php:139 ec-theme-deluxe.php:96 ec-theme-supreme.php:96",
"Section Headings","Títulos da seção",,"ec-theme-vanilla.php:145 ec-theme-deluxe.php:102 ec-theme-supreme.php:102",
"Order Items Table","Tabela de itens dos pedidos",,"ec-theme-vanilla.php:151 ec-theme-deluxe.php:108 ec-theme-supreme.php:108",
Footer,Rodapé,,"ec-theme-vanilla.php:157 ec-theme-deluxe.php:114 ec-theme-supreme.php:114
ec-theme-woocommerce.php:78",
"Custom CSS","CSS customizado",,"ec-theme-vanilla.php:163 ec-theme-deluxe.php:120 ec-theme-supreme.php:120",
Heading,Título,,"ec-theme-vanilla.php:192 ec-theme-vanilla.php:218 ec-theme-vanilla.php:244
ec-theme-vanilla.php:270 ec-theme-vanilla.php:295 ec-theme-vanilla.php:321
ec-theme-vanilla.php:445 ec-theme-vanilla.php:471 ec-theme-vanilla.php:497
ec-theme-deluxe.php:149 ec-theme-deluxe.php:175 ec-theme-deluxe.php:201
ec-theme-deluxe.php:227 ec-theme-deluxe.php:252 ec-theme-deluxe.php:278
ec-theme-deluxe.php:402 ec-theme-deluxe.php:428 ec-theme-deluxe.php:454
ec-theme-supreme.php:149 ec-theme-supreme.php:175 ec-theme-supreme.php:201
ec-theme-supreme.php:227 ec-theme-supreme.php:252 ec-theme-supreme.php:278
ec-theme-supreme.php:402 ec-theme-supreme.php:428 ec-theme-supreme.php:454
ec-theme-woocommerce.php:107 ec-theme-woocommerce.php:132
ec-theme-woocommerce.php:157 ec-theme-woocommerce.php:182
ec-theme-woocommerce.php:207 ec-theme-woocommerce.php:232
ec-theme-woocommerce.php:351 ec-theme-woocommerce.php:376
ec-theme-woocommerce.php:401",
"New order received!","Novo pedido recebido!",,"ec-theme-vanilla.php:195 ec-theme-deluxe.php:152 ec-theme-supreme.php:152",
"Main Text","Texto principal",,"ec-theme-vanilla.php:203 ec-theme-vanilla.php:229 ec-theme-vanilla.php:255
ec-theme-vanilla.php:280 ec-theme-vanilla.php:306 ec-theme-vanilla.php:332
ec-theme-vanilla.php:358 ec-theme-vanilla.php:381 ec-theme-vanilla.php:407
ec-theme-vanilla.php:430 ec-theme-vanilla.php:456 ec-theme-vanilla.php:482
ec-theme-vanilla.php:508 ec-theme-deluxe.php:160 ec-theme-deluxe.php:186
ec-theme-deluxe.php:212 ec-theme-deluxe.php:237 ec-theme-deluxe.php:263
ec-theme-deluxe.php:289 ec-theme-deluxe.php:315 ec-theme-deluxe.php:338
ec-theme-deluxe.php:364 ec-theme-deluxe.php:387 ec-theme-deluxe.php:413
ec-theme-deluxe.php:439 ec-theme-deluxe.php:465 ec-theme-supreme.php:160
ec-theme-supreme.php:186 ec-theme-supreme.php:212 ec-theme-supreme.php:237
ec-theme-supreme.php:263 ec-theme-supreme.php:289 ec-theme-supreme.php:315
ec-theme-supreme.php:338 ec-theme-supreme.php:364 ec-theme-supreme.php:387
ec-theme-supreme.php:413 ec-theme-supreme.php:439 ec-theme-supreme.php:465
ec-theme-woocommerce.php:117 ec-theme-woocommerce.php:142
ec-theme-woocommerce.php:167 ec-theme-woocommerce.php:192
ec-theme-woocommerce.php:217 ec-theme-woocommerce.php:242
ec-theme-woocommerce.php:267 ec-theme-woocommerce.php:289
ec-theme-woocommerce.php:314 ec-theme-woocommerce.php:336
ec-theme-woocommerce.php:361 ec-theme-woocommerce.php:386
ec-theme-woocommerce.php:411",
"You have received an order from [ec_firstname] [ec_lastname].

Their order is as follows: [ec_order]","Você recebeu um pedido de [ec_firstname] [ec_lastname]. 

Segue o pedido: [ec_order]",,"ec-theme-vanilla.php:206 ec-theme-deluxe.php:163 ec-theme-supreme.php:163",
"Cancelled order","Pedido cancelado",,"ec-theme-vanilla.php:221 ec-theme-deluxe.php:178 ec-theme-supreme.php:178
ec-theme-woocommerce.php:135",
"The order [ec_order] for [ec_firstname] [ec_lastname] has been cancelled.","O pedido [ec_order] para [ec_firstname] [ec_lastname] foi cancelado.",,"ec-theme-vanilla.php:232 ec-theme-deluxe.php:189 ec-theme-supreme.php:189
ec-theme-woocommerce.php:145",
"Failed order","Pedido cancelado",,"ec-theme-vanilla.php:247 ec-theme-deluxe.php:204 ec-theme-supreme.php:204
ec-theme-woocommerce.php:160",
