"Payment for order [ec_order] from [ec_firstname] [ec_lastname] has failed.","Platba za objednávku [ec_order] z [ec_firstname] [ec_lastname] zlyhala.",,"ec-theme-vanilla.php:258 ec-theme-deluxe.php:215 ec-theme-supreme.php:215
ec-theme-woocommerce.php:170",
"Thank you for your order","Ďakujeme vám za objednávku",,"ec-theme-vanilla.php:273 ec-theme-deluxe.php:230 ec-theme-supreme.php:230
ec-theme-woocommerce.php:185 ec-theme-woocommerce.php:210",
"Your order is on-hold until we confirm payment has been received. Your order details are shown below for your reference:","Vaša objednávka je pozastavená až do potvrdenia prijatia platby. Podrobnosti o objednávke sú uvedené nižšie ako referencia:",,"ec-theme-vanilla.php:283 ec-theme-deluxe.php:240 ec-theme-supreme.php:240
ec-theme-woocommerce.php:195",
"Your order is being processed","Vaša objednávka sa spracúva",,"ec-theme-vanilla.php:298 ec-theme-deluxe.php:255 ec-theme-supreme.php:255",
"Your order [ec_order] has been received and is now being processed.","Vaša objednávka [ec_order] bola prijatá a práve prebieha spracovanie.",,"ec-theme-vanilla.php:309 ec-theme-deluxe.php:266 ec-theme-supreme.php:266",
"Your order is complete","Vaša objednávka je dokončená",,"ec-theme-vanilla.php:324 ec-theme-deluxe.php:281 ec-theme-supreme.php:281
ec-theme-woocommerce.php:235",
"Your order [ec_order] at [ec_site_name] has been completed.

We're just letting you know. No further action is required.","Vaša objednávka [ec_order] na adrese [ec_site_name] bola dokončená.

Len vás oznamujeme. Nie sú potrebné žiadne ďalšie opatrenia.",,"ec-theme-vanilla.php:335 ec-theme-deluxe.php:292 ec-theme-supreme.php:292",
"Heading (full)","Nadpis (plný)",,"ec-theme-vanilla.php:347 ec-theme-deluxe.php:304 ec-theme-supreme.php:304
ec-theme-woocommerce.php:257",
"Your order has been refunded","Vaša objednávka bola vrátená",,"ec-theme-vanilla.php:350 ec-theme-deluxe.php:307 ec-theme-supreme.php:307",
"Your order [ec_order] has been refunded. Thanks","Vaša objednávka [ec_order] bola vrátená. Vďaka",,"ec-theme-vanilla.php:361 ec-theme-deluxe.php:318 ec-theme-supreme.php:318",
"Heading (partial)","Nadpis (čiastočný)",,"ec-theme-vanilla.php:370 ec-theme-deluxe.php:327 ec-theme-supreme.php:327
ec-theme-woocommerce.php:279",
"You have been partially refunded","Boli ste čiastočne vrátené",,"ec-theme-vanilla.php:373 ec-theme-deluxe.php:330 ec-theme-supreme.php:330
ec-theme-woocommerce.php:282",
"Your order [ec_order] has been partially refunded. Thanks","Vaša objednávka [ec_order] bola čiastočne vrátená. Vďaka",,"ec-theme-vanilla.php:384 ec-theme-deluxe.php:341 ec-theme-supreme.php:341",
"Heading (payment pending)","Nadpis (čaká sa platba)",,"ec-theme-vanilla.php:396 ec-theme-deluxe.php:353 ec-theme-supreme.php:353
ec-theme-woocommerce.php:304",
"Invoice for order #[ec_order show=""number""]","Faktúra pre objednávku # [ec_order show = ""number""]",,"ec-theme-vanilla.php:399 ec-theme-vanilla.php:422",
"Thanks for your order on [ec_site_link].

To pay for this order please use the following link: [ec_pay_link]","Ďakujeme za objednávku na adrese [ec_site_link].

Ak chcete zaplatiť za túto objednávku, použite nasledujúci odkaz: [ec_pay_link]",,"ec-theme-vanilla.php:410 ec-theme-deluxe.php:367 ec-theme-supreme.php:367",
"Heading (payment complete)","Nadpis (platba dokončená)",,"ec-theme-vanilla.php:419 ec-theme-deluxe.php:376 ec-theme-supreme.php:376
ec-theme-woocommerce.php:326",
[ec_customer_note],[Ec_customer_note],,"ec-theme-vanilla.php:459 ec-theme-deluxe.php:416 ec-theme-supreme.php:416",
"Password Reset","Resetovanie hesla",,"ec-theme-vanilla.php:474 ec-theme-deluxe.php:431 ec-theme-supreme.php:431",
"Someone requested that the password be reset for the following account:
[ec_user_login]

If this was a mistake, just ignore this email and nothing will happen.

To reset your password, visit the following address:
[ec_reset_password_link]","Niekto požadoval obnovenie hesla pre nasledujúci účet:
[Ec_user_login]

Ak to bola chyba, ignorujte tento e-mail a nič sa nestane.

Ak chcete obnoviť heslo, navštívte nasledujúcu adresu:
[Ec_reset_password_link]",,"ec-theme-vanilla.php:485 ec-theme-deluxe.php:442 ec-theme-supreme.php:442",
"Your account has been created","Váš účet bol vytvorený",,"ec-theme-vanilla.php:500 ec-theme-deluxe.php:457 ec-theme-supreme.php:457",
"Thanks for creating an account on [ec_site_name].
Your username is: [ec_user_login].

You can access your account area to view your orders and change your password here: [ec_account_link]","Ďakujeme za vytvorenie účtu na adrese [ec_site_name].
Vaše používateľské meno je: [ec_user_login].

Ak chcete zobraziť svoje objednávky a zmeniť svoje heslo, môžete pristupovať do svojej oblasti účtu: [ec_account_link]",,"ec-theme-vanilla.php:511 ec-theme-deluxe.php:468 ec-theme-supreme.php:468",
"Password Regenerated Text","Regenerovaný text heslom",,"ec-theme-vanilla.php:518 ec-theme-deluxe.php:475 ec-theme-supreme.php:475
ec-theme-woocommerce.php:421",
"Your password has been automatically generated: [ec_user_password]","Vaše heslo bolo automaticky generované: [ec_user_password]",,"ec-theme-vanilla.php:521 ec-theme-deluxe.php:478 ec-theme-supreme.php:478
ec-theme-woocommerce.php:424",
"Email Width","Šírka e-mailu",,"ec-theme-vanilla.php:534 ec-theme-deluxe.php:491 ec-theme-supreme.php:491",
"Background Color","Farba pozadia",,"ec-theme-vanilla.php:546 ec-theme-deluxe.php:551 ec-theme-deluxe.php:999
ec-theme-supreme.php:551 ec-theme-supreme.php:999",
"Text Color","Farba textu",,"ec-theme-vanilla.php:558 ec-theme-deluxe.php:563 ec-theme-supreme.php:563",
"Heading Color","Farba nadpisu",,ec-theme-vanilla.php:573,
"Text Accent Color","Farba textu zvýraznená",,"ec-theme-vanilla.php:585 ec-theme-deluxe.php:575 ec-theme-supreme.php:575",
"Main Heading size","Veľkosť hlavnej položky",,"ec-theme-vanilla.php:597 ec-theme-deluxe.php:587 ec-theme-supreme.php:587",
"Product Images","Obrázky produktov",,"ec-theme-vanilla.php:609 ec-theme-deluxe.php:1011 ec-theme-supreme.php:1011
ec-theme-woocommerce.php:485",
Logo,logo,,"ec-theme-vanilla.php:624 ec-theme-deluxe.php:630 ec-theme-supreme.php:630
ec-theme-woocommerce.php:502",
"Enter a URL or upload an image","Zadajte adresu URL alebo odovzdajte obrázok",,"ec-theme-vanilla.php:628 ec-theme-vanilla.php:667 ec-theme-vanilla.php:705
ec-theme-vanilla.php:743 ec-theme-vanilla.php:781 ec-theme-vanilla.php:819
ec-theme-vanilla.php:857 ec-theme-vanilla.php:872 ec-theme-deluxe.php:634
ec-theme-deluxe.php:671 ec-theme-deluxe.php:707 ec-theme-deluxe.php:743
ec-theme-deluxe.php:779 ec-theme-deluxe.php:815 ec-theme-deluxe.php:851
ec-theme-deluxe.php:1035 ec-theme-supreme.php:634 ec-theme-supreme.php:671
ec-theme-supreme.php:707 ec-theme-supreme.php:743 ec-theme-supreme.php:779
ec-theme-supreme.php:815 ec-theme-supreme.php:851 ec-theme-supreme.php:1035
ec-theme-woocommerce.php:506",
"Link 1 Text","Link 1 Text",,"ec-theme-vanilla.php:639 ec-theme-deluxe.php:645 ec-theme-supreme.php:645",
"Link 1 URL","Link 1 URL",,"ec-theme-vanilla.php:651 ec-theme-deluxe.php:656 ec-theme-supreme.php:656",
"Link 1 Image","Obrázok 1 odkazu",,"ec-theme-vanilla.php:663 ec-theme-deluxe.php:667 ec-theme-supreme.php:667",
"Link 2 Text","Link 2 Text",,"ec-theme-vanilla.php:677 ec-theme-deluxe.php:681 ec-theme-supreme.php:681",
"Link 2 URL","Link 2 URL",,"ec-theme-vanilla.php:689 ec-theme-deluxe.php:692 ec-theme-supreme.php:692",
"Link 2 Image","Link 2 Obrázok",,"ec-theme-vanilla.php:701 ec-theme-deluxe.php:703 ec-theme-supreme.php:703",
"Link 3 Text","Link 3 Text",,"ec-theme-vanilla.php:715 ec-theme-deluxe.php:717 ec-theme-supreme.php:717",
"Link 3 URL","Link 3 URL",,"ec-theme-vanilla.php:727 ec-theme-deluxe.php:728 ec-theme-supreme.php:728",
"Link 3 Image","Obrázok 3 odkazu",,"ec-theme-vanilla.php:739 ec-theme-deluxe.php:739 ec-theme-supreme.php:739",
"Link 4 Text","Link 4 Text",,"ec-theme-vanilla.php:753 ec-theme-deluxe.php:753 ec-theme-supreme.php:753",
"Link 4 URL","Link 4 URL",,"ec-theme-vanilla.php:765 ec-theme-deluxe.php:764 ec-theme-supreme.php:764",
"Link 4 Image","Obrázok 4 odkazu",,"ec-theme-vanilla.php:777 ec-theme-deluxe.php:775 ec-theme-supreme.php:775",
"Link 5 Text","Link 5 Text",,"ec-theme-vanilla.php:791 ec-theme-deluxe.php:789 ec-theme-supreme.php:789",
"Link 5 URL","Link 5 URL",,"ec-theme-vanilla.php:803 ec-theme-deluxe.php:800 ec-theme-supreme.php:800",
"Link 5 Image","Link 5 Obrázok",,"ec-theme-vanilla.php:815 ec-theme-deluxe.php:811 ec-theme-supreme.php:811",
"Link 6 Text","Link 6 Text",,"ec-theme-vanilla.php:829 ec-theme-deluxe.php:825 ec-theme-supreme.php:825",
"Link 6 URL","Link 6 URL",,"ec-theme-vanilla.php:841 ec-theme-deluxe.php:836 ec-theme-supreme.php:836",
"Link 6 Image","Link 6 Obrázok",,"ec-theme-vanilla.php:853 ec-theme-deluxe.php:847 ec-theme-supreme.php:847",
"Footer Image","Obrázok päty",,ec-theme-vanilla.php:868,
"Footer Text","Text päty",,"ec-theme-vanilla.php:879 ec-theme-deluxe.php:1042 ec-theme-supreme.php:1042
ec-theme-woocommerce.php:513",
"You must be logged in","Musíte byť prihlásený",,"ec-email-control.php:387 ec-email-control.php:424 ec-email-control.php:480
ec-email-control.php:545",
"Email Customizer","Email Customizer",,"ec-email-control.php:581 ec-email-control.php:582 pages/ec-admin-page.php:73",
"Preview and test emails as they will appear in mail clients when received.","Náhľad a testovanie e-mailov, ktoré sa objavia v poštových klientoch po ich prijatí.",,"ec-email-control.php:635 ec-email-control.php:644",
"%sEmail Customizer for WooCommerce is inactive due to conflicts%sOur plugin will conflict with the following plugins and cannot be used while they are active: %s","Používateľ% sEmail pre WooCommerce je neaktívny kvôli konfliktom% sPríčinný doplnok bude v rozpore s nasledujúcimi doplnkami a nemôže byť použitý, kým sú aktívne:% s",,ec-email-control.php:1274,
"%sEmail Customizer for WooCommerce needs WooCommerce%s %sWooCommerce%s must be active for Email Customizer to work. Please install & activate WooCommerce.","% sEmail prispôsobiteľný pre WooCommerce potrebuje WooCommerce% s% sWooCommerce% s musí byť aktívny pre Email Customizer pracovať. Nainštalujte a aktivujte WooCommerce.",,ec-email-control.php:1312,
"%sEmail Customizer for WooCommerce is inactive%s This version of Email Customizer requires WooCommerce %s or newer. For more information about our WooCommerce version support %sclick here%s.","% sSprávca s e-mailom pre službu WooCommerce je neaktívny% s Táto verzia aplikácie Email Customizer vyžaduje WooCommerce% s alebo novšiu. Pre viac informácií o našej verzii WooCommerce podporte% sclick tu% s.",,ec-email-control.php:1329,
"Invoice for order [ec_order]","Faktúra za objednávku [ec_order]",,"ec-theme-deluxe.php:356 ec-theme-deluxe.php:379 ec-theme-supreme.php:356
ec-theme-supreme.php:379",
"Border Radius","Hraničný polomer",,"ec-theme-deluxe.php:503 ec-theme-deluxe.php:987 ec-theme-supreme.php:503
ec-theme-supreme.php:987",
"Header Color","Farba hlavičky",,"ec-theme-deluxe.php:515 ec-theme-supreme.php:515",
"Page Color","Farba stránky",,"ec-theme-deluxe.php:539 ec-theme-supreme.php:539",
"Text Line Height","Výška textovej čiary",,"ec-theme-deluxe.php:599 ec-theme-supreme.php:599",
"Logo Position","Pozícia loga",,"ec-theme-deluxe.php:614 ec-theme-supreme.php:614",
"Font Size","Veľkosť písma",,"ec-theme-deluxe.php:863 ec-theme-supreme.php:863",
"Line Width","Šírka čiary",,"ec-theme-deluxe.php:875 ec-theme-supreme.php:875",
"Line Color","Farba čiary",,"ec-theme-deluxe.php:887 ec-theme-supreme.php:887",
"Divider Style","Štýl oddeľovača",,"ec-theme-deluxe.php:903 ec-theme-supreme.php:903",
"Divider Color","Farba oddeľovača",,"ec-theme-deluxe.php:921 ec-theme-supreme.php:921",
"Divider Width","Šírka oddeľovača",,"ec-theme-deluxe.php:933 ec-theme-supreme.php:933",
"Table Border Style","Štýl hraničnej tabuľky",,"ec-theme-deluxe.php:945 ec-theme-supreme.php:945",
"Border Color","Farba okrajov",,"ec-theme-deluxe.php:963 ec-theme-supreme.php:963",
"Border Width","Šírka hranice",,"ec-theme-deluxe.php:975 ec-theme-supreme.php:975",
"Footer Left Image","Zápatí ľavého obrázku",,"ec-theme-deluxe.php:1031 ec-theme-supreme.php:1031",
"New customer order","Nová objednávka zákazníka",,ec-theme-woocommerce.php:110,
"You have received an order from [ec_firstname] [ec_lastname]. The order is as follows:","Dostali ste objednávku od [ec_firstname] [ec_lastname]. Poradie je nasledovné:",,ec-theme-woocommerce.php:120,
"Your order has been received and is now being processed. Your order details are shown below for your reference:","Vaša objednávka bola prijatá a práve prebieha spracovanie. Podrobnosti o objednávke sú uvedené nižšie ako referencia:",,ec-theme-woocommerce.php:220,
"Hi there. Your recent order on [ec_site_name] has been completed. Your order details are shown below for your reference:","Ahoj. Vaša nedávna objednávka na [ec_site_name] bola dokončená. Podrobnosti o objednávke sú uvedené nižšie ako referencia:",,ec-theme-woocommerce.php:245,
"Your order has been fully refunded","Vaša objednávka bola vrátená v plnej výške",,ec-theme-woocommerce.php:260,
"Hi there. Your order on [ec_site_name] has been refunded.","Ahoj. Vaša objednávka na [ec_site_name] bola vrátená.",,ec-theme-woocommerce.php:270,
"Hi there. Your order on [ec_site_name] has been partially refunded.","Ahoj. Vaša objednávka na [ec_site_name] bola čiastočne vrátená.",,ec-theme-woocommerce.php:292,
"Order [ec_order show='#,number' hide='container'] details","Objednať [ec_order show = '#, number' hide = 'kontajner'] detaily",,"ec-theme-woocommerce.php:307 ec-theme-woocommerce.php:329",
"An order has been created for you on [ec_site_link]. To pay for this order please use the following link: [ec_pay_link]","Príkaz bol vytvorený pre vás na adrese [ec_site_link]. Ak chcete zaplatiť za túto objednávku, použite nasledujúci odkaz: [ec_pay_link]",,ec-theme-woocommerce.php:317,
"Hello, a note has just been added to your order:

[ec_customer_note]

For your reference, your order details are shown below.

","Ahoj, práve bola pridaná poznámka k objednávke:

[Ec_customer_note]

Pre vašu informáciu sú podrobnosti objednávky uvedené nižšie.

",,ec-theme-woocommerce.php:364,
"Password Reset Instructions","Pokyny na obnovenie hesla",,ec-theme-woocommerce.php:379,
"Someone requested that the password be reset for the following account:

Username: [ec_user_login]

If this was a mistake, just ignore this email and nothing will happen.

To reset your password, visit the following address:
[ec_reset_password_link]","Niekto požadoval obnovenie hesla pre nasledujúci účet:

Používateľské meno: [ec_user_login]

Ak to bola chyba, ignorujte tento e-mail a nič sa nestane.

Ak chcete obnoviť heslo, navštívte nasledujúcu adresu:
[Ec_reset_password_link]",,ec-theme-woocommerce.php:389,
"Welcome to [ec_site_name hide='container']","Vitajte na [ec_site_name hide = 'kontajner']",,ec-theme-woocommerce.php:404,
"Thanks for creating an account on [ec_site_name]. Your username is [ec_user_login].

You can access your account area to view your orders and change your password here: [ec_account_link].","Ďakujeme za vytvorenie účtu na adrese [ec_site_name]. Vaše používateľské meno je [ec_user_login].

Do svojho účtu môžete pristupovať a zobraziť svoje objednávky a zmeniť svoje heslo tu: [ec_account_link].",,ec-theme-woocommerce.php:414,
"Base Color","Základná farba",,ec-theme-woocommerce.php:437,
"Background Colour","Farba pozadia",,ec-theme-woocommerce.php:449,
"Body Background Colour","Farba pozadia tela",,ec-theme-woocommerce.php:461,
"Body Text Colour","Farba tela textu",,ec-theme-woocommerce.php:473,
"[ec_site_name] – Powered by WooCommerce","[ec_site_name] - Powered by WooCommerce",,ec-theme-woocommerce.php:516,
"This shortcode cannot be used in this email","Tento krátky kód nemožno použiť v tomto e-maile",,"includes/ec-shortcodes.php:167 includes/ec-shortcodes.php:265
includes/ec-shortcodes.php:269 includes/ec-shortcodes.php:527
includes/ec-shortcodes.php:574",
"Order shortcodes cannot be used in this email","Objednať krátke kódy nemožno použiť v tomto e-maile",,includes/ec-shortcodes.php:173,
"Click here to reset your password","Kliknutím sem obnovíte svoje heslo",,includes/ec-shortcodes.php:490,
"Pay now","Zaplatiť teraz",,includes/ec-shortcodes.php:583,
"Reset to:","Obnoviť na:",,"includes/ec-settings.php:113 includes/ec-settings.php:168
includes/ec-settings.php:223 includes/ec-settings.php:291
includes/ec-settings.php:378",
"Reset to default","Obnoviť pôvodné nastavenia",,"includes/ec-settings.php:114 includes/ec-settings.php:169
includes/ec-settings.php:224 includes/ec-settings.php:292
includes/ec-settings.php:379",
"Hard Crop?","Tvrdé plodiny?",,includes/ec-settings.php:419,
"Select a page&hellip;","Vyberte stránku & hellip;",,includes/ec-settings.php:444,
"Choose a country&hellip;","Vyberte krajinu & hellip;",,includes/ec-settings.php:472,
"Choose countries&hellip;","Vyberte krajiny & hellip;",,includes/ec-settings.php:501,
"Select all","Vybrať všetko",,includes/ec-settings.php:507,
"Select none","Nevyber nič",,includes/ec-settings.php:507,
"Theme IDs cannot exceed 20 characters in length","Identifikátory tém nemôžu presiahnuť 20 znakov",,"includes/ec-functions.php:44 includes/ec-functions.php:45",
Back,späť,,pages/ec-admin-page.php:64,
"Choose which email theme to preview. Then click 'Use' to use it for all your future WooCommerce emails.","Vyberte, ktorý tému e-mailu chcete zobraziť. Potom kliknite na ""Použiť"", aby ste ju mohli použiť pre všetky vaše budúce e-maily WooCommerce.",,pages/ec-admin-page.php:83,
"Email Theme to show","Téma e-mailu sa zobrazuje",,pages/ec-admin-page.php:84,
"WooCommerce (original, not editable)","WooCommerce (originál, nie je možné editovať)",,pages/ec-admin-page.php:91,
"(WooCommerce update required)","(Vyžaduje sa aktualizácia WooCommerce)",,pages/ec-admin-page.php:102,
"Don't Use",Nepoužívajte,,pages/ec-admin-page.php:112,
Use,použitie,,pages/ec-admin-page.php:113,
"Choose which email type to preview.","Vyberte typ e-mailu, ktorý chcete zobraziť.",,pages/ec-admin-page.php:122,
"Email Type to show","Typ e-mailu, ktorý chcete zobraziť",,pages/ec-admin-page.php:123,
"Select one...","Vyber jeden...",,"pages/ec-admin-page.php:130 pages/ec-admin-page.php:183",
"Customize the email you're showing in the preview. Then click 'Save & Publish' to save your customizations.","Prispôsobte e-mail, ktorý sa zobrazuje v náhľade. Potom uložte prispôsobenia kliknutím na tlačidlo Uložiť a publikovať.",,pages/ec-admin-page.php:150,
Customize,prispôsobenie,,"pages/ec-admin-page.php:151 pages/ec-admin-page.php:157",
"Get Customized Themes","Získajte prispôsobené motívy",,pages/ec-admin-page.php:162,
"Choose which order to use to populate the email preview.","Vyberte, aké poradie chcete použiť na vyplnenie ukážky e-mailu.",,pages/ec-admin-page.php:170,
"Order to show","Príkaz na zobrazenie",,pages/ec-admin-page.php:171,
"There are no orders to preview...","Neexistujú žiadne príkazy na zobrazenie ukážky ...",,pages/ec-admin-page.php:190,
"...Showing the most recent %u orders","... Zobrazenie posledných objednávok% u",,pages/ec-admin-page.php:210,
"More advanced debugging options.","Pokročilé možnosti ladenia.",,pages/ec-admin-page.php:220,
Debugging,ladenie,,pages/ec-admin-page.php:221,
"Show Header & Template Info","Zobraziť informácie o hlavičke a šablóne",,pages/ec-admin-page.php:238,
"Show Error Notices","Zobraziť hlásenia chýb",,pages/ec-admin-page.php:252,
"Send a test email to any address. Use a comma separated list to send to multiple addresses","Odošlite testovací e-mail na akúkoľvek adresu. Na odoslanie na viacero adries použite zoznam oddelených čiarkou",,pages/ec-admin-page.php:264,
"Send a Test","Odošlite test",,pages/ec-admin-page.php:265,
"Copy & paste any of these [shortcodes] to use dynamic text in your text.","Skopírujte a prilepte niektorý z týchto [krátkych kópií], aby ste v texte používali dynamický text.",,pages/ec-admin-page.php:375,
"Allowed Shortcodes:","Povolené krátke kódy:",,pages/ec-admin-page.php:376,
New,Nový,,pages/ec-admin-page.php:398,
"For more shortcode documentation <a href=""%s"" target=""_blank"">click here</a>","Viac dokumentácie o krátkom kóde <a href=""%s"" target=""_blank""> kliknite sem </a>",,pages/ec-admin-page.php:400,
"Cheatin&#8217; uh?","Cheatin & # 8217; uh?",,pages/ec-preview-page.php:3,
"You'll need at least one order to use Email Customizer properly","Budete potrebovať minimálne jednu objednávku na správne použitie nástroja na prispôsobenie e-mailov",,pages/ec-preview-page.php:73,
"You'll need at least one order to preview all the email types correctly","Budete potrebovať minimálne jednu objednávku, aby ste správne prezreli všetky typy e-mailov",,pages/ec-preview-page.php:74,
"Simply follow your store's checkout process to create at least one order, then return here to preview all the possible email types.","Jednoducho sledujte proces platby v obchode, ak chcete vytvoriť aspoň jednu objednávku, a potom sa sem vráťte, aby ste si prezreli všetky možné typy e-mailov.",,pages/ec-preview-page.php:76,
"You need to update WooCommerce in order to use this theme","Ak chcete použiť túto tému, musíte aktualizovať WooCommerce",,pages/ec-preview-page.php:144,
"The theme you selected requires the latest version of WooCommerce - please first update, then return here and select it.","Vybraná tému vyžaduje najnovšiu verziu WooCommerce - najprv aktualizujte, potom sa sem vráťte a vyberte ju.",,pages/ec-preview-page.php:146,
"We've not seen this email type from this third party plugin before","Tento typ e-mailu sme ešte predtým nevideli",,pages/ec-preview-page.php:160,
"Don't worry, the email will send fine, you just can't preview it. Customizing it - here are your options. Option 1: choose to show one of the other known emails and customize it (colors, sizes, etc) - the styling will be inherited if they have included the header and footer in the normal way. Option 2: choose to dismiss this message and see if it just works. If you see a blank screen then use option 1.","Nebojte sa, e-mail bude posielať v poriadku, jednoducho nemôžete ukážku. Prispôsobenie - tu sú vaše možnosti. Možnosť 1: zvoliť zobrazenie jedného z ostatných známych e-mailov a prispôsobiť ich (farby, veľkosti atď.) - štýl bude zdedený, ak obsahujú hlavičku a pätu normálnym spôsobom. Možnosť 2: vyberte túto správu a zistite, či funguje. Ak vidíte prázdnu obrazovku, použite možnosť 1.",,pages/ec-preview-page.php:162,
Dismiss,zamietnuť,,pages/ec-preview-page.php:163,
"Header Info","Informácie o hlavičke",,pages/ec-preview-page.php:180,
"The header infomration that will be sent with the current email. This can be changed in WooCommerce Settings > Emails, or simply click Edit next to the relevant field to be taken there.","Informácie o hlavičke, ktoré budú odoslané s aktuálnym e-mailom. Môžete to zmeniť v nastaveniach WooCommerce> E-maily alebo jednoducho kliknúť na tlačidlo Upraviť vedľa príslušného poľa, ktoré sa tam má zobrať.",,pages/ec-preview-page.php:181,
Subject,predmet,,pages/ec-preview-page.php:187,
Edit,editovať,,"pages/ec-preview-page.php:192 pages/ec-preview-page.php:203
pages/ec-preview-page.php:214",
"From Email","Z e-mailu",,pages/ec-preview-page.php:198,
"From Name","Z názvu",,pages/ec-preview-page.php:209,
"To Email","Odoslať e-mailom",,pages/ec-preview-page.php:220,
"Templates In This Email","Šablóny v tomto e-maile",,pages/ec-preview-page.php:229,
"Email Customizer Default Templates","Predvolené šablóny služby Customizer pre e-mail",,pages/ec-preview-page.php:258,
"Non Email Customizer Templates","Šablóny pre používateľov bez e-mailu",,pages/ec-preview-page.php:262,
"Overridden Templates","Prepísané šablóny",,pages/ec-preview-page.php:266,
"<strong>Email Customizer Default Templates</strong> are those found inside our plugin folder. We update these templates when to incorporate any changes that WooCommerce, or the other plugins we support e.g Subscription and Bookings, make to theirs. If you want to customize these templates then please don't edit them here (in our plugin folder) as your changes will be lost next time you update. Rather use the suggested Template Overriding method explained below which will maintain your changes after updating.<br />
<strong>Non Email Customizer Templates</strong> are templates being pulled in from 3rd party plugins that we have chosen not to, or don't yet, support. Our emails simply include the code from these templates at the time the email is sent. Usually our header and footer are used and their template is used for the main content or body. These templates can be customized in the same way using the template override method explained below.<br/>
<strong>Overridden Templates</strong> are templates that you have customized and overridden using the method described in our <a href=""https://www.cxthemes.com/documentation/email-customizer/customize-emails-by-overriding-templates-via-your-theme/"" target=""_blank"">Customize Emails by Overriding Templates via your Theme documentation</a>. You will be responsible for copying any future code changes we make to our templates over to these custom overridden templates.","<strong> Predvolené šablóny služby Customizer e-mail </ strong> sú tie, ktoré sa nachádzajú v našom priečinku doplnkov. Aktualizujeme tieto šablóny, kedy začleníme akékoľvek zmeny, ktoré WooCommerce alebo ostatné doplnky, ktoré podporujeme, napr. Subscription a Bookings, urobte s nimi. Ak chcete prispôsobiť tieto šablóny, upravte ich tu (v našom priečinku s doplnkami), pretože pri ďalšom aktualizovaní sa vaše zmeny stratia. Skôr použite navrhnutú metódu Overovanie šablón, ktorá bude ďalej aktualizovaná. <br />
<strong> Šablóny pre používateľov bez e-mailov </ strong> sú šablóny, ktoré sa odvíjajú od zásuvných modulov tretích strán, ktorých sme sa rozhodli, či ešte nepodporujeme. Naše e-maily jednoducho obsahujú kód z týchto šablón v čase odoslania e-mailu. Obvykle sa používa záhlavie a päta a ich šablóna sa používa pre hlavný obsah alebo telo. Tieto šablóny je možné prispôsobiť rovnakým spôsobom použitím nižšie popísanej metódy potlačenia šablóny. <br/>
<strong> Prepisované šablóny </ strong> sú šablóny, ktoré ste prispôsobili a prepísali pomocou metódy popísanej v našom <a href = ""https://www.cxthemes.com/documentation/email-customizer/customize-emails-by- override-templates-via-your-theme / ""target ="" _ blank ""> Prispôsobte e-maily prepisovaním šablón pomocou vašej tematickej dokumentácie </a>. Budete zodpovední za kopírovanie akýchkoľvek budúcich zmien kódu, ktoré vykonávame v našich šablónoch, na tieto vlastné prepísané šablóny.",,pages/ec-preview-page.php:271,
"Please register on the Plugins page to get this update","Ak chcete získať túto aktualizáciu, zaregistrujte sa na stránke Pluginy",,includes/updates/cxthemes-plugin-update-checker.php:95,
"To get automatic updates you need to input your valid purchase code, for our product, from Envato. The purchase code looks like: <code>f128a5a1-5a1c-4e4e-82ec-a12b3c4d5e6f</code> and should have been emailed to you when you bought our plugin, or you can retrieve it by logging into <a href=""http://codecanyon.net/"" target=""_blank"">CodeCanyon.net</a> go to Downloads > <em>Plugin Name</em> > Download > License certificate & purchase code.","Ak chcete získať automatické aktualizácie, musíte z nášho produktu zakúpiť platný nákupný kód spoločnosti Envato. Kód nákupu vyzerá takto: <code> f128a5a1-5a1c-4e4e-82ec-a12b3c4d5e6f </ code> a mal by vám byť zaslaný po zakúpení nášho pluginu alebo ho môžete prevziať prihlásením do <a href = ""http: //codecanyon.net/ ""target ="" _ blank ""> CodeCanyon.net </a> prejdite na stránku Downloads> <em> Plugin Name </ em>> Download> Licenčný certifikát a nákupný kód.",,includes/updates/cxthemes-plugin-update-checker.php:197,
"That is not a valid purchase code format. It should look like: <code>f128a5a1-5a1c-4e4e-82ec-a12b3c4d5e6f</code>.","To nie je platný kód nákupného kódu. Mala by vyzerať takto: <code> f128a5a1-5a1c-4e4e-82ec-a12b3c4d5e6f </ code>.",,includes/updates/cxthemes-plugin-update-checker.php:206,
"You are unable to connect to our update server at this time. Please check your connection, or try again later.","Momentálne sa nemôžete pripojiť na náš aktualizačný server. Skontrolujte svoje pripojenie alebo skúste to znova neskôr.",,includes/updates/cxthemes-plugin-update-checker.php:212,
"It doesn't seem like you have purchased our plugin yet. Please <a href='#'>purchase it from CodeCanyon</a> to get access to support and updates.","Nezdá sa, že ste si kúpili náš plugin ešte. Prosím, <a href='#'> ho zakúpite od spoločnosti CodeCanyon </a>, aby ste získali prístup k podpore a aktualizáciám.",,includes/updates/cxthemes-plugin-update-checker.php:218,
"Thanks. You're registered and can now receive updates.","Vďaka. Ste zaregistrovaný a teraz môžete dostávať aktualizácie.",,includes/updates/cxthemes-plugin-update-checker.php:224,
"Purchase Code","Nákupný kód",,includes/updates/cxthemes-plugin-update-checker.php:234,
Save,Uložiť,,includes/updates/cxthemes-plugin-update-checker.php:236,
"Register for Updates","Zaregistrujte sa pre aktualizácie",,includes/updates/cxthemes-plugin-update-checker.php:265,
"<em><a href=""%s"">Register here</a> to get this update</em>","<em> <a href=""%s""> Zaregistrujte sa </a> a získajte túto aktualizáciu </ em>",,includes/updates/cxthemes-plugin-update-checker.php:265,
"Edit registration","Upraviť registráciu",,includes/updates/cxthemes-plugin-update-checker.php:272,
"Product Image","Obrázok produktu",,"templates-wc2.5-wc2.9/emails/deluxe/email-order-items.php:28
templates-wc2.5-wc2.9/emails/supreme/email-order-items.php:28
templates-wc2.5-wc2.9/emails/vanilla/email-order-items.php:28",
"If admin sets auto generated passwords","Ak admin nastavuje automatické generované heslá",,"templates-wc2.5-wc2.9/emails/deluxe/customer-new-account.php:25
templates-wc2.5-wc2.9/emails/supreme/customer-new-account.php:25
templates-wc2.5-wc2.9/emails/vanilla/customer-new-account.php:26
templates/emails/deluxe/customer-new-account.php:25
templates/emails/supreme/customer-new-account.php:25
templates/emails/vanilla/customer-new-account.php:25",
"Billing address","Fakturačná adresa",,"templates-wc2.5-wc2.9/emails/deluxe/email-addresses.php:13
templates-wc2.5-wc2.9/emails/supreme/email-addresses.php:13
templates/emails/deluxe/email-addresses.php:13
templates/emails/supreme/email-addresses.php:13",
"Shipping address","Adresa odoslania",,"templates-wc2.5-wc2.9/emails/deluxe/email-addresses.php:18
templates-wc2.5-wc2.9/emails/supreme/email-addresses.php:18
templates/emails/deluxe/email-addresses.php:18
templates/emails/supreme/email-addresses.php:18",
"Payment Pending","Platba čaká na vybavenie",,"templates-wc2.5-wc2.9/emails/deluxe/customer-invoice.php:25
templates-wc2.5-wc2.9/emails/supreme/customer-invoice.php:25
templates-wc2.5-wc2.9/emails/vanilla/customer-invoice.php:25
templates/emails/deluxe/customer-invoice.php:25
templates/emails/supreme/customer-invoice.php:25
templates/emails/vanilla/customer-invoice.php:25",
"Payment Complete","Platba bola dokončená",,"templates-wc2.5-wc2.9/emails/deluxe/customer-invoice.php:41
templates-wc2.5-wc2.9/emails/supreme/customer-invoice.php:41
templates-wc2.5-wc2.9/emails/vanilla/customer-invoice.php:41
templates/emails/deluxe/customer-invoice.php:41
templates/emails/supreme/customer-invoice.php:41
templates/emails/vanilla/customer-invoice.php:41",
"Customer details","Podrobnosti o zákazníkovi",,"templates-wc2.5-wc2.9/emails/deluxe/email-customer-details.php:11
templates-wc2.5-wc2.9/emails/supreme/email-customer-details.php:11
templates/emails/deluxe/email-customer-details.php:11
templates/emails/supreme/email-customer-details.php:11",
"Order Details","Detaily objednávky",,"templates-wc2.5-wc2.9/emails/deluxe/email-order-details.php:17
templates-wc2.5-wc2.9/emails/supreme/email-order-details.php:17
templates/emails/deluxe/email-order-details.php:17
templates/emails/supreme/email-order-details.php:17",
"Order Number:","Číslo objednávky:",,"templates-wc2.5-wc2.9/emails/deluxe/email-order-details.php:23
templates-wc2.5-wc2.9/emails/supreme/email-order-details.php:23
templates-wc2.5-wc2.9/emails/vanilla/email-order-details.php:24
templates/emails/deluxe/email-order-details.php:23
templates/emails/supreme/email-order-details.php:23
templates/emails/vanilla/email-order-details.php:24",
"Order Date:","Dátum objednávky:",,"templates-wc2.5-wc2.9/emails/deluxe/email-order-details.php:33
templates-wc2.5-wc2.9/emails/supreme/email-order-details.php:33
templates-wc2.5-wc2.9/emails/vanilla/email-order-details.php:33
templates/emails/deluxe/email-order-details.php:33
templates/emails/supreme/email-order-details.php:33
templates/emails/vanilla/email-order-details.php:33",
Product,výrobok,,"templates-wc2.5-wc2.9/emails/deluxe/email-order-details.php:43
templates-wc2.5-wc2.9/emails/supreme/email-order-details.php:43
templates-wc2.5-wc2.9/emails/vanilla/email-order-details.php:45
templates/emails/deluxe/email-order-details.php:43
templates/emails/supreme/email-order-details.php:43
templates/emails/vanilla/email-order-details.php:45",
Quantity,množstvo,,"templates-wc2.5-wc2.9/emails/deluxe/email-order-details.php:44
templates-wc2.5-wc2.9/emails/supreme/email-order-details.php:44
templates-wc2.5-wc2.9/emails/vanilla/email-order-details.php:46
templates/emails/deluxe/email-order-details.php:44
templates/emails/supreme/email-order-details.php:44
templates/emails/vanilla/email-order-details.php:46",
Price,cena,,"templates-wc2.5-wc2.9/emails/deluxe/email-order-details.php:45
templates-wc2.5-wc2.9/emails/supreme/email-order-details.php:45
templates-wc2.5-wc2.9/emails/vanilla/email-order-details.php:47
templates/emails/deluxe/email-order-details.php:45
templates/emails/supreme/email-order-details.php:45
templates/emails/vanilla/email-order-details.php:47",
"Partial Refund","Čiastočné vrátenie platby",,"templates-wc2.5-wc2.9/emails/deluxe/customer-refunded-order.php:25
templates-wc2.5-wc2.9/emails/supreme/customer-refunded-order.php:25
templates-wc2.5-wc2.9/emails/vanilla/customer-refunded-order.php:26
templates/emails/deluxe/customer-refunded-order.php:25
templates/emails/supreme/customer-refunded-order.php:25
templates/emails/vanilla/customer-refunded-order.php:25",
Refund,vrátenie,,"templates-wc2.5-wc2.9/emails/deluxe/customer-refunded-order.php:41
templates-wc2.5-wc2.9/emails/supreme/customer-refunded-order.php:41
templates-wc2.5-wc2.9/emails/vanilla/customer-refunded-order.php:42
templates/emails/deluxe/customer-refunded-order.php:41
templates/emails/supreme/customer-refunded-order.php:41
templates/emails/vanilla/customer-refunded-order.php:41",
"Billing Address","Fakturačná adresa",,"templates-wc2.5-wc2.9/emails/vanilla/email-addresses.php:13
templates/emails/vanilla/email-addresses.php:13",
"Shipping Address","Adresa odoslania",,"templates-wc2.5-wc2.9/emails/vanilla/email-addresses.php:18
templates/emails/vanilla/email-addresses.php:18",
"Customer Details","Podrobnosti o zákazníkoch",,"templates-wc2.5-wc2.9/emails/vanilla/email-customer-details.php:11
templates/emails/vanilla/email-customer-details.php:11",
"Product image","Obrázok produktu",,"templates/emails/deluxe/email-order-items.php:27
templates/emails/supreme/email-order-items.php:27
templates/emails/vanilla/email-order-items.php:27",
"WooCommerce Email Customizer","WooCommerce Email Customizer",,,"Name of the plugin"
"WooCommerce Email Customizer plugin allows you to fully customize the styling, colors, logo and text in the emails sent from your WooCommerce store.","Doplnok WooCommerce Email Customizer umožňuje plne prispôsobiť styl, farby, logo a text do e-mailov odosielaných z vášho obchodu WooCommerce.",,,"Description of the plugin"
cxThemes,cxThemes,,,"URI of the plugin
Author URI of the plugin
Author of the plugin"
Text,text,,"ec-theme-vanilla.php:121 ec-theme-deluxe.php:78 ec-theme-supreme.php:78
ec-theme-woocommerce.php:60",
Appearance,vzhľad,,"ec-theme-vanilla.php:127 ec-theme-deluxe.php:84 ec-theme-supreme.php:84
ec-theme-woocommerce.php:66",
Header,hlavička,,"ec-theme-vanilla.php:133 ec-theme-deluxe.php:90 ec-theme-supreme.php:90
ec-theme-woocommerce.php:72",
Links,odkazy,,"ec-theme-vanilla.php:139 ec-theme-deluxe.php:96 ec-theme-supreme.php:96",
"Section Headings","Nadpisy sekcií",,"ec-theme-vanilla.php:145 ec-theme-deluxe.php:102 ec-theme-supreme.php:102",
"Order Items Table","Tabuľka položiek objednávok",,"ec-theme-vanilla.php:151 ec-theme-deluxe.php:108 ec-theme-supreme.php:108",
Footer,zápätie,,"ec-theme-vanilla.php:157 ec-theme-deluxe.php:114 ec-theme-supreme.php:114
ec-theme-woocommerce.php:78",
"Custom CSS","Vlastné CSS",,"ec-theme-vanilla.php:163 ec-theme-deluxe.php:120 ec-theme-supreme.php:120",
Heading,nadpis,,"ec-theme-vanilla.php:192 ec-theme-vanilla.php:218 ec-theme-vanilla.php:244
ec-theme-vanilla.php:270 ec-theme-vanilla.php:295 ec-theme-vanilla.php:321
ec-theme-vanilla.php:445 ec-theme-vanilla.php:471 ec-theme-vanilla.php:497
ec-theme-deluxe.php:149 ec-theme-deluxe.php:175 ec-theme-deluxe.php:201
ec-theme-deluxe.php:227 ec-theme-deluxe.php:252 ec-theme-deluxe.php:278
ec-theme-deluxe.php:402 ec-theme-deluxe.php:428 ec-theme-deluxe.php:454
ec-theme-supreme.php:149 ec-theme-supreme.php:175 ec-theme-supreme.php:201
ec-theme-supreme.php:227 ec-theme-supreme.php:252 ec-theme-supreme.php:278
ec-theme-supreme.php:402 ec-theme-supreme.php:428 ec-theme-supreme.php:454
ec-theme-woocommerce.php:107 ec-theme-woocommerce.php:132
ec-theme-woocommerce.php:157 ec-theme-woocommerce.php:182
ec-theme-woocommerce.php:207 ec-theme-woocommerce.php:232
ec-theme-woocommerce.php:351 ec-theme-woocommerce.php:376
ec-theme-woocommerce.php:401",
"New order received!","Bola prijatá nová objednávka!",,"ec-theme-vanilla.php:195 ec-theme-deluxe.php:152 ec-theme-supreme.php:152",
"Main Text","Hlavný text",,"ec-theme-vanilla.php:203 ec-theme-vanilla.php:229 ec-theme-vanilla.php:255
ec-theme-vanilla.php:280 ec-theme-vanilla.php:306 ec-theme-vanilla.php:332
ec-theme-vanilla.php:358 ec-theme-vanilla.php:381 ec-theme-vanilla.php:407
ec-theme-vanilla.php:430 ec-theme-vanilla.php:456 ec-theme-vanilla.php:482
ec-theme-vanilla.php:508 ec-theme-deluxe.php:160 ec-theme-deluxe.php:186
ec-theme-deluxe.php:212 ec-theme-deluxe.php:237 ec-theme-deluxe.php:263
ec-theme-deluxe.php:289 ec-theme-deluxe.php:315 ec-theme-deluxe.php:338
ec-theme-deluxe.php:364 ec-theme-deluxe.php:387 ec-theme-deluxe.php:413
ec-theme-deluxe.php:439 ec-theme-deluxe.php:465 ec-theme-supreme.php:160
ec-theme-supreme.php:186 ec-theme-supreme.php:212 ec-theme-supreme.php:237
ec-theme-supreme.php:263 ec-theme-supreme.php:289 ec-theme-supreme.php:315
ec-theme-supreme.php:338 ec-theme-supreme.php:364 ec-theme-supreme.php:387
ec-theme-supreme.php:413 ec-theme-supreme.php:439 ec-theme-supreme.php:465
ec-theme-woocommerce.php:117 ec-theme-woocommerce.php:142
ec-theme-woocommerce.php:167 ec-theme-woocommerce.php:192
ec-theme-woocommerce.php:217 ec-theme-woocommerce.php:242
ec-theme-woocommerce.php:267 ec-theme-woocommerce.php:289
ec-theme-woocommerce.php:314 ec-theme-woocommerce.php:336
ec-theme-woocommerce.php:361 ec-theme-woocommerce.php:386
ec-theme-woocommerce.php:411",
"You have received an order from [ec_firstname] [ec_lastname].

Their order is as follows: [ec_order]","Dostali ste objednávku od [ec_firstname] [ec_lastname].

Ich poradie je nasledovné: [ec_order]",,"ec-theme-vanilla.php:206 ec-theme-deluxe.php:163 ec-theme-supreme.php:163",
"Cancelled order","Zrušená objednávka",,"ec-theme-vanilla.php:221 ec-theme-deluxe.php:178 ec-theme-supreme.php:178
ec-theme-woocommerce.php:135",
"The order [ec_order] for [ec_firstname] [ec_lastname] has been cancelled.","Poradie [ec_order] pre [ec_firstname] [ec_lastname] bolo zrušené.",,"ec-theme-vanilla.php:232 ec-theme-deluxe.php:189 ec-theme-supreme.php:189
ec-theme-woocommerce.php:145",
"Failed order","Neúspešná objednávka",,"ec-theme-vanilla.php:247 ec-theme-deluxe.php:204 ec-theme-supreme.php:204
ec-theme-woocommerce.php:160",
