"Shop as Customer","Als Kunde einkaufen",,"shop-as-customer.php:295 shop-as-customer.php:296 shop-as-customer.php:534
shop-as-customer.php:1014 includes/settings.php:12 includes/settings.php:13
includes/settings.php:38 includes/settings.php:49","'woocommerce',"
"back to previous page","zurück zur vorherigen Seite",,shop-as-customer.php:627,
"Sorry, you can't shop as this customer.","Entschuldigung, Sie können nicht als dieser Kunde einkaufen.",,shop-as-customer.php:630,
"They have higher capabilites so switching would not be secure.","Sie haben höhere Fähigkeiten, so dass eine Umschaltung nicht sicher wäre.",,shop-as-customer.php:630,
"Could not switch back to originating user.","Es konnte nicht zum ursprünglichen Benutzer zurückgeschaltet werden.",,"shop-as-customer.php:642 shop-as-customer.php:681",
"Back to %1$s (%2$s)","Zurück zu% 1 $ s (% 2 $ s)",,shop-as-customer.php:761,
"Switch To","Wechseln zu",,shop-as-customer.php:787,
"Howdy, %1$s","Grüß dich,% 1 $ s",,shop-as-customer.php:946,
"Shopping as %1$s","Einkaufen als% 1 $ s",,"shop-as-customer.php:959 includes/checkout-functions.php:66
includes/checkout-functions.php:388",
"Switch Back",Zurückschalten,,"shop-as-customer.php:972 shop-as-customer.php:1149",
"Switch To Customer","Zum Kunden wechseln",,shop-as-customer.php:1000,
"Find a Customer","Einen Kunden finden",,shop-as-customer.php:1023,
Recent,Kürzlich,,shop-as-customer.php:1037,
"Customers you have recently switched to","Kunden, zu denen Sie kürzlich gewechselt sind",,shop-as-customer.php:1039,
"Switch to","Wechseln zu",,shop-as-customer.php:1056,
"View Orders","Bestellungen ansehen",,shop-as-customer.php:1058,
"Edit Profile","Profil bearbeiten",,shop-as-customer.php:1060,
"<strong>Shopping as</strong> %s %s","<strong> Einkaufen als </ strong>% s% s",,shop-as-customer.php:1145,
"Order created using <strong>Shop as Customer</strong>","Bestellung erstellt mit <strong> Shop als Kunde </ strong>",,shop-as-customer.php:1174,
"%sShop as Customer for WooCommerce needs WooCommerce%s %sWooCommerce%s must be active for Shop as Customer to work. Please install & activate WooCommerce.","% sShop als Kunde für WooCommerce benötigt WooCommerce% s% sWooCommerce% s muss aktiv sein, damit Shop als Kunde funktioniert. Bitte installieren und aktivieren Sie WooCommerce.",,shop-as-customer.php:1354,
"%sShop as Customer for WooCommerce is inactive%s This version of Shop as Customer requires WooCommerce %s or newer. For more information about our WooCommerce version support %sclick here%s.","% sShop als Kunde für WooCommerce ist inaktiv% s Diese Version von Shop als Kunde erfordert WooCommerce% s oder neuer. Für weitere Informationen über unsere WooCommerce Version unterstützen Sie% sclick hier% s.",,shop-as-customer.php:1371,
Settings,Einstellungen,,includes/settings.php:38,
"Save changes","Änderungen speichern",,includes/settings.php:46,
"General Settings","Allgemeine Einstellungen",,includes/settings.php:85,
"Minimum User Role",Mindestbenutzerrolle,,includes/settings.php:91,
"Which users can shop as other users.","Welche Benutzer können als andere Benutzer einkaufen?",,includes/settings.php:92,
"User Role Hierarchy",Benutzerrollenhierarchie,,includes/settings.php:104,
"To prevent less privileged users switching to more privileged users, we need to know the hierarchy of your user roles. If you are not using any custom user roles then you can leave this as is. If you are using custom roles then please make sure all your role types are represented here in order from most privileged to least privileged. Roles on the same row, separated using pipe ""|"", have equal privileges. e.g. ""custom_role"" role has the same capabilities as the ""shop_manager"".","Um zu verhindern, dass weniger privilegierte Benutzer zu privilegierten Benutzern wechseln, müssen wir die Hierarchie Ihrer Benutzerrollen kennen. Wenn Sie keine benutzerdefinierten Benutzerrollen verwenden, können Sie diese unverändert lassen. Wenn Sie benutzerdefinierte Rollen verwenden, stellen Sie bitte sicher, dass alle Ihre Rollentypen hier in der Reihenfolge von den meisten Privilegierten bis zur Geringsten Privilegierten dargestellt sind. Rollen in derselben Zeile, getrennt durch Pipe ""|"", haben die gleichen Rechte. z.B. Die Rolle ""custom_role"" hat die gleichen Funktionen wie der ""shop_manager"".",,includes/settings.php:105,
"Action failed. Please refresh the page and retry.","Aktion: fehlgeschlagen. Bitte aktualisieren Sie die Seite und versuchen Sie es erneut.",,includes/settings.php:158,
"Checkout - Pay Now","Kasse - Jetzt bezahlen",,includes/checkout-functions.php:79,
"Checkout - Pay Later","Kasse - Später bezahlen",,includes/checkout-functions.php:80,
"Checkout - FREE","Kasse - KOSTENLOS",,includes/checkout-functions.php:82,
"Send Email to Customer","E-Mail an den Kunden senden",,includes/checkout-functions.php:87,
"What do these buttons do?","Was machen diese Tasten?",,"includes/checkout-functions.php:94 includes/checkout-functions.php:423",
"""Checkout - Pay Later"" button","Schaltfläche ""Bezahlen - Später bezahlen""",,includes/checkout-functions.php:101,
"The customers order will be created with the status Pending Payment","Die Kundenbestellung wird mit dem Status Ausstehende Zahlung angelegt",,includes/checkout-functions.php:103,
"The invoice email will be sent to the customer with a link for them to pay for their order (provided ""Send Email to Customer"" is checked).","Die Rechnungs-E-Mail wird an den Kunden mit einem Link gesendet, über den sie ihre Bestellung bezahlen können (sofern ""E-Mail an den Kunden senden"" aktiviert ist).",,includes/checkout-functions.php:104,
"The customer will link back to the Checkout page with available payment options presented to them where they can choose one and pay","Der Kunde wird zurück auf die Checkout-Seite mit verfügbaren Zahlungsoptionen verlinken, wo er eine auswählen und bezahlen kann.",,"includes/checkout-functions.php:105 includes/checkout-functions.php:432",
"The order will remain as Pending until they successfully Pay where after it will change to Processing","Die Bestellung bleibt als ausstehend, bis sie erfolgreich bezahlt hat.",,"includes/checkout-functions.php:106 includes/checkout-functions.php:433",
"""Checkout - Pay Now"" button","Schaltfläche ""Bezahlen - Jetzt bezahlen""",,includes/checkout-functions.php:108,
"You will proceed, as the customer normally would, with the selected Payment Method.","Sie werden wie gewohnt mit der gewählten Zahlungsmethode fortfahren.",,includes/checkout-functions.php:110,
"You will be expected to pay 'on behalf' of the customer.","Es wird erwartet, dass Sie ""im Auftrag"" des Kunden bezahlen.",,includes/checkout-functions.php:111,
"The customers order will be created with the status Processing","Die Kundenbestellung wird mit dem Status Verarbeitung angelegt",,"includes/checkout-functions.php:112 includes/checkout-functions.php:118",
"The Processing Order email will be sent to the customer (provided ""Send Email to Customer"" is checked).","Die E-Mail zur Verarbeitungsbestellung wird an den Kunden gesendet (sofern ""E-Mail an den Kunden senden"" aktiviert ist).",,"includes/checkout-functions.php:113 includes/checkout-functions.php:119",
"""Checkout - FREE"" button","Schaltfläche ""Kasse - KOSTENLOS""",,includes/checkout-functions.php:116,
"""Send Email to Customer"" checkbox","""E-Mail an Kunden senden""",,includes/checkout-functions.php:122,
"Use this checkbox, as mentioned above, to control whether the automatic transactional emails are sent to the customer when the order is created.","Verwenden Sie dieses Kontrollkästchen, wie oben erwähnt, um zu steuern, ob die automatischen Transaktions-E-Mails beim Erstellen der Bestellung an den Kunden gesendet werden.",,includes/checkout-functions.php:124,
"The New Order email will be sent as normal.","Die E-Mail zum neuen Auftrag wird wie gewohnt gesendet.",,includes/checkout-functions.php:125,
"Order created by %1$s using Shop as Customer","Bestellung von% 1 $ s mit Shop als Kunde erstellt",,includes/checkout-functions.php:200,
"Invoice sent to Customer successfully.","Die Rechnung wurde erfolgreich an den Kunden gesendet.",,includes/checkout-functions.php:324,
"Send Request-to-Pay to Customer","Anfrage an den Kunden senden",,includes/checkout-functions.php:403,
"Send the Invoice Email to Customer","Senden Sie die Rechnungs-E-Mail an den Kunden",,includes/checkout-functions.php:410,
"Switch back and View Order","Zurückschalten und Bestellung anzeigen",,includes/checkout-functions.php:416,
"""Send Request-to-Pay to Customer"" button","Schaltfläche ""Anfrage an den Kunden senden""",,includes/checkout-functions.php:429,
"Send the Customer Invoice email to the customer with a link to pay","Senden Sie die Kundenrechnungs-E-Mail an den Kunden mit einem Link zum Bezahlen",,includes/checkout-functions.php:431,
"""Send the Invoice Email to Customer"" button","Schaltfläche ""Rechnung an den Kunden senden""",,includes/checkout-functions.php:439,
"Send the Customer Invoice email to the customer.","Senden Sie die Kundenrechnungs-E-Mail an den Kunden.",,includes/checkout-functions.php:441,
"""Switch Back and View Order"" button","Schaltfläche ""Zurückschalten und Auftrag anzeigen""",,includes/checkout-functions.php:446,
"Switch back to your user profile and take you to this order in the WooCommerce admin.","Wechseln Sie zurück zu Ihrem Benutzerprofil und nehmen Sie diese Bestellung im WooCommerce Admin auf.",,includes/checkout-functions.php:448,
"Please register on the Plugins page to get this update","Bitte registrieren Sie sich auf der Plugins-Seite, um dieses Update zu erhalten",,includes/updates/cxthemes-plugin-update-checker.php:96,
"To get automatic updates you need to input your valid purchase code, for our product, from Envato. The purchase code looks like: <code>f128a5a1-5a1c-4e4e-82ec-a12b3c4d5e6f</code> and should have been emailed to you when you bought our plugin, or you can retrieve it by logging into <a href=""http://codecanyon.net/"" target=""_blank"">CodeCanyon.net</a> go to Downloads > <em>Plugin Name</em> > Download > License certificate & purchase code.","Um automatische Updates zu erhalten, müssen Sie Ihren gültigen Kaufcode für unser Produkt von Envato eingeben. Der Kaufcode sieht aus wie: <code> f128a5a1-5a1c-4e4e-82ec-a12b3c4d5e6f </ code> und sollte Ihnen per E-Mail zugeschickt worden sein, wenn Sie unser Plugin gekauft haben, oder Sie können es abrufen, indem Sie sich bei <a href = ""http: //codecanyon.net/ ""target ="" _ blank ""> CodeCanyon.net </a> gehen Sie zu Downloads> <em> Plugin Name </ em>> Download> Lizenzzertifikat und Kaufcode.",,includes/updates/cxthemes-plugin-update-checker.php:198,
"That is not a valid purchase code format. It should look like: <code>f128a5a1-5a1c-4e4e-82ec-a12b3c4d5e6f</code>.","Das ist kein gültiges Kaufcodeformat. Es sollte wie folgt aussehen: <code> f128a5a1-5a1c-4e4e-82ec-a12b3c4d5e6f </ code>.",,includes/updates/cxthemes-plugin-update-checker.php:207,
"You are unable to connect to our update server at this time. Please check your connection, or try again later.","Sie können zu diesem Zeitpunkt keine Verbindung zu unserem Update-Server herstellen. Bitte überprüfen Sie Ihre Verbindung oder versuchen Sie es später noch einmal.",,includes/updates/cxthemes-plugin-update-checker.php:213,
"It doesn't seem like you have purchased our plugin yet. Please <a href='#'>purchase it from CodeCanyon</a> to get access to support and updates.","Es scheint nicht, als ob Sie unser Plugin bereits gekauft haben. Bitte <a href='#'> kaufen Sie es von CodeCanyon </a>, um Zugriff auf Support und Updates zu erhalten.",,includes/updates/cxthemes-plugin-update-checker.php:219,
"Thanks. You're registered and can now receive updates.","Vielen Dank. Sie sind registriert und können jetzt Updates erhalten.",,includes/updates/cxthemes-plugin-update-checker.php:225,
"Purchase Code",Bestellcode,,includes/updates/cxthemes-plugin-update-checker.php:235,
Save,sparen,,includes/updates/cxthemes-plugin-update-checker.php:237,
"Register for Updates","Registrieren Sie sich für Updates",,includes/updates/cxthemes-plugin-update-checker.php:266,
"<em><a href=""%s"">Register here</a> to get this update</em>","<em> <a href=""%s""> Registrieren Sie sich hier </a>, um dieses Update zu erhalten </ em>",,includes/updates/cxthemes-plugin-update-checker.php:266,
"Edit registration","Registrierung bearbeiten",,includes/updates/cxthemes-plugin-update-checker.php:273,
"WooCommerce Shop as Customer","WooCommerce Shop als Kunde",,,"Name of the plugin"
"Shop as Customer allows a store Administrator or Shop Manager to shop the front-end of the store as another User, allowing all functionality such as, order creation, checkout and plugins that only work on the product or cart pages and not the Admin Order page, to function normally as if they were that Customer.","Shop as Customer ermöglicht es einem Shop-Administrator oder Shop-Manager, das Front-End des Shops als einen anderen User zu kaufen, wobei alle Funktionen wie Bestellungserstellung, Checkout und Plugins nur auf den Produkt- oder Warenkorbseiten und nicht auf der Admin-Bestellseite funktionieren. , um normal zu funktionieren, als wären sie der Kunde.",,,"Description of the plugin"
cxThemes,cxThemen,,,"URI of the plugin
Author URI of the plugin
Author of the plugin"
