[
    {
        "term": "Payment for order [ec_order] from [ec_firstname] [ec_lastname] has failed.",
        "definition": "Betaling voor bestelling [ec_order] van [ec_firstname] [ec_lastname] is mislukt.",
        "context": "",
        "term_plural": "",
        "reference": "ec-theme-vanilla.php:258 ec-theme-deluxe.php:215 ec-theme-supreme.php:215\nec-theme-woocommerce.php:170",
        "comment": ""
    },
    {
        "term": "Thank you for your order",
        "definition": "Bedankt voor je bestelling",
        "context": "",
        "term_plural": "",
        "reference": "ec-theme-vanilla.php:273 ec-theme-deluxe.php:230 ec-theme-supreme.php:230\nec-theme-woocommerce.php:185 ec-theme-woocommerce.php:210",
        "comment": ""
    },
    {
        "term": "Your order is on-hold until we confirm payment has been received. Your order details are shown below for your reference:",
        "definition": "Je bestelling is in de wacht totdat we bevestigen dat de betaling is ontvangen. Uw bestelling details worden hieronder getoond voor uw referentie:",
        "context": "",
        "term_plural": "",
        "reference": "ec-theme-vanilla.php:283 ec-theme-deluxe.php:240 ec-theme-supreme.php:240\nec-theme-woocommerce.php:195",
        "comment": ""
    },
    {
        "term": "Your order is being processed",
        "definition": "Je bestelling wordt verwerkt",
        "context": "",
        "term_plural": "",
        "reference": "ec-theme-vanilla.php:298 ec-theme-deluxe.php:255 ec-theme-supreme.php:255",
        "comment": ""
    },
    {
        "term": "Your order [ec_order] has been received and is now being processed.",
        "definition": "Uw bestelling [ec_order] is ontvangen en wordt nu verwerkt.",
        "context": "",
        "term_plural": "",
        "reference": "ec-theme-vanilla.php:309 ec-theme-deluxe.php:266 ec-theme-supreme.php:266",
        "comment": ""
    },
    {
        "term": "Your order is complete",
        "definition": "Je bestelling is voltooid",
        "context": "",
        "term_plural": "",
        "reference": "ec-theme-vanilla.php:324 ec-theme-deluxe.php:281 ec-theme-supreme.php:281\nec-theme-woocommerce.php:235",
        "comment": ""
    },
    {
        "term": "Your order [ec_order] at [ec_site_name] has been completed.\n\nWe're just letting you know. No further action is required.",
        "definition": "Uw bestelling [ec_order] om [ec_site_name] is voltooid.\n\nWe laten het je gewoon weten. Geen verdere actie vereist.",
        "context": "",
        "term_plural": "",
        "reference": "ec-theme-vanilla.php:335 ec-theme-deluxe.php:292 ec-theme-supreme.php:292",
        "comment": ""
    },
    {
        "term": "Heading (full)",
        "definition": "Kop (volledig)",
        "context": "",
        "term_plural": "",
        "reference": "ec-theme-vanilla.php:347 ec-theme-deluxe.php:304 ec-theme-supreme.php:304\nec-theme-woocommerce.php:257",
        "comment": ""
    },
    {
        "term": "Your order has been refunded",
        "definition": "Uw bestelling is terugbetaald",
        "context": "",
        "term_plural": "",
        "reference": "ec-theme-vanilla.php:350 ec-theme-deluxe.php:307 ec-theme-supreme.php:307",
        "comment": ""
    },
    {
        "term": "Your order [ec_order] has been refunded. Thanks",
        "definition": "Je bestelling [ec_order] is terugbetaald. Bedankt",
        "context": "",
        "term_plural": "",
        "reference": "ec-theme-vanilla.php:361 ec-theme-deluxe.php:318 ec-theme-supreme.php:318",
        "comment": ""
    },
    {
        "term": "Heading (partial)",
        "definition": "Kop (gedeeltelijk)",
        "context": "",
        "term_plural": "",
        "reference": "ec-theme-vanilla.php:370 ec-theme-deluxe.php:327 ec-theme-supreme.php:327\nec-theme-woocommerce.php:279",
        "comment": ""
    },
    {
        "term": "You have been partially refunded",
        "definition": "U bent gedeeltelijk terugbetaald",
        "context": "",
        "term_plural": "",
        "reference": "ec-theme-vanilla.php:373 ec-theme-deluxe.php:330 ec-theme-supreme.php:330\nec-theme-woocommerce.php:282",
        "comment": ""
    },
    {
        "term": "Your order [ec_order] has been partially refunded. Thanks",
        "definition": "Uw bestelling [ec_order] is gedeeltelijk terugbetaald. Bedankt",
        "context": "",
        "term_plural": "",
        "reference": "ec-theme-vanilla.php:384 ec-theme-deluxe.php:341 ec-theme-supreme.php:341",
        "comment": ""
    },
    {
        "term": "Heading (payment pending)",
        "definition": "Koers (betaling in behandeling)",
        "context": "",
        "term_plural": "",
        "reference": "ec-theme-vanilla.php:396 ec-theme-deluxe.php:353 ec-theme-supreme.php:353\nec-theme-woocommerce.php:304",
        "comment": ""
    },
    {
        "term": "Invoice for order #[ec_order show=\"number\"]",
        "definition": "Factuur voor bestelling # [ec_order show = \"nummer\"]",
        "context": "",
        "term_plural": "",
        "reference": "ec-theme-vanilla.php:399 ec-theme-vanilla.php:422",
        "comment": ""
    },
    {
        "term": "Thanks for your order on [ec_site_link].\n\nTo pay for this order please use the following link: [ec_pay_link]",
        "definition": "Bedankt voor je bestelling op [ec_site_link].\n\nGebruik de volgende link om voor deze bestelling te betalen: [ec_pay_link]",
        "context": "",
        "term_plural": "",
        "reference": "ec-theme-vanilla.php:410 ec-theme-deluxe.php:367 ec-theme-supreme.php:367",
        "comment": ""
    },
    {
        "term": "Heading (payment complete)",
        "definition": "Kop (betaling voltooid)",
        "context": "",
        "term_plural": "",
        "reference": "ec-theme-vanilla.php:419 ec-theme-deluxe.php:376 ec-theme-supreme.php:376\nec-theme-woocommerce.php:326",
        "comment": ""
    },
    {
        "term": "[ec_customer_note]",
        "definition": "[Ec_customer_note]",
        "context": "",
        "term_plural": "",
        "reference": "ec-theme-vanilla.php:459 ec-theme-deluxe.php:416 ec-theme-supreme.php:416",
        "comment": ""
    },
    {
        "term": "Password Reset",
        "definition": "Wachtwoord reset",
        "context": "",
        "term_plural": "",
        "reference": "ec-theme-vanilla.php:474 ec-theme-deluxe.php:431 ec-theme-supreme.php:431",
        "comment": ""
    },
    {
        "term": "Someone requested that the password be reset for the following account:\n[ec_user_login]\n\nIf this was a mistake, just ignore this email and nothing will happen.\n\nTo reset your password, visit the following address:\n[ec_reset_password_link]",
        "definition": "Iemand heeft verzocht om het wachtwoord opnieuw in te stellen voor het volgende account:\n[Ec_user_login]\n\nAls dit een vergissing was, negeer deze e-mail dan en er gebeurt niets.\n\nGa naar het volgende adres om uw wachtwoord opnieuw in te stellen:\n[Ec_reset_password_link]",
        "context": "",
        "term_plural": "",
        "reference": "ec-theme-vanilla.php:485 ec-theme-deluxe.php:442 ec-theme-supreme.php:442",
        "comment": ""
    },
    {
        "term": "Your account has been created",
        "definition": "Je account is aangemaakt",
        "context": "",
        "term_plural": "",
        "reference": "ec-theme-vanilla.php:500 ec-theme-deluxe.php:457 ec-theme-supreme.php:457",
        "comment": ""
    },
    {
        "term": "Thanks for creating an account on [ec_site_name].\nYour username is: [ec_user_login].\n\nYou can access your account area to view your orders and change your password here: [ec_account_link]",
        "definition": "Bedankt voor het maken van een account op [ec_site_name].\nJe gebruikersnaam is: [ec_user_login].\n\nU kunt uw accountgedeelte openen om uw bestellingen te bekijken en uw wachtwoord hier te wijzigen: [ec_account_link]",
        "context": "",
        "term_plural": "",
        "reference": "ec-theme-vanilla.php:511 ec-theme-deluxe.php:468 ec-theme-supreme.php:468",
        "comment": ""
    },
    {
        "term": "Password Regenerated Text",
        "definition": "Password Regenerated Text",
        "context": "",
        "term_plural": "",
        "reference": "ec-theme-vanilla.php:518 ec-theme-deluxe.php:475 ec-theme-supreme.php:475\nec-theme-woocommerce.php:421",
        "comment": ""
    },
    {
        "term": "Your password has been automatically generated: [ec_user_password]",
        "definition": "Uw wachtwoord is automatisch gegenereerd: [ec_user_password]",
        "context": "",
        "term_plural": "",
        "reference": "ec-theme-vanilla.php:521 ec-theme-deluxe.php:478 ec-theme-supreme.php:478\nec-theme-woocommerce.php:424",
        "comment": ""
    },
    {
        "term": "Email Width",
        "definition": "E-mail breedte",
        "context": "",
        "term_plural": "",
        "reference": "ec-theme-vanilla.php:534 ec-theme-deluxe.php:491 ec-theme-supreme.php:491",
        "comment": ""
    },
    {
        "term": "Background Color",
        "definition": "Achtergrond kleur",
        "context": "",
        "term_plural": "",
        "reference": "ec-theme-vanilla.php:546 ec-theme-deluxe.php:551 ec-theme-deluxe.php:999\nec-theme-supreme.php:551 ec-theme-supreme.php:999",
        "comment": ""
    },
    {
        "term": "Text Color",
        "definition": "Tekstkleur",
        "context": "",
        "term_plural": "",
        "reference": "ec-theme-vanilla.php:558 ec-theme-deluxe.php:563 ec-theme-supreme.php:563",
        "comment": ""
    },
    {
        "term": "Heading Color",
        "definition": "Kop kleur",
        "context": "",
        "term_plural": "",
        "reference": "ec-theme-vanilla.php:573",
        "comment": ""
    },
    {
        "term": "Text Accent Color",
        "definition": "Tekstaccentkleur",
        "context": "",
        "term_plural": "",
        "reference": "ec-theme-vanilla.php:585 ec-theme-deluxe.php:575 ec-theme-supreme.php:575",
        "comment": ""
    },
    {
        "term": "Main Heading size",
        "definition": "Hoofdkopgrootte",
        "context": "",
        "term_plural": "",
        "reference": "ec-theme-vanilla.php:597 ec-theme-deluxe.php:587 ec-theme-supreme.php:587",
        "comment": ""
    },
    {
        "term": "Product Images",
        "definition": "Productafbeeldingen",
        "context": "",
        "term_plural": "",
        "reference": "ec-theme-vanilla.php:609 ec-theme-deluxe.php:1011 ec-theme-supreme.php:1011\nec-theme-woocommerce.php:485",
        "comment": ""
    },
    {
        "term": "Logo",
        "definition": "Logo",
        "context": "",
        "term_plural": "",
        "reference": "ec-theme-vanilla.php:624 ec-theme-deluxe.php:630 ec-theme-supreme.php:630\nec-theme-woocommerce.php:502",
        "comment": ""
    },
    {
        "term": "Enter a URL or upload an image",
        "definition": "Voer een URL in of upload een afbeelding",
        "context": "",
        "term_plural": "",
        "reference": "ec-theme-vanilla.php:628 ec-theme-vanilla.php:667 ec-theme-vanilla.php:705\nec-theme-vanilla.php:743 ec-theme-vanilla.php:781 ec-theme-vanilla.php:819\nec-theme-vanilla.php:857 ec-theme-vanilla.php:872 ec-theme-deluxe.php:634\nec-theme-deluxe.php:671 ec-theme-deluxe.php:707 ec-theme-deluxe.php:743\nec-theme-deluxe.php:779 ec-theme-deluxe.php:815 ec-theme-deluxe.php:851\nec-theme-deluxe.php:1035 ec-theme-supreme.php:634 ec-theme-supreme.php:671\nec-theme-supreme.php:707 ec-theme-supreme.php:743 ec-theme-supreme.php:779\nec-theme-supreme.php:815 ec-theme-supreme.php:851 ec-theme-supreme.php:1035\nec-theme-woocommerce.php:506",
        "comment": ""
    },
    {
        "term": "Link 1 Text",
        "definition": "Link 1 Tekst",
        "context": "",
        "term_plural": "",
        "reference": "ec-theme-vanilla.php:639 ec-theme-deluxe.php:645 ec-theme-supreme.php:645",
        "comment": ""
    },
    {
        "term": "Link 1 URL",
        "definition": "Link 1 URL",
        "context": "",
        "term_plural": "",
        "reference": "ec-theme-vanilla.php:651 ec-theme-deluxe.php:656 ec-theme-supreme.php:656",
        "comment": ""
    },
    {
        "term": "Link 1 Image",
        "definition": "Link 1 afbeelding",
        "context": "",
        "term_plural": "",
        "reference": "ec-theme-vanilla.php:663 ec-theme-deluxe.php:667 ec-theme-supreme.php:667",
        "comment": ""
    },
    {
        "term": "Link 2 Text",
        "definition": "Link 2 Tekst",
        "context": "",
        "term_plural": "",
        "reference": "ec-theme-vanilla.php:677 ec-theme-deluxe.php:681 ec-theme-supreme.php:681",
        "comment": ""
    },
    {
        "term": "Link 2 URL",
        "definition": "Link 2 URL",
        "context": "",
        "term_plural": "",
        "reference": "ec-theme-vanilla.php:689 ec-theme-deluxe.php:692 ec-theme-supreme.php:692",
        "comment": ""
    },
    {
        "term": "Link 2 Image",
        "definition": "Link 2 afbeelding",
        "context": "",
        "term_plural": "",
        "reference": "ec-theme-vanilla.php:701 ec-theme-deluxe.php:703 ec-theme-supreme.php:703",
        "comment": ""
    },
    {
        "term": "Link 3 Text",
        "definition": "Link 3 Tekst",
        "context": "",
        "term_plural": "",
        "reference": "ec-theme-vanilla.php:715 ec-theme-deluxe.php:717 ec-theme-supreme.php:717",
        "comment": ""
    },
    {
        "term": "Link 3 URL",
        "definition": "Link 3 URL",
        "context": "",
        "term_plural": "",
        "reference": "ec-theme-vanilla.php:727 ec-theme-deluxe.php:728 ec-theme-supreme.php:728",
        "comment": ""
    },
    {
        "term": "Link 3 Image",
        "definition": "Link 3 afbeelding",
        "context": "",
        "term_plural": "",
        "reference": "ec-theme-vanilla.php:739 ec-theme-deluxe.php:739 ec-theme-supreme.php:739",
        "comment": ""
    },
    {
        "term": "Link 4 Text",
        "definition": "Link 4 Tekst",
        "context": "",
        "term_plural": "",
        "reference": "ec-theme-vanilla.php:753 ec-theme-deluxe.php:753 ec-theme-supreme.php:753",
        "comment": ""
    },
    {
        "term": "Link 4 URL",
        "definition": "Link 4 URL",
        "context": "",
        "term_plural": "",
        "reference": "ec-theme-vanilla.php:765 ec-theme-deluxe.php:764 ec-theme-supreme.php:764",
        "comment": ""
    },
    {
        "term": "Link 4 Image",
        "definition": "Link 4 afbeelding",
        "context": "",
        "term_plural": "",
        "reference": "ec-theme-vanilla.php:777 ec-theme-deluxe.php:775 ec-theme-supreme.php:775",
        "comment": ""
    },
    {
        "term": "Link 5 Text",
        "definition": "Link 5 Tekst",
        "context": "",
        "term_plural": "",
        "reference": "ec-theme-vanilla.php:791 ec-theme-deluxe.php:789 ec-theme-supreme.php:789",
        "comment": ""
    },
    {
        "term": "Link 5 URL",
        "definition": "Link 5 URL",
        "context": "",
        "term_plural": "",
        "reference": "ec-theme-vanilla.php:803 ec-theme-deluxe.php:800 ec-theme-supreme.php:800",
        "comment": ""
    },
    {
        "term": "Link 5 Image",
        "definition": "Link 5 afbeelding",
        "context": "",
        "term_plural": "",
        "reference": "ec-theme-vanilla.php:815 ec-theme-deluxe.php:811 ec-theme-supreme.php:811",
        "comment": ""
    },
    {
        "term": "Link 6 Text",
        "definition": "Link 6 Tekst",
        "context": "",
        "term_plural": "",
        "reference": "ec-theme-vanilla.php:829 ec-theme-deluxe.php:825 ec-theme-supreme.php:825",
        "comment": ""
    },
    {
        "term": "Link 6 URL",
        "definition": "Link 6 URL",
        "context": "",
        "term_plural": "",
        "reference": "ec-theme-vanilla.php:841 ec-theme-deluxe.php:836 ec-theme-supreme.php:836",
        "comment": ""
    },
    {
        "term": "Link 6 Image",
        "definition": "Link 6 afbeelding",
        "context": "",
        "term_plural": "",
        "reference": "ec-theme-vanilla.php:853 ec-theme-deluxe.php:847 ec-theme-supreme.php:847",
        "comment": ""
    },
    {
        "term": "Footer Image",
        "definition": "Voettekstafbeelding",
        "context": "",
        "term_plural": "",
        "reference": "ec-theme-vanilla.php:868",
        "comment": ""
    },
    {
        "term": "Footer Text",
        "definition": "Voettekst",
        "context": "",
        "term_plural": "",
        "reference": "ec-theme-vanilla.php:879 ec-theme-deluxe.php:1042 ec-theme-supreme.php:1042\nec-theme-woocommerce.php:513",
        "comment": ""
    },
    {
        "term": "You must be logged in",
        "definition": "je moet ingelogd zijn",
        "context": "",
        "term_plural": "",
        "reference": "ec-email-control.php:387 ec-email-control.php:424 ec-email-control.php:480\nec-email-control.php:545",
        "comment": ""
    },
    {
        "term": "Email Customizer",
        "definition": "Email Customizer",
        "context": "",
        "term_plural": "",
        "reference": "ec-email-control.php:581 ec-email-control.php:582 pages\/ec-admin-page.php:73",
        "comment": ""
    },
    {
        "term": "Preview and test emails as they will appear in mail clients when received.",
        "definition": "Bekijk voorbeelden van e-mails en test ze zoals ze in e-mailclients verschijnen wanneer ze worden ontvangen.",
        "context": "",
        "term_plural": "",
        "reference": "ec-email-control.php:635 ec-email-control.php:644",
        "comment": ""
    },
    {
        "term": "%sEmail Customizer for WooCommerce is inactive due to conflicts%sOur plugin will conflict with the following plugins and cannot be used while they are active: %s",
        "definition": "% sEmail Customizer voor WooCommerce is niet actief vanwege conflicten% sOnze plug-in zal conflicteren met de volgende plug-ins en kan niet worden gebruikt terwijl ze actief zijn:% s",
        "context": "",
        "term_plural": "",
        "reference": "ec-email-control.php:1274",
        "comment": ""
    },
    {
        "term": "%sEmail Customizer for WooCommerce needs WooCommerce%s %sWooCommerce%s must be active for Email Customizer to work. Please install & activate WooCommerce.",
        "definition": "% sEmail Customizer voor WooCommerce heeft WooCommerce nodig% s% sWooCommerce% s moet actief zijn om Email Customizer te laten werken. Installeer en activeer WooCommerce.",
        "context": "",
        "term_plural": "",
        "reference": "ec-email-control.php:1312",
        "comment": ""
    },
    {
        "term": "%sEmail Customizer for WooCommerce is inactive%s This version of Email Customizer requires WooCommerce %s or newer. For more information about our WooCommerce version support %sclick here%s.",
        "definition": "% sEmail Customizer voor WooCommerce is inactief% s Deze versie van Email Customizer vereist WooCommerce% s of nieuwer. Voor meer informatie over onze WooCommerce-versie ondersteuning% sclick hier% s.",
        "context": "",
        "term_plural": "",
        "reference": "ec-email-control.php:1329",
        "comment": ""
    },
    {
        "term": "Invoice for order [ec_order]",
        "definition": "Factuur voor bestelling [ec_order]",
        "context": "",
        "term_plural": "",
        "reference": "ec-theme-deluxe.php:356 ec-theme-deluxe.php:379 ec-theme-supreme.php:356\nec-theme-supreme.php:379",
        "comment": ""
    },
    {
        "term": "Border Radius",
        "definition": "Grensradius",
        "context": "",
        "term_plural": "",
        "reference": "ec-theme-deluxe.php:503 ec-theme-deluxe.php:987 ec-theme-supreme.php:503\nec-theme-supreme.php:987",
        "comment": ""
    },
    {
        "term": "Header Color",
        "definition": "Kop kleur",
        "context": "",
        "term_plural": "",
        "reference": "ec-theme-deluxe.php:515 ec-theme-supreme.php:515",
        "comment": ""
    },
    {
        "term": "Page Color",
        "definition": "Paginakleur",
        "context": "",
        "term_plural": "",
        "reference": "ec-theme-deluxe.php:539 ec-theme-supreme.php:539",
        "comment": ""
    },
    {
        "term": "Text Line Height",
        "definition": "Tekstlijnhoogte",
        "context": "",
        "term_plural": "",
        "reference": "ec-theme-deluxe.php:599 ec-theme-supreme.php:599",
        "comment": ""
    },
    {
        "term": "Logo Position",
        "definition": "Logo positie",
        "context": "",
        "term_plural": "",
        "reference": "ec-theme-deluxe.php:614 ec-theme-supreme.php:614",
        "comment": ""
    },
    {
        "term": "Font Size",
        "definition": "Lettertypegrootte",
        "context": "",
        "term_plural": "",
        "reference": "ec-theme-deluxe.php:863 ec-theme-supreme.php:863",
        "comment": ""
    },
    {
        "term": "Line Width",
        "definition": "Lijnbreedte",
        "context": "",
        "term_plural": "",
        "reference": "ec-theme-deluxe.php:875 ec-theme-supreme.php:875",
        "comment": ""
    },
    {
        "term": "Line Color",
        "definition": "Lijnkleur",
        "context": "",
        "term_plural": "",
        "reference": "ec-theme-deluxe.php:887 ec-theme-supreme.php:887",
        "comment": ""
    },
    {
        "term": "Divider Style",
        "definition": "Divider Style",
        "context": "",
        "term_plural": "",
        "reference": "ec-theme-deluxe.php:903 ec-theme-supreme.php:903",
        "comment": ""
    },
    {
        "term": "Divider Color",
        "definition": "Divider Color",
        "context": "",
        "term_plural": "",
        "reference": "ec-theme-deluxe.php:921 ec-theme-supreme.php:921",
        "comment": ""
    },
    {
        "term": "Divider Width",
        "definition": "Divider breedte",
        "context": "",
        "term_plural": "",
        "reference": "ec-theme-deluxe.php:933 ec-theme-supreme.php:933",
        "comment": ""
    },
    {
        "term": "Table Border Style",
        "definition": "Tabelrandstijl",
        "context": "",
        "term_plural": "",
        "reference": "ec-theme-deluxe.php:945 ec-theme-supreme.php:945",
        "comment": ""
    },
    {
        "term": "Border Color",
        "definition": "Rand kleur",
        "context": "",
        "term_plural": "",
        "reference": "ec-theme-deluxe.php:963 ec-theme-supreme.php:963",
        "comment": ""
    },
    {
        "term": "Border Width",
        "definition": "Grensbreedte",
        "context": "",
        "term_plural": "",
        "reference": "ec-theme-deluxe.php:975 ec-theme-supreme.php:975",
        "comment": ""
    },
    {
        "term": "Footer Left Image",
        "definition": "Footer Left Image",
        "context": "",
        "term_plural": "",
        "reference": "ec-theme-deluxe.php:1031 ec-theme-supreme.php:1031",
        "comment": ""
    },
    {
        "term": "New customer order",
        "definition": "Nieuwe klantorder",
        "context": "",
        "term_plural": "",
        "reference": "ec-theme-woocommerce.php:110",
        "comment": ""
    },
    {
        "term": "You have received an order from [ec_firstname] [ec_lastname]. The order is as follows:",
        "definition": "U hebt een bestelling ontvangen van [ec_firstname] [ec_lastname]. De volgorde is als volgt:",
        "context": "",
        "term_plural": "",
        "reference": "ec-theme-woocommerce.php:120",
        "comment": ""
    },
    {
        "term": "Your order has been received and is now being processed. Your order details are shown below for your reference:",
        "definition": "Uw bestelling is ontvangen en wordt nu verwerkt. Uw bestelling details worden hieronder getoond voor uw referentie:",
        "context": "",
        "term_plural": "",
        "reference": "ec-theme-woocommerce.php:220",
        "comment": ""
    },
    {
        "term": "Hi there. Your recent order on [ec_site_name] has been completed. Your order details are shown below for your reference:",
        "definition": "Hallo daar. Uw recente bestelling op [ec_site_name] is voltooid. Uw bestelling details worden hieronder getoond voor uw referentie:",
        "context": "",
        "term_plural": "",
        "reference": "ec-theme-woocommerce.php:245",
        "comment": ""
    },
    {
        "term": "Your order has been fully refunded",
        "definition": "Uw bestelling is volledig terugbetaald",
        "context": "",
        "term_plural": "",
        "reference": "ec-theme-woocommerce.php:260",
        "comment": ""
    },
    {
        "term": "Hi there. Your order on [ec_site_name] has been refunded.",
        "definition": "Hallo daar. Uw bestelling op [ec_site_name] is terugbetaald.",
        "context": "",
        "term_plural": "",
        "reference": "ec-theme-woocommerce.php:270",
        "comment": ""
    },
    {
        "term": "Hi there. Your order on [ec_site_name] has been partially refunded.",
        "definition": "Hallo daar. Uw bestelling op [ec_site_name] is gedeeltelijk terugbetaald.",
        "context": "",
        "term_plural": "",
        "reference": "ec-theme-woocommerce.php:292",
        "comment": ""
    },
    {
        "term": "Order [ec_order show='#,number' hide='container'] details",
        "definition": "Bestel [ec_order show = '#, nummer' hide = 'container'] details",
        "context": "",
        "term_plural": "",
        "reference": "ec-theme-woocommerce.php:307 ec-theme-woocommerce.php:329",
        "comment": ""
    },
    {
        "term": "An order has been created for you on [ec_site_link]. To pay for this order please use the following link: [ec_pay_link]",
        "definition": "Een bestelling is voor u gemaakt op [ec_site_link]. Gebruik de volgende link om voor deze bestelling te betalen: [ec_pay_link]",
        "context": "",
        "term_plural": "",
        "reference": "ec-theme-woocommerce.php:317",
        "comment": ""
    },
    {
        "term": "Hello, a note has just been added to your order:\n\n[ec_customer_note]\n\nFor your reference, your order details are shown below.\n\n",
        "definition": "Hallo, een opmerking is zojuist toegevoegd aan je bestelling:\n\n[Ec_customer_note]\n\nTer referentie worden uw bestelgegevens hieronder weergegeven.\n\n",
        "context": "",
        "term_plural": "",
        "reference": "ec-theme-woocommerce.php:364",
        "comment": ""
    },
    {
        "term": "Password Reset Instructions",
        "definition": "Wachtwoord Reset-instructies",
        "context": "",
        "term_plural": "",
        "reference": "ec-theme-woocommerce.php:379",
        "comment": ""
    },
    {
        "term": "Someone requested that the password be reset for the following account:\n\nUsername: [ec_user_login]\n\nIf this was a mistake, just ignore this email and nothing will happen.\n\nTo reset your password, visit the following address:\n[ec_reset_password_link]",
        "definition": "Iemand heeft verzocht om het wachtwoord opnieuw in te stellen voor het volgende account:\n\nGebruikersnaam: [ec_user_login]\n\nAls dit een vergissing was, negeer deze e-mail dan en er gebeurt niets.\n\nGa naar het volgende adres om uw wachtwoord opnieuw in te stellen:\n[Ec_reset_password_link]",
        "context": "",
        "term_plural": "",
        "reference": "ec-theme-woocommerce.php:389",
        "comment": ""
    },
    {
        "term": "Welcome to [ec_site_name hide='container']",
        "definition": "Welkom bij [ec_site_name hide = 'container']",
        "context": "",
        "term_plural": "",
        "reference": "ec-theme-woocommerce.php:404",
        "comment": ""
    },
    {
        "term": "Thanks for creating an account on [ec_site_name]. Your username is [ec_user_login].\n\nYou can access your account area to view your orders and change your password here: [ec_account_link].",
        "definition": "Bedankt voor het maken van een account op [ec_site_name]. Uw gebruikersnaam is [ec_user_login].\n\nU kunt uw accountgedeelte openen om uw bestellingen te bekijken en uw wachtwoord hier te wijzigen: [ec_account_link].",
        "context": "",
        "term_plural": "",
        "reference": "ec-theme-woocommerce.php:414",
        "comment": ""
    },
    {
        "term": "Base Color",
        "definition": "Basiskleur",
        "context": "",
        "term_plural": "",
        "reference": "ec-theme-woocommerce.php:437",
        "comment": ""
    },
    {
        "term": "Background Colour",
        "definition": "Achtergrondkleur",
        "context": "",
        "term_plural": "",
        "reference": "ec-theme-woocommerce.php:449",
        "comment": ""
    },
    {
        "term": "Body Background Colour",
        "definition": "Lichaams achtergrondkleur",
        "context": "",
        "term_plural": "",
        "reference": "ec-theme-woocommerce.php:461",
        "comment": ""
    },
    {
        "term": "Body Text Colour",
        "definition": "Tekstkleur hoofdtekst",
        "context": "",
        "term_plural": "",
        "reference": "ec-theme-woocommerce.php:473",
        "comment": ""
    },
    {
        "term": "[ec_site_name] \u2013 Powered by WooCommerce",
        "definition": "[ec_site_name] - Powered by WooCommerce",
        "context": "",
        "term_plural": "",
        "reference": "ec-theme-woocommerce.php:516",
        "comment": ""
    },
    {
        "term": "This shortcode cannot be used in this email",
        "definition": "Deze shortcode kan niet worden gebruikt in deze e-mail",
        "context": "",
        "term_plural": "",
        "reference": "includes\/ec-shortcodes.php:167 includes\/ec-shortcodes.php:265\nincludes\/ec-shortcodes.php:269 includes\/ec-shortcodes.php:527\nincludes\/ec-shortcodes.php:574",
        "comment": ""
    },
    {
        "term": "Order shortcodes cannot be used in this email",
        "definition": "Bestelkortingen kunnen niet worden gebruikt in deze e-mail",
        "context": "",
        "term_plural": "",
        "reference": "includes\/ec-shortcodes.php:173",
        "comment": ""
    },
    {
        "term": "Click here to reset your password",
        "definition": "Klik hier om uw wachtwoord opnieuw in te stellen",
        "context": "",
        "term_plural": "",
        "reference": "includes\/ec-shortcodes.php:490",
        "comment": ""
    },
    {
        "term": "Pay now",
        "definition": "Nu betalen",
        "context": "",
        "term_plural": "",
        "reference": "includes\/ec-shortcodes.php:583",
        "comment": ""
    },
    {
        "term": "Reset to:",
        "definition": "Reset naar:",
        "context": "",
        "term_plural": "",
        "reference": "includes\/ec-settings.php:113 includes\/ec-settings.php:168\nincludes\/ec-settings.php:223 includes\/ec-settings.php:291\nincludes\/ec-settings.php:378",
        "comment": ""
    },
    {
        "term": "Reset to default",
        "definition": "Reset naar standaard",
        "context": "",
        "term_plural": "",
        "reference": "includes\/ec-settings.php:114 includes\/ec-settings.php:169\nincludes\/ec-settings.php:224 includes\/ec-settings.php:292\nincludes\/ec-settings.php:379",
        "comment": ""
    },
    {
        "term": "Hard Crop?",
        "definition": "Hard gewas?",
        "context": "",
        "term_plural": "",
        "reference": "includes\/ec-settings.php:419",
        "comment": ""
    },
    {
        "term": "Select a page&hellip;",
        "definition": "Selecteer een pagina & hellip;",
        "context": "",
        "term_plural": "",
        "reference": "includes\/ec-settings.php:444",
        "comment": ""
    },
    {
        "term": "Choose a country&hellip;",
        "definition": "Kies een land & hellip;",
        "context": "",
        "term_plural": "",
        "reference": "includes\/ec-settings.php:472",
        "comment": ""
    },
    {
        "term": "Choose countries&hellip;",
        "definition": "Kies landen & hellip;",
        "context": "",
        "term_plural": "",
        "reference": "includes\/ec-settings.php:501",
        "comment": ""
    },
    {
        "term": "Select all",
        "definition": "Selecteer alles",
        "context": "",
        "term_plural": "",
        "reference": "includes\/ec-settings.php:507",
        "comment": ""
    },
    {
        "term": "Select none",
        "definition": "Niets selecteren",
        "context": "",
        "term_plural": "",
        "reference": "includes\/ec-settings.php:507",
        "comment": ""
    },
    {
        "term": "Theme IDs cannot exceed 20 characters in length",
        "definition": "Thema-ID's mogen niet langer zijn dan 20 tekens",
        "context": "",
        "term_plural": "",
        "reference": "includes\/ec-functions.php:44 includes\/ec-functions.php:45",
        "comment": ""
    },
    {
        "term": "Back",
        "definition": "Terug",
        "context": "",
        "term_plural": "",
        "reference": "pages\/ec-admin-page.php:64",
        "comment": ""
    },
    {
        "term": "Choose which email theme to preview. Then click 'Use' to use it for all your future WooCommerce emails.",
        "definition": "Kies welk e-mailthema een voorbeeld is. Klik vervolgens op 'Gebruik' om het te gebruiken voor al uw toekomstige WooCommerce e-mails.",
        "context": "",
        "term_plural": "",
        "reference": "pages\/ec-admin-page.php:83",
        "comment": ""
    },
    {
        "term": "Email Theme to show",
        "definition": "E-mailthema om te laten zien",
        "context": "",
        "term_plural": "",
        "reference": "pages\/ec-admin-page.php:84",
        "comment": ""
    },
    {
        "term": "WooCommerce (original, not editable)",
        "definition": "WooCommerce (origineel, niet bewerkbaar)",
        "context": "",
        "term_plural": "",
        "reference": "pages\/ec-admin-page.php:91",
        "comment": ""
    },
    {
        "term": "(WooCommerce update required)",
        "definition": "(WooCommerce-update vereist)",
        "context": "",
        "term_plural": "",
        "reference": "pages\/ec-admin-page.php:102",
        "comment": ""
    },
    {
        "term": "Don't Use",
        "definition": "Niet gebruiken",
        "context": "",
        "term_plural": "",
        "reference": "pages\/ec-admin-page.php:112",
        "comment": ""
    },
    {
        "term": "Use",
        "definition": "Gebruik",
        "context": "",
        "term_plural": "",
        "reference": "pages\/ec-admin-page.php:113",
        "comment": ""
    },
    {
        "term": "Choose which email type to preview.",
        "definition": "Kies welk e-mailtype u wilt bekijken.",
        "context": "",
        "term_plural": "",
        "reference": "pages\/ec-admin-page.php:122",
        "comment": ""
    },
    {
        "term": "Email Type to show",
        "definition": "E-mailtype om te tonen",
        "context": "",
        "term_plural": "",
        "reference": "pages\/ec-admin-page.php:123",
        "comment": ""
    },
    {
        "term": "Select one...",
        "definition": "Kies een...",
        "context": "",
        "term_plural": "",
        "reference": "pages\/ec-admin-page.php:130 pages\/ec-admin-page.php:183",
        "comment": ""
    },
    {
        "term": "Customize the email you're showing in the preview. Then click 'Save & Publish' to save your customizations.",
        "definition": "Pas de e-mail aan die u in het voorbeeld ziet. Klik vervolgens op 'Opslaan & publiceren' om uw aanpassingen op te slaan.",
        "context": "",
        "term_plural": "",
        "reference": "pages\/ec-admin-page.php:150",
        "comment": ""
    },
    {
        "term": "Customize",
        "definition": "Aanpassen",
        "context": "",
        "term_plural": "",
        "reference": "pages\/ec-admin-page.php:151 pages\/ec-admin-page.php:157",
        "comment": ""
    },
    {
        "term": "Get Customized Themes",
        "definition": "Krijg aangepaste thema's",
        "context": "",
        "term_plural": "",
        "reference": "pages\/ec-admin-page.php:162",
        "comment": ""
    },
    {
        "term": "Choose which order to use to populate the email preview.",
        "definition": "Kies de volgorde die u wilt gebruiken om het voorbeeld van de e-mail in te vullen.",
        "context": "",
        "term_plural": "",
        "reference": "pages\/ec-admin-page.php:170",
        "comment": ""
    },
    {
        "term": "Order to show",
        "definition": "Om te laten zien",
        "context": "",
        "term_plural": "",
        "reference": "pages\/ec-admin-page.php:171",
        "comment": ""
    },
    {
        "term": "There are no orders to preview...",
        "definition": "Er zijn geen bestellingen om een \u200b\u200bvoorbeeld te bekijken ...",
        "context": "",
        "term_plural": "",
        "reference": "pages\/ec-admin-page.php:190",
        "comment": ""
    },
    {
        "term": "...Showing the most recent %u orders",
        "definition": "... Toont de meest recente% u-bestellingen",
        "context": "",
        "term_plural": "",
        "reference": "pages\/ec-admin-page.php:210",
        "comment": ""
    },
    {
        "term": "More advanced debugging options.",
        "definition": "Meer geavanceerde opties voor foutopsporing.",
        "context": "",
        "term_plural": "",
        "reference": "pages\/ec-admin-page.php:220",
        "comment": ""
    },
    {
        "term": "Debugging",
        "definition": "debugging",
        "context": "",
        "term_plural": "",
        "reference": "pages\/ec-admin-page.php:221",
        "comment": ""
    },
    {
        "term": "Show Header & Template Info",
        "definition": "Show Header & Template Info",
        "context": "",
        "term_plural": "",
        "reference": "pages\/ec-admin-page.php:238",
        "comment": ""
    },
    {
        "term": "Show Error Notices",
        "definition": "Toon foutmeldingen",
        "context": "",
        "term_plural": "",
        "reference": "pages\/ec-admin-page.php:252",
        "comment": ""
    },
    {
        "term": "Send a test email to any address. Use a comma separated list to send to multiple addresses",
        "definition": "Stuur een testmail naar elk adres. Gebruik een door komma's gescheiden lijst om naar meerdere adressen te verzenden",
        "context": "",
        "term_plural": "",
        "reference": "pages\/ec-admin-page.php:264",
        "comment": ""
    },
    {
        "term": "Send a Test",
        "definition": "Stuur een test",
        "context": "",
        "term_plural": "",
        "reference": "pages\/ec-admin-page.php:265",
        "comment": ""
    },
    {
        "term": "Copy & paste any of these [shortcodes] to use dynamic text in your text.",
        "definition": "Kopieer en plak een van deze [shortcodes] om dynamische tekst in uw tekst te gebruiken.",
        "context": "",
        "term_plural": "",
        "reference": "pages\/ec-admin-page.php:375",
        "comment": ""
    },
    {
        "term": "Allowed Shortcodes:",
        "definition": "Toegestane shortcodes:",
        "context": "",
        "term_plural": "",
        "reference": "pages\/ec-admin-page.php:376",
        "comment": ""
    },
    {
        "term": "New",
        "definition": "nieuwe",
        "context": "",
        "term_plural": "",
        "reference": "pages\/ec-admin-page.php:398",
        "comment": ""
    },
    {
        "term": "For more shortcode documentation <a href=\"%s\" target=\"_blank\">click here<\/a>",
        "definition": "Voor meer informatie over shortcodes <a href=\"%s\" target=\"_blank\"> klik hier <\/a>",
        "context": "",
        "term_plural": "",
        "reference": "pages\/ec-admin-page.php:400",
        "comment": ""
    },
    {
        "term": "Cheatin&#8217; uh?",
        "definition": "Cheatin & # 8217; uh?",
        "context": "",
        "term_plural": "",
        "reference": "pages\/ec-preview-page.php:3",
        "comment": ""
    },
    {
        "term": "You'll need at least one order to use Email Customizer properly",
        "definition": "Je hebt minimaal \u00e9\u00e9n bestelling nodig om Email Customizer correct te gebruiken",
        "context": "",
        "term_plural": "",
        "reference": "pages\/ec-preview-page.php:73",
        "comment": ""
    },
    {
        "term": "You'll need at least one order to preview all the email types correctly",
        "definition": "U hebt minimaal \u00e9\u00e9n bestelling nodig om alle e-mailtypen op de juiste manier te bekijken",
        "context": "",
        "term_plural": "",
        "reference": "pages\/ec-preview-page.php:74",
        "comment": ""
    },
    {
        "term": "Simply follow your store's checkout process to create at least one order, then return here to preview all the possible email types.",
        "definition": "Volg gewoon het afrekenproces van uw winkel om minimaal \u00e9\u00e9n bestelling te maken en keer hier terug om een \u200b\u200bvoorbeeld van alle mogelijke e-mailtypen te bekijken.",
        "context": "",
        "term_plural": "",
        "reference": "pages\/ec-preview-page.php:76",
        "comment": ""
    },
    {
        "term": "You need to update WooCommerce in order to use this theme",
        "definition": "U moet WooCommerce bijwerken om dit thema te gebruiken",
        "context": "",
        "term_plural": "",
        "reference": "pages\/ec-preview-page.php:144",
        "comment": ""
    },
    {
        "term": "The theme you selected requires the latest version of WooCommerce - please first update, then return here and select it.",
        "definition": "Het geselecteerde thema vereist de nieuwste versie van WooCommerce - update deze eerst, keer dan hier terug en selecteer deze.",
        "context": "",
        "term_plural": "",
        "reference": "pages\/ec-preview-page.php:146",
        "comment": ""
    },
    {
        "term": "We've not seen this email type from this third party plugin before",
        "definition": "We hebben dit e-mailtype nog niet eerder gezien van deze externe plug-in",
        "context": "",
        "term_plural": "",
        "reference": "pages\/ec-preview-page.php:160",
        "comment": ""
    },
    {
        "term": "Don't worry, the email will send fine, you just can't preview it. Customizing it - here are your options. Option 1: choose to show one of the other known emails and customize it (colors, sizes, etc) - the styling will be inherited if they have included the header and footer in the normal way. Option 2: choose to dismiss this message and see if it just works. If you see a blank screen then use option 1.",
        "definition": "Maak je geen zorgen, de e-mail stuurt goed, je kunt het gewoon niet bekijken. Aanpassen - hier zijn uw opties. Optie 1: kies ervoor om een \u200b\u200bvan de andere bekende e-mails weer te geven en deze aan te passen (kleuren, grootten, enz.) - de styling wordt overgenomen als ze de kop- en voettekst op de normale manier hebben opgenomen. Optie 2: kies ervoor om dit bericht te sluiten en kijk of het gewoon werkt. Als u een leeg scherm ziet, gebruikt u optie 1.",
        "context": "",
        "term_plural": "",
        "reference": "pages\/ec-preview-page.php:162",
        "comment": ""
    },
    {
        "term": "Dismiss",
        "definition": "ontslaan",
        "context": "",
        "term_plural": "",
        "reference": "pages\/ec-preview-page.php:163",
        "comment": ""
    },
    {
        "term": "Header Info",
        "definition": "Header Info",
        "context": "",
        "term_plural": "",
        "reference": "pages\/ec-preview-page.php:180",
        "comment": ""
    },
    {
        "term": "The header infomration that will be sent with the current email. This can be changed in WooCommerce Settings > Emails, or simply click Edit next to the relevant field to be taken there.",
        "definition": "De header-infomratie die met de huidige e-mail wordt verzonden. Dit kan worden gewijzigd in WooCommerce-instellingen> E-mails of klik op Bewerken naast het relevante veld om daar naartoe te gaan.",
        "context": "",
        "term_plural": "",
        "reference": "pages\/ec-preview-page.php:181",
        "comment": ""
    },
    {
        "term": "Subject",
        "definition": "Onderwerpen",
        "context": "",
        "term_plural": "",
        "reference": "pages\/ec-preview-page.php:187",
        "comment": ""
    },
    {
        "term": "Edit",
        "definition": "Bewerk",
        "context": "",
        "term_plural": "",
        "reference": "pages\/ec-preview-page.php:192 pages\/ec-preview-page.php:203\npages\/ec-preview-page.php:214",
        "comment": ""
    },
    {
        "term": "From Email",
        "definition": "Van email",
        "context": "",
        "term_plural": "",
        "reference": "pages\/ec-preview-page.php:198",
        "comment": ""
    },
    {
        "term": "From Name",
        "definition": "Van naam",
        "context": "",
        "term_plural": "",
        "reference": "pages\/ec-preview-page.php:209",
        "comment": ""
    },
    {
        "term": "To Email",
        "definition": "Emailen",
        "context": "",
        "term_plural": "",
        "reference": "pages\/ec-preview-page.php:220",
        "comment": ""
    },
    {
        "term": "Templates In This Email",
        "definition": "Sjablonen in deze e-mail",
        "context": "",
        "term_plural": "",
        "reference": "pages\/ec-preview-page.php:229",
        "comment": ""
    },
    {
        "term": "Email Customizer Default Templates",
        "definition": "E-mail Customizer standaardsjablonen",
        "context": "",
        "term_plural": "",
        "reference": "pages\/ec-preview-page.php:258",
        "comment": ""
    },
    {
        "term": "Non Email Customizer Templates",
        "definition": "Niet-e-mail aanpassersjablonen",
        "context": "",
        "term_plural": "",
        "reference": "pages\/ec-preview-page.php:262",
        "comment": ""
    },
    {
        "term": "Overridden Templates",
        "definition": "Overgeschreven sjablonen",
        "context": "",
        "term_plural": "",
        "reference": "pages\/ec-preview-page.php:266",
        "comment": ""
    },
    {
        "term": "<strong>Email Customizer Default Templates<\/strong> are those found inside our plugin folder. We update these templates when to incorporate any changes that WooCommerce, or the other plugins we support e.g Subscription and Bookings, make to theirs. If you want to customize these templates then please don't edit them here (in our plugin folder) as your changes will be lost next time you update. Rather use the suggested Template Overriding method explained below which will maintain your changes after updating.<br \/>\n<strong>Non Email Customizer Templates<\/strong> are templates being pulled in from 3rd party plugins that we have chosen not to, or don't yet, support. Our emails simply include the code from these templates at the time the email is sent. Usually our header and footer are used and their template is used for the main content or body. These templates can be customized in the same way using the template override method explained below.<br\/>\n<strong>Overridden Templates<\/strong> are templates that you have customized and overridden using the method described in our <a href=\"https:\/\/www.cxthemes.com\/documentation\/email-customizer\/customize-emails-by-overriding-templates-via-your-theme\/\" target=\"_blank\">Customize Emails by Overriding Templates via your Theme documentation<\/a>. You will be responsible for copying any future code changes we make to our templates over to these custom overridden templates.",
        "definition": "<strong> Standaardsjablonen voor e-mailaanpassers <\/ strong> zijn die in onze plug-insmap. We werken deze sjablonen bij wanneer wijzigingen moeten worden aangebracht die WooCommerce of de andere plug-ins die we ondersteunen, bijvoorbeeld Abonnement en Boekingen, voor die van hen maken. Als u deze sjablonen wilt aanpassen, moet u ze hier niet bewerken (in onze map voor invoegtoepassingen), omdat uw wijzigingen de volgende keer dat u werkt, verloren zullen gaan. Gebruik liever de voorgestelde methode voor het negeren van sjablonen die hieronder wordt beschreven en die uw wijzigingen bijhoudt na het bijwerken. <br \/>\n<strong> Niet-e-mail aanpassersjablonen <\/ strong> zijn sjablonen die worden binnengehaald van plug-ins van derden die we hebben gekozen om niet te ondersteunen, of nog niet ondersteunen. Onze e-mails bevatten simpelweg de code van deze sjablonen op het moment dat de e-mail wordt verzonden. Meestal worden onze kop- en voettekst gebruikt en wordt hun sjabloon gebruikt voor de hoofdinhoud of hoofdtekst. Deze sjablonen kunnen op dezelfde manier worden aangepast met behulp van de sjabloonoverschrijvingsmethode die hieronder wordt uitgelegd. <br\/>\n<strong> Overgeschreven sjablonen <\/ strong> zijn sjablonen die u hebt aangepast en op non-actief gesteld met de methode die wordt beschreven in onze <a href = \"https:\/\/www.cxthemes.com\/documentation\/email-customizer\/customize-emails-by- overriding-templates-via-your-theme \/ \"target =\" _ blank \"> E-mails aanpassen door templates te overschrijven via uw Themadocumentatie <\/a>. U bent verantwoordelijk voor het kopi\u00ebren van eventuele toekomstige wijzigingen in de code die we aanbrengen in onze sjablonen naar deze aangepaste, overschreven sjablonen.",
        "context": "",
        "term_plural": "",
        "reference": "pages\/ec-preview-page.php:271",
        "comment": ""
    },
    {
        "term": "Please register on the Plugins page to get this update",
        "definition": "Meld u aan op de pagina Plug-ins om deze update te krijgen",
        "context": "",
        "term_plural": "",
        "reference": "includes\/updates\/cxthemes-plugin-update-checker.php:95",
        "comment": ""
    },
    {
        "term": "To get automatic updates you need to input your valid purchase code, for our product, from Envato. The purchase code looks like: <code>f128a5a1-5a1c-4e4e-82ec-a12b3c4d5e6f<\/code> and should have been emailed to you when you bought our plugin, or you can retrieve it by logging into <a href=\"http:\/\/codecanyon.net\/\" target=\"_blank\">CodeCanyon.net<\/a> go to Downloads > <em>Plugin Name<\/em> > Download > License certificate & purchase code.",
        "definition": "Voor automatische updates moet u uw geldige aankoopcode voor ons product invoeren bij Envato. De aankoopcode ziet er als volgt uit: <code> f128a5a1-5a1c-4e4e-82ec-a12b3c4d5e6f <\/ code> en deze moet naar u zijn gemaild toen u onze plug-in kocht, of u kunt deze ophalen door u aan te melden bij <a href = \"http: \/\/codecanyon.net\/ \"target =\" _ blank \"> CodeCanyon.net <\/a> ga naar Downloads> <em> Naam invoegtoepassing <\/ em>> Download> Licentiecertificaat en aankoopcode.",
        "context": "",
        "term_plural": "",
        "reference": "includes\/updates\/cxthemes-plugin-update-checker.php:197",
        "comment": ""
    },
    {
        "term": "That is not a valid purchase code format. It should look like: <code>f128a5a1-5a1c-4e4e-82ec-a12b3c4d5e6f<\/code>.",
        "definition": "Dat is geen geldig indelingsformaat. Het moet er uitzien als: <code> f128a5a1-5a1c-4e4e-82ec-a12b3c4d5e6f <\/ code>.",
        "context": "",
        "term_plural": "",
        "reference": "includes\/updates\/cxthemes-plugin-update-checker.php:206",
        "comment": ""
    },
    {
        "term": "You are unable to connect to our update server at this time. Please check your connection, or try again later.",
        "definition": "U kunt op dit moment geen verbinding maken met onze updateserver. Controleer je verbinding of probeer het later opnieuw.",
        "context": "",
        "term_plural": "",
        "reference": "includes\/updates\/cxthemes-plugin-update-checker.php:212",
        "comment": ""
    },
    {
        "term": "It doesn't seem like you have purchased our plugin yet. Please <a href='#'>purchase it from CodeCanyon<\/a> to get access to support and updates.",
        "definition": "Het lijkt er niet op dat je onze plug-in al hebt gekocht. <a href='#'> koop het via CodeCanyon <\/a> om toegang te krijgen tot ondersteuning en updates.",
        "context": "",
        "term_plural": "",
        "reference": "includes\/updates\/cxthemes-plugin-update-checker.php:218",
        "comment": ""
    },
    {
        "term": "Thanks. You're registered and can now receive updates.",
        "definition": "Bedankt. U bent geregistreerd en kunt nu updates ontvangen.",
        "context": "",
        "term_plural": "",
        "reference": "includes\/updates\/cxthemes-plugin-update-checker.php:224",
        "comment": ""
    },
    {
        "term": "Purchase Code",
        "definition": "Aankoopcode",
        "context": "",
        "term_plural": "",
        "reference": "includes\/updates\/cxthemes-plugin-update-checker.php:234",
        "comment": ""
    },
    {
        "term": "Save",
        "definition": "Save",
        "context": "",
        "term_plural": "",
        "reference": "includes\/updates\/cxthemes-plugin-update-checker.php:236",
        "comment": ""
    },
    {
        "term": "Register for Updates",
        "definition": "Registreer voor updates",
        "context": "",
        "term_plural": "",
        "reference": "includes\/updates\/cxthemes-plugin-update-checker.php:265",
        "comment": ""
    },
    {
        "term": "<em><a href=\"%s\">Register here<\/a> to get this update<\/em>",
        "definition": "<em> <a href=\"%s\"> Registreer hier <\/a> om deze update te ontvangen <\/ em>",
        "context": "",
        "term_plural": "",
        "reference": "includes\/updates\/cxthemes-plugin-update-checker.php:265",
        "comment": ""
    },
    {
        "term": "Edit registration",
        "definition": "Bewerk registratie",
        "context": "",
        "term_plural": "",
        "reference": "includes\/updates\/cxthemes-plugin-update-checker.php:272",
        "comment": ""
    },
    {
        "term": "Product Image",
        "definition": "product afbeelding",
        "context": "",
        "term_plural": "",
        "reference": "templates-wc2.5-wc2.9\/emails\/deluxe\/email-order-items.php:28\ntemplates-wc2.5-wc2.9\/emails\/supreme\/email-order-items.php:28\ntemplates-wc2.5-wc2.9\/emails\/vanilla\/email-order-items.php:28",
        "comment": ""
    },
    {
        "term": "If admin sets auto generated passwords",
        "definition": "Als admin automatisch gegenereerde wachtwoorden instelt",
        "context": "",
        "term_plural": "",
        "reference": "templates-wc2.5-wc2.9\/emails\/deluxe\/customer-new-account.php:25\ntemplates-wc2.5-wc2.9\/emails\/supreme\/customer-new-account.php:25\ntemplates-wc2.5-wc2.9\/emails\/vanilla\/customer-new-account.php:26\ntemplates\/emails\/deluxe\/customer-new-account.php:25\ntemplates\/emails\/supreme\/customer-new-account.php:25\ntemplates\/emails\/vanilla\/customer-new-account.php:25",
        "comment": ""
    },
    {
        "term": "Billing address",
        "definition": "Facturatie adres",
        "context": "",
        "term_plural": "",
        "reference": "templates-wc2.5-wc2.9\/emails\/deluxe\/email-addresses.php:13\ntemplates-wc2.5-wc2.9\/emails\/supreme\/email-addresses.php:13\ntemplates\/emails\/deluxe\/email-addresses.php:13\ntemplates\/emails\/supreme\/email-addresses.php:13",
        "comment": ""
    },
    {
        "term": "Shipping address",
        "definition": "Verzendingsadres",
        "context": "",
        "term_plural": "",
        "reference": "templates-wc2.5-wc2.9\/emails\/deluxe\/email-addresses.php:18\ntemplates-wc2.5-wc2.9\/emails\/supreme\/email-addresses.php:18\ntemplates\/emails\/deluxe\/email-addresses.php:18\ntemplates\/emails\/supreme\/email-addresses.php:18",
        "comment": ""
    },
    {
        "term": "Payment Pending",
        "definition": "Betaling in behandeling",
        "context": "",
        "term_plural": "",
        "reference": "templates-wc2.5-wc2.9\/emails\/deluxe\/customer-invoice.php:25\ntemplates-wc2.5-wc2.9\/emails\/supreme\/customer-invoice.php:25\ntemplates-wc2.5-wc2.9\/emails\/vanilla\/customer-invoice.php:25\ntemplates\/emails\/deluxe\/customer-invoice.php:25\ntemplates\/emails\/supreme\/customer-invoice.php:25\ntemplates\/emails\/vanilla\/customer-invoice.php:25",
        "comment": ""
    },
    {
        "term": "Payment Complete",
        "definition": "Betaling voltooid",
        "context": "",
        "term_plural": "",
        "reference": "templates-wc2.5-wc2.9\/emails\/deluxe\/customer-invoice.php:41\ntemplates-wc2.5-wc2.9\/emails\/supreme\/customer-invoice.php:41\ntemplates-wc2.5-wc2.9\/emails\/vanilla\/customer-invoice.php:41\ntemplates\/emails\/deluxe\/customer-invoice.php:41\ntemplates\/emails\/supreme\/customer-invoice.php:41\ntemplates\/emails\/vanilla\/customer-invoice.php:41",
        "comment": ""
    },
    {
        "term": "Customer details",
        "definition": "Klant details",
        "context": "",
        "term_plural": "",
        "reference": "templates-wc2.5-wc2.9\/emails\/deluxe\/email-customer-details.php:11\ntemplates-wc2.5-wc2.9\/emails\/supreme\/email-customer-details.php:11\ntemplates\/emails\/deluxe\/email-customer-details.php:11\ntemplates\/emails\/supreme\/email-customer-details.php:11",
        "comment": ""
    },
    {
        "term": "Order Details",
        "definition": "Bestel Details",
        "context": "",
        "term_plural": "",
        "reference": "templates-wc2.5-wc2.9\/emails\/deluxe\/email-order-details.php:17\ntemplates-wc2.5-wc2.9\/emails\/supreme\/email-order-details.php:17\ntemplates\/emails\/deluxe\/email-order-details.php:17\ntemplates\/emails\/supreme\/email-order-details.php:17",
        "comment": ""
    },
    {
        "term": "Order Number:",
        "definition": "Bestellingsnummer:",
        "context": "",
        "term_plural": "",
        "reference": "templates-wc2.5-wc2.9\/emails\/deluxe\/email-order-details.php:23\ntemplates-wc2.5-wc2.9\/emails\/supreme\/email-order-details.php:23\ntemplates-wc2.5-wc2.9\/emails\/vanilla\/email-order-details.php:24\ntemplates\/emails\/deluxe\/email-order-details.php:23\ntemplates\/emails\/supreme\/email-order-details.php:23\ntemplates\/emails\/vanilla\/email-order-details.php:24",
        "comment": ""
    },
    {
        "term": "Order Date:",
        "definition": "Besteldatum:",
        "context": "",
        "term_plural": "",
        "reference": "templates-wc2.5-wc2.9\/emails\/deluxe\/email-order-details.php:33\ntemplates-wc2.5-wc2.9\/emails\/supreme\/email-order-details.php:33\ntemplates-wc2.5-wc2.9\/emails\/vanilla\/email-order-details.php:33\ntemplates\/emails\/deluxe\/email-order-details.php:33\ntemplates\/emails\/supreme\/email-order-details.php:33\ntemplates\/emails\/vanilla\/email-order-details.php:33",
        "comment": ""
    },
    {
        "term": "Product",
        "definition": "Artikel",
        "context": "",
        "term_plural": "",
        "reference": "templates-wc2.5-wc2.9\/emails\/deluxe\/email-order-details.php:43\ntemplates-wc2.5-wc2.9\/emails\/supreme\/email-order-details.php:43\ntemplates-wc2.5-wc2.9\/emails\/vanilla\/email-order-details.php:45\ntemplates\/emails\/deluxe\/email-order-details.php:43\ntemplates\/emails\/supreme\/email-order-details.php:43\ntemplates\/emails\/vanilla\/email-order-details.php:45",
        "comment": ""
    },
    {
        "term": "Quantity",
        "definition": "Aantal stuks",
        "context": "",
        "term_plural": "",
        "reference": "templates-wc2.5-wc2.9\/emails\/deluxe\/email-order-details.php:44\ntemplates-wc2.5-wc2.9\/emails\/supreme\/email-order-details.php:44\ntemplates-wc2.5-wc2.9\/emails\/vanilla\/email-order-details.php:46\ntemplates\/emails\/deluxe\/email-order-details.php:44\ntemplates\/emails\/supreme\/email-order-details.php:44\ntemplates\/emails\/vanilla\/email-order-details.php:46",
        "comment": ""
    },
    {
        "term": "Price",
        "definition": "Prijs",
        "context": "",
        "term_plural": "",
        "reference": "templates-wc2.5-wc2.9\/emails\/deluxe\/email-order-details.php:45\ntemplates-wc2.5-wc2.9\/emails\/supreme\/email-order-details.php:45\ntemplates-wc2.5-wc2.9\/emails\/vanilla\/email-order-details.php:47\ntemplates\/emails\/deluxe\/email-order-details.php:45\ntemplates\/emails\/supreme\/email-order-details.php:45\ntemplates\/emails\/vanilla\/email-order-details.php:47",
        "comment": ""
    },
    {
        "term": "Partial Refund",
        "definition": "Gedeeltelijke terugbetaling",
        "context": "",
        "term_plural": "",
        "reference": "templates-wc2.5-wc2.9\/emails\/deluxe\/customer-refunded-order.php:25\ntemplates-wc2.5-wc2.9\/emails\/supreme\/customer-refunded-order.php:25\ntemplates-wc2.5-wc2.9\/emails\/vanilla\/customer-refunded-order.php:26\ntemplates\/emails\/deluxe\/customer-refunded-order.php:25\ntemplates\/emails\/supreme\/customer-refunded-order.php:25\ntemplates\/emails\/vanilla\/customer-refunded-order.php:25",
        "comment": ""
    },
    {
        "term": "Refund",
        "definition": "Terugbetaling",
        "context": "",
        "term_plural": "",
        "reference": "templates-wc2.5-wc2.9\/emails\/deluxe\/customer-refunded-order.php:41\ntemplates-wc2.5-wc2.9\/emails\/supreme\/customer-refunded-order.php:41\ntemplates-wc2.5-wc2.9\/emails\/vanilla\/customer-refunded-order.php:42\ntemplates\/emails\/deluxe\/customer-refunded-order.php:41\ntemplates\/emails\/supreme\/customer-refunded-order.php:41\ntemplates\/emails\/vanilla\/customer-refunded-order.php:41",
        "comment": ""
    },
    {
        "term": "Billing Address",
        "definition": "Facturatie adres",
        "context": "",
        "term_plural": "",
        "reference": "templates-wc2.5-wc2.9\/emails\/vanilla\/email-addresses.php:13\ntemplates\/emails\/vanilla\/email-addresses.php:13",
        "comment": ""
    },
    {
        "term": "Shipping Address",
        "definition": "Verzendingsadres",
        "context": "",
        "term_plural": "",
        "reference": "templates-wc2.5-wc2.9\/emails\/vanilla\/email-addresses.php:18\ntemplates\/emails\/vanilla\/email-addresses.php:18",
        "comment": ""
    },
    {
        "term": "Customer Details",
        "definition": "Klant details",
        "context": "",
        "term_plural": "",
        "reference": "templates-wc2.5-wc2.9\/emails\/vanilla\/email-customer-details.php:11\ntemplates\/emails\/vanilla\/email-customer-details.php:11",
        "comment": ""
    },
    {
        "term": "Product image",
        "definition": "Product afbeelding",
        "context": "",
        "term_plural": "",
        "reference": "templates\/emails\/deluxe\/email-order-items.php:27\ntemplates\/emails\/supreme\/email-order-items.php:27\ntemplates\/emails\/vanilla\/email-order-items.php:27",
        "comment": ""
    },
    {
        "term": "WooCommerce Email Customizer",
        "definition": "WooCommerce Email Customizer",
        "context": "",
        "term_plural": "",
        "reference": "",
        "comment": "Name of the plugin"
    },
    {
        "term": "WooCommerce Email Customizer plugin allows you to fully customize the styling, colors, logo and text in the emails sent from your WooCommerce store.",
        "definition": "WooCommerce Email Customizer plug-in stelt u in staat om de styling, kleuren, logo en tekst volledig aan te passen in de e-mails verzonden vanuit uw WooCommerce-winkel.",
        "context": "",
        "term_plural": "",
        "reference": "",
        "comment": "Description of the plugin"
    },
    {
        "term": "cxThemes",
        "definition": "cxThemes",
        "context": "",
        "term_plural": "",
        "reference": "",
        "comment": "URI of the plugin\nAuthor URI of the plugin\nAuthor of the plugin"
    },
    {
        "term": "Text",
        "definition": "Tekst",
        "context": "",
        "term_plural": "",
        "reference": "ec-theme-vanilla.php:121 ec-theme-deluxe.php:78 ec-theme-supreme.php:78\nec-theme-woocommerce.php:60",
        "comment": ""
    },
    {
        "term": "Appearance",
        "definition": "Uiterlijk",
        "context": "",
        "term_plural": "",
        "reference": "ec-theme-vanilla.php:127 ec-theme-deluxe.php:84 ec-theme-supreme.php:84\nec-theme-woocommerce.php:66",
        "comment": ""
    },
    {
        "term": "Header",
        "definition": "hoofd",
        "context": "",
        "term_plural": "",
        "reference": "ec-theme-vanilla.php:133 ec-theme-deluxe.php:90 ec-theme-supreme.php:90\nec-theme-woocommerce.php:72",
        "comment": ""
    },
    {
        "term": "Links",
        "definition": "Links",
        "context": "",
        "term_plural": "",
        "reference": "ec-theme-vanilla.php:139 ec-theme-deluxe.php:96 ec-theme-supreme.php:96",
        "comment": ""
    },
    {
        "term": "Section Headings",
        "definition": "Sectiekoppen",
        "context": "",
        "term_plural": "",
        "reference": "ec-theme-vanilla.php:145 ec-theme-deluxe.php:102 ec-theme-supreme.php:102",
        "comment": ""
    },
    {
        "term": "Order Items Table",
        "definition": "Tabel volgorde artikelen",
        "context": "",
        "term_plural": "",
        "reference": "ec-theme-vanilla.php:151 ec-theme-deluxe.php:108 ec-theme-supreme.php:108",
        "comment": ""
    },
    {
        "term": "Footer",
        "definition": "footer",
        "context": "",
        "term_plural": "",
        "reference": "ec-theme-vanilla.php:157 ec-theme-deluxe.php:114 ec-theme-supreme.php:114\nec-theme-woocommerce.php:78",
        "comment": ""
    },
    {
        "term": "Custom CSS",
        "definition": "Aangepaste CSS",
        "context": "",
        "term_plural": "",
        "reference": "ec-theme-vanilla.php:163 ec-theme-deluxe.php:120 ec-theme-supreme.php:120",
        "comment": ""
    },
    {
        "term": "Heading",
        "definition": "titel",
        "context": "",
        "term_plural": "",
        "reference": "ec-theme-vanilla.php:192 ec-theme-vanilla.php:218 ec-theme-vanilla.php:244\nec-theme-vanilla.php:270 ec-theme-vanilla.php:295 ec-theme-vanilla.php:321\nec-theme-vanilla.php:445 ec-theme-vanilla.php:471 ec-theme-vanilla.php:497\nec-theme-deluxe.php:149 ec-theme-deluxe.php:175 ec-theme-deluxe.php:201\nec-theme-deluxe.php:227 ec-theme-deluxe.php:252 ec-theme-deluxe.php:278\nec-theme-deluxe.php:402 ec-theme-deluxe.php:428 ec-theme-deluxe.php:454\nec-theme-supreme.php:149 ec-theme-supreme.php:175 ec-theme-supreme.php:201\nec-theme-supreme.php:227 ec-theme-supreme.php:252 ec-theme-supreme.php:278\nec-theme-supreme.php:402 ec-theme-supreme.php:428 ec-theme-supreme.php:454\nec-theme-woocommerce.php:107 ec-theme-woocommerce.php:132\nec-theme-woocommerce.php:157 ec-theme-woocommerce.php:182\nec-theme-woocommerce.php:207 ec-theme-woocommerce.php:232\nec-theme-woocommerce.php:351 ec-theme-woocommerce.php:376\nec-theme-woocommerce.php:401",
        "comment": ""
    },
    {
        "term": "New order received!",
        "definition": "Nieuwe bestelling ontvangen!",
        "context": "",
        "term_plural": "",
        "reference": "ec-theme-vanilla.php:195 ec-theme-deluxe.php:152 ec-theme-supreme.php:152",
        "comment": ""
    },
    {
        "term": "Main Text",
        "definition": "Hoofdtekst",
        "context": "",
        "term_plural": "",
        "reference": "ec-theme-vanilla.php:203 ec-theme-vanilla.php:229 ec-theme-vanilla.php:255\nec-theme-vanilla.php:280 ec-theme-vanilla.php:306 ec-theme-vanilla.php:332\nec-theme-vanilla.php:358 ec-theme-vanilla.php:381 ec-theme-vanilla.php:407\nec-theme-vanilla.php:430 ec-theme-vanilla.php:456 ec-theme-vanilla.php:482\nec-theme-vanilla.php:508 ec-theme-deluxe.php:160 ec-theme-deluxe.php:186\nec-theme-deluxe.php:212 ec-theme-deluxe.php:237 ec-theme-deluxe.php:263\nec-theme-deluxe.php:289 ec-theme-deluxe.php:315 ec-theme-deluxe.php:338\nec-theme-deluxe.php:364 ec-theme-deluxe.php:387 ec-theme-deluxe.php:413\nec-theme-deluxe.php:439 ec-theme-deluxe.php:465 ec-theme-supreme.php:160\nec-theme-supreme.php:186 ec-theme-supreme.php:212 ec-theme-supreme.php:237\nec-theme-supreme.php:263 ec-theme-supreme.php:289 ec-theme-supreme.php:315\nec-theme-supreme.php:338 ec-theme-supreme.php:364 ec-theme-supreme.php:387\nec-theme-supreme.php:413 ec-theme-supreme.php:439 ec-theme-supreme.php:465\nec-theme-woocommerce.php:117 ec-theme-woocommerce.php:142\nec-theme-woocommerce.php:167 ec-theme-woocommerce.php:192\nec-theme-woocommerce.php:217 ec-theme-woocommerce.php:242\nec-theme-woocommerce.php:267 ec-theme-woocommerce.php:289\nec-theme-woocommerce.php:314 ec-theme-woocommerce.php:336\nec-theme-woocommerce.php:361 ec-theme-woocommerce.php:386\nec-theme-woocommerce.php:411",
        "comment": ""
    },
    {
        "term": "You have received an order from [ec_firstname] [ec_lastname].\n\nTheir order is as follows: [ec_order]",
        "definition": "U hebt een bestelling ontvangen van [ec_firstname] [ec_lastname].\n\nHun volgorde is als volgt: [ec_order]",
        "context": "",
        "term_plural": "",
        "reference": "ec-theme-vanilla.php:206 ec-theme-deluxe.php:163 ec-theme-supreme.php:163",
        "comment": ""
    },
    {
        "term": "Cancelled order",
        "definition": "Geannuleerde bestelling",
        "context": "",
        "term_plural": "",
        "reference": "ec-theme-vanilla.php:221 ec-theme-deluxe.php:178 ec-theme-supreme.php:178\nec-theme-woocommerce.php:135",
        "comment": ""
    },
    {
        "term": "The order [ec_order] for [ec_firstname] [ec_lastname] has been cancelled.",
        "definition": "De bestelling [ec_order] voor [ec_firstname] [ec_lastname] is geannuleerd.",
        "context": "",
        "term_plural": "",
        "reference": "ec-theme-vanilla.php:232 ec-theme-deluxe.php:189 ec-theme-supreme.php:189\nec-theme-woocommerce.php:145",
        "comment": ""
    },
    {
        "term": "Failed order",
        "definition": "Mislukte bestelling",
        "context": "",
        "term_plural": "",
        "reference": "ec-theme-vanilla.php:247 ec-theme-deluxe.php:204 ec-theme-supreme.php:204\nec-theme-woocommerce.php:160",
        "comment": ""
    }
]